%!PS-Adobe-2.0 EPSF-2.0
%%Creator: gnuplot 5.2 patchlevel 8
%%CreationDate: Tue Sep 27 11:55:15 2022
%%DocumentFonts: (atend)
%%BoundingBox: 50 50 410 302
%%EndComments
%%BeginProlog
/gnudict 256 dict def
gnudict begin
%
% The following true/false flags may be edited by hand if desired.
% The unit line width and grayscale image gamma correction may also be changed.
%
/Color true def
/Blacktext false def
/Solid false def
/Dashlength 1 def
/Landscape false def
/Level1 false def
/Level3 false def
/Rounded false def
/ClipToBoundingBox false def
/SuppressPDFMark false def
/TransparentPatterns false def
/gnulinewidth 5.000 def
/userlinewidth gnulinewidth def
/Gamma 1.0 def
/BackgroundColor {-1.000 -1.000 -1.000} def
%
/vshift -46 def
/dl1 {
  10.0 Dashlength userlinewidth gnulinewidth div mul mul mul
  Rounded { currentlinewidth 0.75 mul sub dup 0 le { pop 0.01 } if } if
} def
/dl2 {
  10.0 Dashlength userlinewidth gnulinewidth div mul mul mul
  Rounded { currentlinewidth 0.75 mul add } if
} def
/hpt_ 31.5 def
/vpt_ 31.5 def
/hpt hpt_ def
/vpt vpt_ def
/doclip {
  ClipToBoundingBox {
    newpath 50 50 moveto 410 50 lineto 410 302 lineto 50 302 lineto closepath
    clip
  } if
} def
%
% Gnuplot Prolog Version 5.2 (Dec 2017)
%
%/SuppressPDFMark true def
%
/M {moveto} bind def
/L {lineto} bind def
/R {rmoveto} bind def
/V {rlineto} bind def
/N {newpath moveto} bind def
/Z {closepath} bind def
/C {setrgbcolor} bind def
/f {rlineto fill} bind def
/g {setgray} bind def
/Gshow {show} def   % May be redefined later in the file to support UTF-8
/vpt2 vpt 2 mul def
/hpt2 hpt 2 mul def
/Lshow {currentpoint stroke M 0 vshift R 
	Blacktext {gsave 0 setgray textshow grestore} {textshow} ifelse} def
/Rshow {currentpoint stroke M dup stringwidth pop neg vshift R
	Blacktext {gsave 0 setgray textshow grestore} {textshow} ifelse} def
/Cshow {currentpoint stroke M dup stringwidth pop -2 div vshift R 
	Blacktext {gsave 0 setgray textshow grestore} {textshow} ifelse} def
/UP {dup vpt_ mul /vpt exch def hpt_ mul /hpt exch def
  /hpt2 hpt 2 mul def /vpt2 vpt 2 mul def} def
/DL {Color {setrgbcolor Solid {pop []} if 0 setdash}
 {pop pop pop 0 setgray Solid {pop []} if 0 setdash} ifelse} def
/BL {stroke userlinewidth 2 mul setlinewidth
	Rounded {1 setlinejoin 1 setlinecap} if} def
/AL {stroke userlinewidth 2 div setlinewidth
	Rounded {1 setlinejoin 1 setlinecap} if} def
/UL {dup gnulinewidth mul /userlinewidth exch def
	dup 1 lt {pop 1} if 10 mul /udl exch def} def
/PL {stroke userlinewidth setlinewidth
	Rounded {1 setlinejoin 1 setlinecap} if} def
3.8 setmiterlimit
% Classic Line colors (version 5.0)
/LCw {1 1 1} def
/LCb {0 0 0} def
/LCa {0 0 0} def
/LC0 {1 0 0} def
/LC1 {0 1 0} def
/LC2 {0 0 1} def
/LC3 {1 0 1} def
/LC4 {0 1 1} def
/LC5 {1 1 0} def
/LC6 {0 0 0} def
/LC7 {1 0.3 0} def
/LC8 {0.5 0.5 0.5} def
% Default dash patterns (version 5.0)
/LTB {BL [] LCb DL} def
/LTw {PL [] 1 setgray} def
/LTb {PL [] LCb DL} def
/LTa {AL [1 udl mul 2 udl mul] 0 setdash LCa setrgbcolor} def
/LT0 {PL [] LC0 DL} def
/LT1 {PL [2 dl1 3 dl2] LC1 DL} def
/LT2 {PL [1 dl1 1.5 dl2] LC2 DL} def
/LT3 {PL [6 dl1 2 dl2 1 dl1 2 dl2] LC3 DL} def
/LT4 {PL [1 dl1 2 dl2 6 dl1 2 dl2 1 dl1 2 dl2] LC4 DL} def
/LT5 {PL [4 dl1 2 dl2] LC5 DL} def
/LT6 {PL [1.5 dl1 1.5 dl2 1.5 dl1 1.5 dl2 1.5 dl1 6 dl2] LC6 DL} def
/LT7 {PL [3 dl1 3 dl2 1 dl1 3 dl2] LC7 DL} def
/LT8 {PL [2 dl1 2 dl2 2 dl1 6 dl2] LC8 DL} def
/SL {[] 0 setdash} def
/Pnt {stroke [] 0 setdash gsave 1 setlinecap M 0 0 V stroke grestore} def
/Dia {stroke [] 0 setdash 2 copy vpt add M
  hpt neg vpt neg V hpt vpt neg V
  hpt vpt V hpt neg vpt V closepath stroke
  Pnt} def
/Pls {stroke [] 0 setdash vpt sub M 0 vpt2 V
  currentpoint stroke M
  hpt neg vpt neg R hpt2 0 V stroke
 } def
/Box {stroke [] 0 setdash 2 copy exch hpt sub exch vpt add M
  0 vpt2 neg V hpt2 0 V 0 vpt2 V
  hpt2 neg 0 V closepath stroke
  Pnt} def
/Crs {stroke [] 0 setdash exch hpt sub exch vpt add M
  hpt2 vpt2 neg V currentpoint stroke M
  hpt2 neg 0 R hpt2 vpt2 V stroke} def
/TriU {stroke [] 0 setdash 2 copy vpt 1.12 mul add M
  hpt neg vpt -1.62 mul V
  hpt 2 mul 0 V
  hpt neg vpt 1.62 mul V closepath stroke
  Pnt} def
/Star {2 copy Pls Crs} def
/BoxF {stroke [] 0 setdash exch hpt sub exch vpt add M
  0 vpt2 neg V hpt2 0 V 0 vpt2 V
  hpt2 neg 0 V closepath fill} def
/TriUF {stroke [] 0 setdash vpt 1.12 mul add M
  hpt neg vpt -1.62 mul V
  hpt 2 mul 0 V
  hpt neg vpt 1.62 mul V closepath fill} def
/TriD {stroke [] 0 setdash 2 copy vpt 1.12 mul sub M
  hpt neg vpt 1.62 mul V
  hpt 2 mul 0 V
  hpt neg vpt -1.62 mul V closepath stroke
  Pnt} def
/TriDF {stroke [] 0 setdash vpt 1.12 mul sub M
  hpt neg vpt 1.62 mul V
  hpt 2 mul 0 V
  hpt neg vpt -1.62 mul V closepath fill} def
/DiaF {stroke [] 0 setdash vpt add M
  hpt neg vpt neg V hpt vpt neg V
  hpt vpt V hpt neg vpt V closepath fill} def
/Pent {stroke [] 0 setdash 2 copy gsave
  translate 0 hpt M 4 {72 rotate 0 hpt L} repeat
  closepath stroke grestore Pnt} def
/PentF {stroke [] 0 setdash gsave
  translate 0 hpt M 4 {72 rotate 0 hpt L} repeat
  closepath fill grestore} def
/Circle {stroke [] 0 setdash 2 copy
  hpt 0 360 arc stroke Pnt} def
/CircleF {stroke [] 0 setdash hpt 0 360 arc fill} def
/C0 {BL [] 0 setdash 2 copy moveto vpt 90 450 arc} bind def
/C1 {BL [] 0 setdash 2 copy moveto
	2 copy vpt 0 90 arc closepath fill
	vpt 0 360 arc closepath} bind def
/C2 {BL [] 0 setdash 2 copy moveto
	2 copy vpt 90 180 arc closepath fill
	vpt 0 360 arc closepath} bind def
/C3 {BL [] 0 setdash 2 copy moveto
	2 copy vpt 0 180 arc closepath fill
	vpt 0 360 arc closepath} bind def
/C4 {BL [] 0 setdash 2 copy moveto
	2 copy vpt 180 270 arc closepath fill
	vpt 0 360 arc closepath} bind def
/C5 {BL [] 0 setdash 2 copy moveto
	2 copy vpt 0 90 arc
	2 copy moveto
	2 copy vpt 180 270 arc closepath fill
	vpt 0 360 arc} bind def
/C6 {BL [] 0 setdash 2 copy moveto
	2 copy vpt 90 270 arc closepath fill
	vpt 0 360 arc closepath} bind def
/C7 {BL [] 0 setdash 2 copy moveto
	2 copy vpt 0 270 arc closepath fill
	vpt 0 360 arc closepath} bind def
/C8 {BL [] 0 setdash 2 copy moveto
	2 copy vpt 270 360 arc closepath fill
	vpt 0 360 arc closepath} bind def
/C9 {BL [] 0 setdash 2 copy moveto
	2 copy vpt 270 450 arc closepath fill
	vpt 0 360 arc closepath} bind def
/C10 {BL [] 0 setdash 2 copy 2 copy moveto vpt 270 360 arc closepath fill
	2 copy moveto
	2 copy vpt 90 180 arc closepath fill
	vpt 0 360 arc closepath} bind def
/C11 {BL [] 0 setdash 2 copy moveto
	2 copy vpt 0 180 arc closepath fill
	2 copy moveto
	2 copy vpt 270 360 arc closepath fill
	vpt 0 360 arc closepath} bind def
/C12 {BL [] 0 setdash 2 copy moveto
	2 copy vpt 180 360 arc closepath fill
	vpt 0 360 arc closepath} bind def
/C13 {BL [] 0 setdash 2 copy moveto
	2 copy vpt 0 90 arc closepath fill
	2 copy moveto
	2 copy vpt 180 360 arc closepath fill
	vpt 0 360 arc closepath} bind def
/C14 {BL [] 0 setdash 2 copy moveto
	2 copy vpt 90 360 arc closepath fill
	vpt 0 360 arc} bind def
/C15 {BL [] 0 setdash 2 copy vpt 0 360 arc closepath fill
	vpt 0 360 arc closepath} bind def
/Rec {newpath 4 2 roll moveto 1 index 0 rlineto 0 exch rlineto
	neg 0 rlineto closepath} bind def
/Square {dup Rec} bind def
/Bsquare {vpt sub exch vpt sub exch vpt2 Square} bind def
/S0 {BL [] 0 setdash 2 copy moveto 0 vpt rlineto BL Bsquare} bind def
/S1 {BL [] 0 setdash 2 copy vpt Square fill Bsquare} bind def
/S2 {BL [] 0 setdash 2 copy exch vpt sub exch vpt Square fill Bsquare} bind def
/S3 {BL [] 0 setdash 2 copy exch vpt sub exch vpt2 vpt Rec fill Bsquare} bind def
/S4 {BL [] 0 setdash 2 copy exch vpt sub exch vpt sub vpt Square fill Bsquare} bind def
/S5 {BL [] 0 setdash 2 copy 2 copy vpt Square fill
	exch vpt sub exch vpt sub vpt Square fill Bsquare} bind def
/S6 {BL [] 0 setdash 2 copy exch vpt sub exch vpt sub vpt vpt2 Rec fill Bsquare} bind def
/S7 {BL [] 0 setdash 2 copy exch vpt sub exch vpt sub vpt vpt2 Rec fill
	2 copy vpt Square fill Bsquare} bind def
/S8 {BL [] 0 setdash 2 copy vpt sub vpt Square fill Bsquare} bind def
/S9 {BL [] 0 setdash 2 copy vpt sub vpt vpt2 Rec fill Bsquare} bind def
/S10 {BL [] 0 setdash 2 copy vpt sub vpt Square fill 2 copy exch vpt sub exch vpt Square fill
	Bsquare} bind def
/S11 {BL [] 0 setdash 2 copy vpt sub vpt Square fill 2 copy exch vpt sub exch vpt2 vpt Rec fill
	Bsquare} bind def
/S12 {BL [] 0 setdash 2 copy exch vpt sub exch vpt sub vpt2 vpt Rec fill Bsquare} bind def
/S13 {BL [] 0 setdash 2 copy exch vpt sub exch vpt sub vpt2 vpt Rec fill
	2 copy vpt Square fill Bsquare} bind def
/S14 {BL [] 0 setdash 2 copy exch vpt sub exch vpt sub vpt2 vpt Rec fill
	2 copy exch vpt sub exch vpt Square fill Bsquare} bind def
/S15 {BL [] 0 setdash 2 copy Bsquare fill Bsquare} bind def
/D0 {gsave translate 45 rotate 0 0 S0 stroke grestore} bind def
/D1 {gsave translate 45 rotate 0 0 S1 stroke grestore} bind def
/D2 {gsave translate 45 rotate 0 0 S2 stroke grestore} bind def
/D3 {gsave translate 45 rotate 0 0 S3 stroke grestore} bind def
/D4 {gsave translate 45 rotate 0 0 S4 stroke grestore} bind def
/D5 {gsave translate 45 rotate 0 0 S5 stroke grestore} bind def
/D6 {gsave translate 45 rotate 0 0 S6 stroke grestore} bind def
/D7 {gsave translate 45 rotate 0 0 S7 stroke grestore} bind def
/D8 {gsave translate 45 rotate 0 0 S8 stroke grestore} bind def
/D9 {gsave translate 45 rotate 0 0 S9 stroke grestore} bind def
/D10 {gsave translate 45 rotate 0 0 S10 stroke grestore} bind def
/D11 {gsave translate 45 rotate 0 0 S11 stroke grestore} bind def
/D12 {gsave translate 45 rotate 0 0 S12 stroke grestore} bind def
/D13 {gsave translate 45 rotate 0 0 S13 stroke grestore} bind def
/D14 {gsave translate 45 rotate 0 0 S14 stroke grestore} bind def
/D15 {gsave translate 45 rotate 0 0 S15 stroke grestore} bind def
/DiaE {stroke [] 0 setdash vpt add M
  hpt neg vpt neg V hpt vpt neg V
  hpt vpt V hpt neg vpt V closepath stroke} def
/BoxE {stroke [] 0 setdash exch hpt sub exch vpt add M
  0 vpt2 neg V hpt2 0 V 0 vpt2 V
  hpt2 neg 0 V closepath stroke} def
/TriUE {stroke [] 0 setdash vpt 1.12 mul add M
  hpt neg vpt -1.62 mul V
  hpt 2 mul 0 V
  hpt neg vpt 1.62 mul V closepath stroke} def
/TriDE {stroke [] 0 setdash vpt 1.12 mul sub M
  hpt neg vpt 1.62 mul V
  hpt 2 mul 0 V
  hpt neg vpt -1.62 mul V closepath stroke} def
/PentE {stroke [] 0 setdash gsave
  translate 0 hpt M 4 {72 rotate 0 hpt L} repeat
  closepath stroke grestore} def
/CircE {stroke [] 0 setdash 
  hpt 0 360 arc stroke} def
/Opaque {gsave closepath 1 setgray fill grestore 0 setgray closepath} def
/DiaW {stroke [] 0 setdash vpt add M
  hpt neg vpt neg V hpt vpt neg V
  hpt vpt V hpt neg vpt V Opaque stroke} def
/BoxW {stroke [] 0 setdash exch hpt sub exch vpt add M
  0 vpt2 neg V hpt2 0 V 0 vpt2 V
  hpt2 neg 0 V Opaque stroke} def
/TriUW {stroke [] 0 setdash vpt 1.12 mul add M
  hpt neg vpt -1.62 mul V
  hpt 2 mul 0 V
  hpt neg vpt 1.62 mul V Opaque stroke} def
/TriDW {stroke [] 0 setdash vpt 1.12 mul sub M
  hpt neg vpt 1.62 mul V
  hpt 2 mul 0 V
  hpt neg vpt -1.62 mul V Opaque stroke} def
/PentW {stroke [] 0 setdash gsave
  translate 0 hpt M 4 {72 rotate 0 hpt L} repeat
  Opaque stroke grestore} def
/CircW {stroke [] 0 setdash 
  hpt 0 360 arc Opaque stroke} def
/BoxFill {gsave Rec 1 setgray fill grestore} def
/Density {
  /Fillden exch def
  currentrgbcolor
  /ColB exch def /ColG exch def /ColR exch def
  /ColR ColR Fillden mul Fillden sub 1 add def
  /ColG ColG Fillden mul Fillden sub 1 add def
  /ColB ColB Fillden mul Fillden sub 1 add def
  ColR ColG ColB setrgbcolor} def
/BoxColFill {gsave Rec PolyFill} def
/PolyFill {gsave Density fill grestore grestore} def
/h {rlineto rlineto rlineto closepath gsave fill grestore stroke} bind def
%
% PostScript Level 1 Pattern Fill routine for rectangles
% Usage: x y w h s a XX PatternFill
%	x,y = lower left corner of box to be filled
%	w,h = width and height of box
%	  a = angle in degrees between lines and x-axis
%	 XX = 0/1 for no/yes cross-hatch
%
/PatternFill {gsave /PFa [ 9 2 roll ] def
  PFa 0 get PFa 2 get 2 div add PFa 1 get PFa 3 get 2 div add translate
  PFa 2 get -2 div PFa 3 get -2 div PFa 2 get PFa 3 get Rec
  TransparentPatterns {} {gsave 1 setgray fill grestore} ifelse
  clip
  currentlinewidth 0.5 mul setlinewidth
  /PFs PFa 2 get dup mul PFa 3 get dup mul add sqrt def
  0 0 M PFa 5 get rotate PFs -2 div dup translate
  0 1 PFs PFa 4 get div 1 add floor cvi
	{PFa 4 get mul 0 M 0 PFs V} for
  0 PFa 6 get ne {
	0 1 PFs PFa 4 get div 1 add floor cvi
	{PFa 4 get mul 0 2 1 roll M PFs 0 V} for
 } if
  stroke grestore} def
%
/languagelevel where
 {pop languagelevel} {1} ifelse
dup 2 lt
	{/InterpretLevel1 true def
	 /InterpretLevel3 false def}
	{/InterpretLevel1 Level1 def
	 2 gt
	    {/InterpretLevel3 Level3 def}
	    {/InterpretLevel3 false def}
	 ifelse }
 ifelse
%
% PostScript level 2 pattern fill definitions
%
/Level2PatternFill {
/Tile8x8 {/PaintType 2 /PatternType 1 /TilingType 1 /BBox [0 0 8 8] /XStep 8 /YStep 8}
	bind def
/KeepColor {currentrgbcolor [/Pattern /DeviceRGB] setcolorspace} bind def
<< Tile8x8
 /PaintProc {0.5 setlinewidth pop 0 0 M 8 8 L 0 8 M 8 0 L stroke} 
>> matrix makepattern
/Pat1 exch def
<< Tile8x8
 /PaintProc {0.5 setlinewidth pop 0 0 M 8 8 L 0 8 M 8 0 L stroke
	0 4 M 4 8 L 8 4 L 4 0 L 0 4 L stroke}
>> matrix makepattern
/Pat2 exch def
<< Tile8x8
 /PaintProc {0.5 setlinewidth pop 0 0 M 0 8 L
	8 8 L 8 0 L 0 0 L fill}
>> matrix makepattern
/Pat3 exch def
<< Tile8x8
 /PaintProc {0.5 setlinewidth pop -4 8 M 8 -4 L
	0 12 M 12 0 L stroke}
>> matrix makepattern
/Pat4 exch def
<< Tile8x8
 /PaintProc {0.5 setlinewidth pop -4 0 M 8 12 L
	0 -4 M 12 8 L stroke}
>> matrix makepattern
/Pat5 exch def
<< Tile8x8
 /PaintProc {0.5 setlinewidth pop -2 8 M 4 -4 L
	0 12 M 8 -4 L 4 12 M 10 0 L stroke}
>> matrix makepattern
/Pat6 exch def
<< Tile8x8
 /PaintProc {0.5 setlinewidth pop -2 0 M 4 12 L
	0 -4 M 8 12 L 4 -4 M 10 8 L stroke}
>> matrix makepattern
/Pat7 exch def
<< Tile8x8
 /PaintProc {0.5 setlinewidth pop 8 -2 M -4 4 L
	12 0 M -4 8 L 12 4 M 0 10 L stroke}
>> matrix makepattern
/Pat8 exch def
<< Tile8x8
 /PaintProc {0.5 setlinewidth pop 0 -2 M 12 4 L
	-4 0 M 12 8 L -4 4 M 8 10 L stroke}
>> matrix makepattern
/Pat9 exch def
/Pattern1 {PatternBgnd KeepColor Pat1 setpattern} bind def
/Pattern2 {PatternBgnd KeepColor Pat2 setpattern} bind def
/Pattern3 {PatternBgnd KeepColor Pat3 setpattern} bind def
/Pattern4 {PatternBgnd KeepColor Landscape {Pat5} {Pat4} ifelse setpattern} bind def
/Pattern5 {PatternBgnd KeepColor Landscape {Pat4} {Pat5} ifelse setpattern} bind def
/Pattern6 {PatternBgnd KeepColor Landscape {Pat9} {Pat6} ifelse setpattern} bind def
/Pattern7 {PatternBgnd KeepColor Landscape {Pat8} {Pat7} ifelse setpattern} bind def
} def
%
%
%End of PostScript Level 2 code
%
/PatternBgnd {
  TransparentPatterns {} {gsave 1 setgray fill grestore} ifelse
} def
%
% Substitute for Level 2 pattern fill codes with
% grayscale if Level 2 support is not selected.
%
/Level1PatternFill {
/Pattern1 {0.250 Density} bind def
/Pattern2 {0.500 Density} bind def
/Pattern3 {0.750 Density} bind def
/Pattern4 {0.125 Density} bind def
/Pattern5 {0.375 Density} bind def
/Pattern6 {0.625 Density} bind def
/Pattern7 {0.875 Density} bind def
} def
%
% Now test for support of Level 2 code
%
Level1 {Level1PatternFill} {Level2PatternFill} ifelse
%
/Symbol-Oblique /Symbol findfont [1 0 .167 1 0 0] makefont
dup length dict begin {1 index /FID eq {pop pop} {def} ifelse} forall
currentdict end definefont pop
%
/Metrics {ExtendTextBox Gswidth} def
/Lwidth {currentpoint stroke M 0 vshift R Metrics} def
/Rwidth {currentpoint stroke M dup stringwidth pop neg vshift R Metrics} def
/Cwidth {currentpoint stroke M dup stringwidth pop -2 div vshift R Metrics} def
/GLwidth {currentpoint stroke M 0 vshift R {ExtendTextBox} forall} def
/GRwidth {currentpoint stroke M dup Gwidth vshift R {ExtendTextBox} forall} def
/GCwidth {currentpoint stroke M dup Gwidth 2 div vshift R {ExtendTextBox} forall} def
/GLwidth2 {0 Gwidth AddGlyphWidth} def
/GRwidth2 {Gwidth -1 mul 0 AddGlyphWidth} def
/GCwidth2 {Gwidth 2 div dup -1 mul AddGlyphWidth} def
/AddGlyphWidth { dup TBx2 gt {userdict /TBx2 3 -1 roll put} {pop} ifelse
                 dup TBx1 lt {userdict /TBx1 3 -1 roll put} {pop} ifelse } def
/MFshow {
   { dup 5 get 3 ge
     { 5 get 3 eq {gsave} {grestore} ifelse }
     {dup dup 0 get findfont exch 1 get scalefont setfont
     [ currentpoint ] exch dup 2 get 0 exch R dup 5 get 2 ne {dup dup 6
     get exch 4 get {textshow} {Metrics pop 0 R} ifelse }if dup 5 get 0 eq
     {dup 3 get {2 get neg 0 exch R pop} {pop aload pop M} ifelse} {dup 5
     get 1 eq {dup 2 get exch dup 3 get exch 6 get Gswidth pop -2 div
     dup 0 R} {dup 6 get Gswidth pop -2 div 0 R 6 get
     textshow 2 index {aload pop M neg 3 -1 roll neg R pop pop} {pop pop pop
     pop aload pop M} ifelse }ifelse }ifelse }
     ifelse }
   forall} def
/Gswidth {dup type /stringtype eq {stringwidth} {pop (n) stringwidth} ifelse} def
/MFwidth {0 exch { dup 5 get 3 ge { 5 get 3 eq { 0 } { pop } ifelse }
 {dup 3 get{dup dup 0 get findfont exch 1 get scalefont setfont
     6 get Gswidth pop add} {pop} ifelse} ifelse} forall} def
/MLshow { currentpoint stroke M
  0 exch R
  Blacktext {gsave 0 setgray MFshow grestore} {MFshow} ifelse } bind def
/MRshow { currentpoint stroke M
  exch dup MFwidth neg 3 -1 roll R
  Blacktext {gsave 0 setgray MFshow grestore} {MFshow} ifelse } bind def
/MCshow { currentpoint stroke M
  exch dup MFwidth -2 div 3 -1 roll R
  Blacktext {gsave 0 setgray MFshow grestore} {MFshow} ifelse } bind def
/XYsave    { [( ) 1 2 true false 3 ()] } bind def
/XYrestore { [( ) 1 2 true false 4 ()] } bind def
Level1 SuppressPDFMark or 
{} {
/SDict 10 dict def
systemdict /pdfmark known not {
  userdict /pdfmark systemdict /cleartomark get put
} if
SDict begin [
  /Title ()
  /Subject (gnuplot plot)
  /Creator (gnuplot 5.2 patchlevel 8)
%  /Producer (gnuplot)
%  /Keywords ()
  /CreationDate (Tue Sep 27 11:55:15 2022)
  /DOCINFO pdfmark
end
} ifelse
%
% Support for boxed text - Ethan A Merritt Sep 2016
%
/InitTextBox { userdict /TBy2 3 -1 roll put userdict /TBx2 3 -1 roll put
           userdict /TBy1 3 -1 roll put userdict /TBx1 3 -1 roll put
	   /Boxing true def } def
/ExtendTextBox { dup type /stringtype eq
    { Boxing { gsave dup false charpath pathbbox
      dup TBy2 gt {userdict /TBy2 3 -1 roll put} {pop} ifelse
      dup TBx2 gt {userdict /TBx2 3 -1 roll put} {pop} ifelse
      dup TBy1 lt {userdict /TBy1 3 -1 roll put} {pop} ifelse
      dup TBx1 lt {userdict /TBx1 3 -1 roll put} {pop} ifelse
      grestore } if }
    {} ifelse} def
/PopTextBox { newpath TBx1 TBxmargin sub TBy1 TBymargin sub M
               TBx1 TBxmargin sub TBy2 TBymargin add L
	       TBx2 TBxmargin add TBy2 TBymargin add L
	       TBx2 TBxmargin add TBy1 TBymargin sub L closepath } def
/DrawTextBox { PopTextBox stroke /Boxing false def} def
/FillTextBox { gsave PopTextBox fill grestore /Boxing false def} def
0 0 0 0 InitTextBox
/TBxmargin 20 def
/TBymargin 20 def
/Boxing false def
/textshow { ExtendTextBox Gshow } def
%
end
%%EndProlog
%%Page: 1 1
gnudict begin
gsave
doclip
50 50 translate
0.050 0.050 scale
0 setgray
newpath
(Helvetica) findfont 140 scalefont setfont
BackgroundColor 0 lt 3 1 roll 0 lt exch 0 lt or or not {BackgroundColor C 1.000 0 0 7200.00 5040.00 BoxColFill} if
2.000 UL
LTb
LCb setrgbcolor
686 695 M
63 0 V
6198 0 R
-63 0 V
stroke
602 695 M
[ [(Helvetica) 140.0 0.0 true true 0 (-400)]
] -46.7 MRshow
/Helvetica findfont 140 scalefont setfont
/vshift -46 def
2.000 UL
LTb
LCb setrgbcolor
686 1190 M
63 0 V
6198 0 R
-63 0 V
stroke
602 1190 M
[ [(Helvetica) 140.0 0.0 true true 0 (-300)]
] -46.7 MRshow
/Helvetica findfont 140 scalefont setfont
2.000 UL
LTb
LCb setrgbcolor
686 1684 M
63 0 V
6198 0 R
-63 0 V
stroke
602 1684 M
[ [(Helvetica) 140.0 0.0 true true 0 (-200)]
] -46.7 MRshow
/Helvetica findfont 140 scalefont setfont
2.000 UL
LTb
LCb setrgbcolor
686 2179 M
63 0 V
6198 0 R
-63 0 V
stroke
602 2179 M
[ [(Helvetica) 140.0 0.0 true true 0 (-100)]
] -46.7 MRshow
/Helvetica findfont 140 scalefont setfont
2.000 UL
LTb
LCb setrgbcolor
686 2674 M
63 0 V
6198 0 R
-63 0 V
stroke
602 2674 M
[ [(Helvetica) 140.0 0.0 true true 0 ( 0)]
] -46.7 MRshow
/Helvetica findfont 140 scalefont setfont
2.000 UL
LTb
LCb setrgbcolor
686 3168 M
63 0 V
6198 0 R
-63 0 V
stroke
602 3168 M
[ [(Helvetica) 140.0 0.0 true true 0 ( 100)]
] -46.7 MRshow
/Helvetica findfont 140 scalefont setfont
2.000 UL
LTb
LCb setrgbcolor
686 3663 M
63 0 V
6198 0 R
-63 0 V
stroke
602 3663 M
[ [(Helvetica) 140.0 0.0 true true 0 ( 200)]
] -46.7 MRshow
/Helvetica findfont 140 scalefont setfont
2.000 UL
LTb
LCb setrgbcolor
686 4157 M
63 0 V
6198 0 R
-63 0 V
stroke
602 4157 M
[ [(Helvetica) 140.0 0.0 true true 0 ( 300)]
] -46.7 MRshow
/Helvetica findfont 140 scalefont setfont
2.000 UL
LTb
LCb setrgbcolor
686 4652 M
63 0 V
6198 0 R
-63 0 V
stroke
602 4652 M
[ [(Helvetica) 140.0 0.0 true true 0 ( 400)]
] -46.7 MRshow
/Helvetica findfont 140 scalefont setfont
2.000 UL
LTb
LCb setrgbcolor
686 448 M
0 63 V
0 4388 R
0 -63 V
stroke
686 308 M
[ [(Helvetica) 140.0 0.0 true true 0 ( 0)]
] -46.7 MCshow
/Helvetica findfont 140 scalefont setfont
2.000 UL
LTb
LCb setrgbcolor
1890 448 M
0 63 V
0 4388 R
0 -63 V
stroke
1890 308 M
[ [(Helvetica) 140.0 0.0 true true 0 ( 5)]
] -46.7 MCshow
/Helvetica findfont 140 scalefont setfont
2.000 UL
LTb
LCb setrgbcolor
3094 448 M
0 63 V
0 4388 R
0 -63 V
stroke
3094 308 M
[ [(Helvetica) 140.0 0.0 true true 0 ( 10)]
] -46.7 MCshow
/Helvetica findfont 140 scalefont setfont
2.000 UL
LTb
LCb setrgbcolor
4298 448 M
0 63 V
0 4388 R
0 -63 V
stroke
4298 308 M
[ [(Helvetica) 140.0 0.0 true true 0 ( 15)]
] -46.7 MCshow
/Helvetica findfont 140 scalefont setfont
2.000 UL
LTb
LCb setrgbcolor
5502 448 M
0 63 V
0 4388 R
0 -63 V
stroke
5502 308 M
[ [(Helvetica) 140.0 0.0 true true 0 ( 20)]
] -46.7 MCshow
/Helvetica findfont 140 scalefont setfont
2.000 UL
LTb
LCb setrgbcolor
6706 448 M
0 63 V
0 4388 R
0 -63 V
stroke
6706 308 M
[ [(Helvetica) 140.0 0.0 true true 0 ( 25)]
] -46.7 MCshow
/Helvetica findfont 140 scalefont setfont
2.000 UL
LTb
LCb setrgbcolor
2.000 UL
LTB
LCb setrgbcolor
686 4899 N
686 448 L
6261 0 V
0 4451 V
-6261 0 V
Z stroke
1.000 UP
2.000 UL
LTb
LCb setrgbcolor
LCb setrgbcolor
133 2673 M
currentpoint gsave translate -270 rotate 0 0 moveto
[ [(Arial bold) 180.0 0.0 true true 0 (values)]
] -60.0 MCshow
grestore
/Helvetica findfont 140 scalefont setfont
LTb
LCb setrgbcolor
3816 98 M
[ [(Arial bold) 180.0 0.0 true true 0 (Z [m])]
] -60.0 MCshow
/Helvetica findfont 140 scalefont setfont
LTb
% Begin plot #1
3.000 UL
LTb
0.58 0.00 0.83 C
LCb setrgbcolor
6296 4766 M
[ [(Helvetica) 140.0 0.0 true true 0 (Ex[V/m])]
] -46.7 MRshow
/Helvetica findfont 140 scalefont setfont
3.000 UL
LTb
0.58 0.00 0.83 C
6380 4766 M
399 0 V
686 2673 M
5 1 V
5 0 V
4 0 V
5 0 V
5 0 V
5 0 V
5 0 V
5 -1 V
4 0 V
5 0 V
5 0 V
5 1 V
5 0 V
4 0 V
5 0 V
5 0 V
5 0 V
5 -1 V
4 0 V
5 0 V
5 0 V
5 1 V
5 0 V
5 0 V
4 0 V
5 0 V
5 0 V
5 0 V
5 -1 V
4 0 V
5 0 V
5 0 V
5 1 V
5 0 V
4 0 V
5 0 V
5 0 V
5 0 V
5 -1 V
5 0 V
4 0 V
5 0 V
5 0 V
5 1 V
5 0 V
4 0 V
5 0 V
5 0 V
5 0 V
5 -1 V
4 0 V
5 0 V
5 0 V
5 1 V
5 0 V
5 0 V
4 0 V
5 0 V
5 0 V
5 -1 V
5 0 V
4 0 V
5 0 V
5 0 V
5 1 V
5 0 V
4 0 V
5 0 V
5 0 V
5 0 V
5 -1 V
5 0 V
4 0 V
5 0 V
5 1 V
5 0 V
5 0 V
4 0 V
5 0 V
5 0 V
5 -1 V
5 0 V
4 0 V
5 0 V
5 0 V
5 1 V
5 0 V
5 0 V
4 0 V
5 0 V
5 0 V
5 -1 V
5 0 V
4 0 V
5 0 V
5 0 V
5 1 V
5 0 V
4 0 V
5 0 V
5 0 V
5 -1 V
5 0 V
5 0 V
4 0 V
5 0 V
5 1 V
5 0 V
5 0 V
4 0 V
5 0 V
5 0 V
5 -1 V
5 0 V
4 0 V
5 0 V
5 0 V
5 1 V
5 0 V
5 0 V
4 0 V
5 0 V
5 -1 V
5 0 V
5 0 V
4 0 V
5 0 V
5 0 V
5 1 V
5 1 V
4 0 V
5 -1 V
5 0 V
5 -1 V
5 0 V
5 -1 V
4 0 V
5 1 V
5 1 V
5 0 V
5 1 V
4 0 V
5 -1 V
5 0 V
5 -1 V
5 -1 V
4 0 V
5 0 V
5 1 V
5 1 V
5 1 V
5 0 V
4 0 V
5 -1 V
5 -1 V
5 -1 V
5 0 V
4 0 V
5 1 V
5 1 V
5 1 V
5 0 V
4 0 V
5 0 V
5 -1 V
5 -1 V
5 -1 V
5 -1 V
4 1 V
5 1 V
5 1 V
5 1 V
5 1 V
4 0 V
5 -1 V
5 -2 V
5 -1 V
5 -1 V
4 0 V
5 1 V
5 1 V
5 2 V
5 1 V
5 0 V
4 0 V
5 -2 V
5 -1 V
5 -2 V
5 0 V
4 0 V
5 1 V
5 2 V
5 2 V
5 1 V
4 0 V
5 -2 V
5 -1 V
5 -2 V
5 -2 V
5 0 V
4 1 V
5 2 V
5 2 V
5 2 V
5 0 V
4 0 V
5 -2 V
5 -2 V
5 -3 V
5 -1 V
5 1 V
4 1 V
5 3 V
5 2 V
5 2 V
5 0 V
4 -1 V
5 -3 V
5 -3 V
5 -2 V
5 0 V
4 1 V
5 2 V
5 3 V
5 3 V
5 1 V
5 -1 V
4 -2 V
5 -3 V
5 -3 V
5 -2 V
5 0 V
4 2 V
5 3 V
5 4 V
5 2 V
5 1 V
4 -2 V
5 -3 V
5 -4 V
5 -3 V
5 -2 V
5 1 V
4 4 V
5 4 V
5 4 V
5 2 V
stroke 1875 2681 M
5 0 V
4 -3 V
5 -5 V
5 -4 V
5 0 V
5 5 V
4 5 V
5 -1 V
5 -6 V
5 -5 V
5 3 V
5 7 V
4 4 V
5 -4 V
5 -8 V
5 -4 V
5 6 V
4 9 V
5 2 V
5 -8 V
5 -9 V
5 0 V
4 10 V
5 9 V
5 -2 V
5 -12 V
5 -8 V
5 4 V
4 13 V
5 8 V
5 -8 V
5 -14 V
5 -6 V
4 11 V
5 15 V
5 3 V
5 -14 V
5 -15 V
4 0 V
5 17 V
5 15 V
5 -5 V
5 -19 V
5 -13 V
4 9 V
5 22 V
5 10 V
5 -14 V
5 -23 V
4 -7 V
5 19 V
5 24 V
5 2 V
5 -23 V
4 -24 V
5 3 V
5 28 V
5 22 V
5 -9 V
5 -33 V
4 -19 V
5 17 V
5 36 V
5 14 V
5 -25 V
4 -37 V
5 -8 V
5 32 V
5 38 V
5 0 V
4 -40 V
5 -36 V
5 9 V
5 47 V
5 33 V
5 -20 V
4 -53 V
5 -26 V
5 31 V
5 57 V
5 18 V
4 -44 V
5 -58 V
5 -7 V
5 55 V
5 58 V
4 -7 V
5 -66 V
5 -54 V
5 22 V
5 77 V
5 46 V
4 -39 V
5 -84 V
5 -35 V
5 57 V
5 88 V
4 20 V
5 -75 V
5 -89 V
5 -2 V
5 93 V
4 86 V
5 -20 V
5 -110 V
5 -77 V
5 45 V
5 123 V
4 64 V
5 -73 V
5 -132 V
5 -44 V
5 101 V
4 137 V
5 18 V
5 -129 V
5 -135 V
5 13 V
4 155 V
5 126 V
5 -49 V
5 -178 V
5 -109 V
5 89 V
4 196 V
5 83 V
5 -131 V
5 -207 V
5 -49 V
4 174 V
5 210 V
5 6 V
5 -216 V
5 -203 V
4 46 V
5 254 V
5 183 V
5 -103 V
5 -287 V
5 -150 V
4 166 V
5 310 V
5 104 V
5 -232 V
5 -321 V
4 -45 V
5 298 V
5 318 V
5 -27 V
5 -360 V
5 -298 V
4 111 V
5 414 V
5 259 V
5 222 V
5 165 V
4 94 V
5 13 V
5 -68 V
5 -145 V
5 -207 V
4 -252 V
5 -274 V
5 -272 V
5 -244 V
5 -196 V
5 -128 V
4 -50 V
5 33 V
5 114 V
5 185 V
5 239 V
4 271 V
5 280 V
5 264 V
5 223 V
5 162 V
4 87 V
5 4 V
5 -81 V
5 -157 V
5 -221 V
5 -264 V
4 -284 V
5 -279 V
5 -248 V
5 -194 V
5 -124 V
4 -42 V
5 44 V
5 127 V
5 198 V
5 252 V
4 283 V
5 289 V
5 269 V
5 225 V
5 161 V
5 81 V
4 -6 V
5 -93 V
5 -171 V
5 -234 V
5 -277 V
4 -296 V
5 -286 V
5 -252 V
5 -196 V
5 -120 V
4 -34 V
5 55 V
5 139 V
5 213 V
5 266 V
5 295 V
4 300 V
5 276 V
5 228 V
5 159 V
5 75 V
4 -15 V
5 -104 V
5 -185 V
5 -249 V
5 -291 V
4 -307 V
5 -296 V
5 -258 V
5 -196 V
5 -117 V
5 -28 V
4 66 V
5 153 V
5 226 V
5 281 V
5 310 V
4 310 V
5 284 V
5 232 V
5 159 V
5 70 V
4 -23 V
5 -117 V
5 -199 V
5 -264 V
5 -305 V
5 -321 V
4 -306 V
5 -264 V
stroke 3073 1930 M
5 -199 V
5 -115 V
5 -20 V
4 76 V
5 166 V
5 241 V
5 296 V
5 324 V
4 323 V
5 293 V
5 237 V
5 159 V
5 67 V
5 -32 V
4 -129 V
5 -213 V
5 -280 V
5 -321 V
5 -334 V
4 -318 V
5 -272 V
5 -202 V
5 -113 V
5 -15 V
4 86 V
5 180 V
5 257 V
5 312 V
5 339 V
5 337 V
4 303 V
5 243 V
5 160 V
5 63 V
5 -40 V
4 -140 V
5 -228 V
5 -296 V
5 -338 V
5 -349 V
4 -330 V
5 -281 V
5 -206 V
5 -113 V
5 -9 V
5 96 V
4 193 V
5 273 V
5 329 V
5 356 V
5 351 V
4 315 V
5 250 V
5 162 V
5 61 V
5 -48 V
4 -152 V
5 -243 V
5 -313 V
5 -355 V
5 -366 V
5 -344 V
4 -290 V
5 -212 V
5 -113 V
5 -4 V
5 106 V
4 207 V
5 289 V
5 347 V
5 373 V
5 367 V
4 327 V
5 258 V
5 166 V
5 58 V
5 -54 V
5 -164 V
4 -259 V
5 -330 V
5 -374 V
5 -383 V
5 -358 V
4 -302 V
5 -218 V
5 -114 V
5 1 V
5 115 V
4 220 V
5 307 V
5 365 V
5 392 V
5 383 V
5 341 V
4 268 V
5 170 V
5 57 V
5 -62 V
5 -175 V
4 -275 V
5 -348 V
5 -393 V
5 -401 V
5 -375 V
5 -314 V
4 -225 V
5 -116 V
5 4 V
5 124 V
5 235 V
4 324 V
5 384 V
5 411 V
5 402 V
5 356 V
4 278 V
5 176 V
5 56 V
5 -68 V
5 -187 V
5 -290 V
4 -368 V
5 -413 V
5 -421 V
5 -392 V
5 -328 V
4 -233 V
5 -119 V
5 7 V
5 134 V
5 248 V
4 342 V
5 404 V
5 432 V
5 421 V
5 373 V
5 290 V
4 181 V
5 57 V
5 -74 V
5 -199 V
5 -306 V
4 -388 V
5 -433 V
5 -442 V
5 -411 V
5 -342 V
4 -244 V
5 -123 V
5 10 V
5 143 V
5 262 V
5 360 V
4 426 V
5 -531 V
5 -455 V
5 -341 V
5 -197 V
4 -36 V
5 127 V
5 279 V
5 405 V
5 496 V
4 541 V
5 540 V
5 490 V
5 398 V
5 271 V
5 120 V
4 -40 V
5 -196 V
5 -335 V
5 -443 V
5 -512 V
4 -535 V
5 -511 V
5 -442 V
5 -335 V
5 -198 V
4 -45 V
5 112 V
5 259 V
5 381 V
5 470 V
5 518 V
4 518 V
5 474 V
5 388 V
5 268 V
5 125 V
4 -28 V
5 -179 V
5 -313 V
5 -418 V
5 -487 V
4 -513 V
5 -493 V
5 -429 V
5 -328 V
5 -200 V
5 -52 V
4 97 V
5 239 V
5 359 V
5 446 V
5 494 V
4 498 V
5 458 V
5 379 V
5 265 V
5 129 V
4 -17 V
5 -162 V
5 -292 V
5 -395 V
5 -464 V
5 -491 V
4 -475 V
5 -417 V
5 -322 V
5 -200 V
5 -60 V
4 84 V
5 221 V
5 336 V
5 424 V
5 471 V
4 479 V
5 443 V
5 369 V
5 263 V
5 133 V
5 -7 V
4 -146 V
5 -272 V
5 -374 V
5 -441 V
5 -471 V
4 -457 V
5 -405 V
5 -316 V
5 -200 V
5 -68 V
4 72 V
5 203 V
5 316 V
5 401 V
5 451 V
5 460 V
stroke 4272 3007 M
4 429 V
5 360 V
5 259 V
5 137 V
5 3 V
4 -132 V
5 -253 V
5 -353 V
5 -420 V
5 -450 V
4 -442 V
5 -393 V
5 -310 V
5 -200 V
5 -74 V
5 59 V
4 187 V
5 296 V
5 381 V
5 430 V
5 442 V
4 415 V
5 351 V
5 257 V
5 140 V
5 12 V
4 -118 V
5 -235 V
5 -333 V
5 -400 V
5 -432 V
5 -425 V
4 -382 V
5 -304 V
5 -201 V
5 -79 V
5 48 V
4 170 V
5 279 V
5 360 V
5 411 V
5 425 V
5 402 V
4 342 V
5 254 V
5 143 V
5 20 V
5 -104 V
4 -219 V
5 -313 V
5 -381 V
5 -414 V
5 -410 V
4 -371 V
5 -298 V
5 -201 V
5 -85 V
5 37 V
5 156 V
4 260 V
5 342 V
5 393 V
5 408 V
5 389 V
4 334 V
5 251 V
5 146 V
5 28 V
5 -91 V
4 -203 V
5 -296 V
5 -362 V
5 -396 V
5 -396 V
5 -361 V
4 -293 V
5 -200 V
5 -91 V
5 27 V
5 142 V
4 244 V
5 323 V
5 375 V
5 393 V
5 377 V
4 326 V
5 248 V
5 149 V
5 35 V
5 -79 V
5 -188 V
4 -278 V
5 -345 V
5 -380 V
5 -382 V
5 -350 V
4 -288 V
5 -200 V
5 -96 V
5 18 V
5 128 V
4 228 V
5 306 V
5 358 V
5 378 V
5 365 V
5 319 V
4 245 V
5 151 V
5 43 V
5 -68 V
5 -173 V
4 -262 V
5 -328 V
5 -365 V
5 -369 V
5 -340 V
4 -283 V
5 -200 V
5 -100 V
5 8 V
5 116 V
5 212 V
4 290 V
5 343 V
5 363 V
5 354 V
5 311 V
4 243 V
5 153 V
5 50 V
5 -58 V
5 -159 V
4 -247 V
5 -312 V
5 -349 V
5 -356 V
5 -332 V
5 -278 V
4 -200 V
5 -104 V
5 -1 V
5 104 V
5 198 V
4 275 V
5 327 V
5 350 V
5 342 V
5 305 V
4 240 V
5 155 V
5 56 V
5 -47 V
5 -146 V
5 -232 V
4 -296 V
5 -336 V
5 -344 V
5 -323 V
5 -273 V
4 -200 V
5 -108 V
5 -9 V
5 92 V
5 184 V
4 260 V
5 313 V
5 337 V
5 332 V
5 298 V
5 238 V
4 157 V
5 62 V
5 -37 V
5 -134 V
5 -217 V
4 -283 V
5 -321 V
5 -333 V
5 -315 V
5 -269 V
4 -199 V
5 -113 V
5 -16 V
5 81 V
5 171 V
5 246 V
4 298 V
5 325 V
5 323 V
5 291 V
5 236 V
4 159 V
5 68 V
5 -28 V
5 -122 V
5 -204 V
5 -268 V
4 -309 V
5 -322 V
5 -307 V
5 -264 V
5 -200 V
4 -116 V
5 -24 V
5 70 V
5 159 V
5 232 V
4 285 V
5 314 V
5 313 V
5 286 V
5 233 V
4 161 V
5 74 V
5 -20 V
5 -110 V
5 -191 V
5 -255 V
4 -297 V
5 -311 V
5 -299 V
5 -261 V
5 -199 V
4 -121 V
5 -31 V
5 61 V
5 146 V
5 219 V
4 273 V
5 302 V
5 305 V
5 280 V
5 231 V
5 163 V
4 79 V
5 -10 V
5 -100 V
5 -179 V
5 -242 V
4 -285 V
5 -302 V
5 -292 V
5 -257 V
5 -199 V
5 -124 V
4 -38 V
5 51 V
5 135 V
stroke 5470 1850 M
5 207 V
5 260 V
4 292 V
5 296 V
5 275 V
5 230 V
5 164 V
4 84 V
5 -2 V
5 -88 V
5 -168 V
5 -230 V
5 -274 V
4 -292 V
5 -286 V
5 -253 V
5 -200 V
5 -127 V
4 -45 V
5 41 V
5 124 V
5 196 V
5 249 V
4 281 V
5 288 V
5 271 V
5 228 V
5 166 V
5 90 V
4 5 V
5 -78 V
5 -156 V
5 -219 V
5 -263 V
4 -284 V
5 -279 V
5 -250 V
5 -200 V
5 -131 V
4 -52 V
5 33 V
5 113 V
5 184 V
5 238 V
5 272 V
4 281 V
5 266 V
5 226 V
5 168 V
5 95 V
4 14 V
5 -69 V
5 -145 V
5 -208 V
5 -253 V
4 -275 V
5 -274 V
5 -168 V
5 -10 V
5 147 V
5 249 V
4 265 V
5 190 V
5 55 V
5 -95 V
5 -208 V
4 -247 V
5 -203 V
5 -91 V
5 47 V
5 166 V
4 224 V
5 206 V
5 119 V
5 -6 V
5 -123 V
5 -197 V
4 -202 V
5 -138 V
5 -30 V
5 84 V
5 166 V
4 191 V
5 149 V
5 60 V
5 -47 V
5 -135 V
4 -174 V
5 -154 V
5 -83 V
5 14 V
5 103 V
5 155 V
4 153 V
5 99 V
5 15 V
5 -73 V
5 -133 V
4 -146 V
5 -110 V
5 -38 V
5 44 V
5 109 V
4 136 V
5 115 V
5 57 V
5 -19 V
5 -85 V
5 -122 V
4 -115 V
5 -71 V
5 -4 V
5 62 V
5 105 V
4 112 V
5 80 V
5 23 V
5 -40 V
5 -88 V
4 -104 V
5 -86 V
5 -38 V
5 20 V
5 70 V
5 95 V
4 87 V
5 50 V
5 -3 V
5 -52 V
5 -83 V
4 -85 V
5 -58 V
5 -13 V
5 36 V
5 70 V
4 80 V
5 63 V
5 25 V
5 -20 V
5 -57 V
5 -73 V
4 -65 V
5 -35 V
5 6 V
5 44 V
5 65 V
4 64 V
5 42 V
5 6 V
5 -31 V
5 -56 V
4 -61 V
5 -46 V
5 -16 V
5 19 V
5 46 V
5 57 V
4 48 V
5 24 V
5 -8 V
5 -36 V
5 -51 V
4 -49 V
5 -30 V
5 -1 V
5 26 V
5 45 V
4 46 V
5 34 V
5 10 V
5 -17 V
5 -37 V
5 -44 V
4 -36 V
5 -16 V
5 9 V
5 29 V
5 40 V
4 36 V
5 21 V
5 -1 V
5 -22 V
5 -35 V
5 -36 V
4 -24 V
5 -5 V
5 15 V
5 30 V
5 33 V
4 26 V
5 11 V
5 -9 V
5 -24 V
5 -31 V
4 -27 V
5 -14 V
5 3 V
5 18 V
5 28 V
5 26 V
4 17 V
5 3 V
5 -13 V
5 -24 V
5 -25 V
4 -19 V
5 -7 V
5 8 V
5 20 V
5 23 V
4 20 V
5 10 V
5 -4 V
5 -15 V
5 -21 V
5 -20 V
4 -12 V
5 0 V
5 11 V
5 18 V
5 19 V
4 14 V
5 3 V
5 -7 V
5 -15 V
5 -18 V
4 -15 V
5 -6 V
5 4 V
5 13 V
5 16 V
5 14 V
4 8 V
5 -1 V
5 -9 V
5 -14 V
5 -14 V
4 -10 V
5 -1 V
5 6 V
5 12 V
5 14 V
4 10 V
5 3 V
5 -4 V
5 -9 V
5 -13 V
5 -10 V
4 -5 V
stroke 6668 2654 M
5 2 V
5 7 V
5 11 V
5 10 V
4 7 V
5 0 V
5 -6 V
5 -9 V
5 -10 V
4 -7 V
5 -1 V
5 3 V
5 8 V
5 9 V
5 7 V
4 3 V
5 -2 V
5 -7 V
5 -8 V
5 -6 V
4 -4 V
5 1 V
5 5 V
5 6 V
5 7 V
4 4 V
5 0 V
5 -3 V
5 -6 V
5 -6 V
5 -4 V
4 -1 V
5 2 V
5 5 V
5 5 V
5 5 V
4 1 V
5 -1 V
5 -4 V
5 -5 V
5 -4 V
4 -2 V
5 1 V
5 3 V
5 4 V
5 4 V
5 2 V
4 -1 V
5 -2 V
5 -4 V
5 -3 V
5 -2 V
4 0 V
5 2 V
5 3 V
5 3 V
5 2 V
% End plot #1
% Begin plot #2
stroke
5.000 UL
LTb
0.00 1.00 1.00 C
LCb setrgbcolor
6296 4626 M
[ [(Helvetica) 140.0 0.0 true true 0 (epsilon)]
[(Helvetica) 112.0 -42.0 true true 0 (r)]
] -32.7 MRshow
/Helvetica findfont 140 scalefont setfont
5.000 UL
LTb
0.00 1.00 1.00 C
6380 4626 M
399 0 V
686 2780 M
5 0 V
5 0 V
4 0 V
5 0 V
5 0 V
5 0 V
5 0 V
5 0 V
4 0 V
5 0 V
5 0 V
5 0 V
5 0 V
4 0 V
5 0 V
5 0 V
5 0 V
5 0 V
4 0 V
5 0 V
5 0 V
5 0 V
5 0 V
5 0 V
4 0 V
5 0 V
5 0 V
5 0 V
5 0 V
4 0 V
5 0 V
5 0 V
5 0 V
5 0 V
4 0 V
5 0 V
5 0 V
5 0 V
5 0 V
5 0 V
4 0 V
5 0 V
5 0 V
5 0 V
5 0 V
4 0 V
5 0 V
5 0 V
5 0 V
5 0 V
4 0 V
5 0 V
5 0 V
5 0 V
5 0 V
5 0 V
4 0 V
5 0 V
5 0 V
5 0 V
5 0 V
4 0 V
5 0 V
5 0 V
5 0 V
5 0 V
4 0 V
5 0 V
5 0 V
5 0 V
5 0 V
5 0 V
4 0 V
5 0 V
5 0 V
5 0 V
5 0 V
4 0 V
5 0 V
5 0 V
5 0 V
5 0 V
4 0 V
5 0 V
5 0 V
5 0 V
5 0 V
5 0 V
4 0 V
5 0 V
5 0 V
5 0 V
5 0 V
4 0 V
5 0 V
5 0 V
5 0 V
5 0 V
4 0 V
5 0 V
5 0 V
5 0 V
5 0 V
5 0 V
4 0 V
5 0 V
5 0 V
5 0 V
5 0 V
4 0 V
5 0 V
5 0 V
5 0 V
5 0 V
4 0 V
5 0 V
5 0 V
5 0 V
5 0 V
5 0 V
4 0 V
5 0 V
5 0 V
5 0 V
5 0 V
4 0 V
5 0 V
5 0 V
5 0 V
5 0 V
4 0 V
5 0 V
5 0 V
5 0 V
5 0 V
5 0 V
4 0 V
5 0 V
5 0 V
5 0 V
5 0 V
4 0 V
5 0 V
5 0 V
5 0 V
5 0 V
4 0 V
5 0 V
5 0 V
5 0 V
5 0 V
5 0 V
4 0 V
5 0 V
5 0 V
5 0 V
5 0 V
4 0 V
5 0 V
5 0 V
5 0 V
5 0 V
4 0 V
5 0 V
5 0 V
5 0 V
5 0 V
5 0 V
4 0 V
5 0 V
5 0 V
5 0 V
5 0 V
4 0 V
5 0 V
5 0 V
5 0 V
5 0 V
4 0 V
5 0 V
5 0 V
5 0 V
5 0 V
5 0 V
4 0 V
5 0 V
5 0 V
5 0 V
5 0 V
4 0 V
5 0 V
5 0 V
5 0 V
5 0 V
4 0 V
5 0 V
5 0 V
5 0 V
5 0 V
5 0 V
4 0 V
5 0 V
5 0 V
5 0 V
5 0 V
4 0 V
5 0 V
5 0 V
5 0 V
5 0 V
5 0 V
4 0 V
5 0 V
5 0 V
5 0 V
5 0 V
4 0 V
5 0 V
5 0 V
5 0 V
5 0 V
4 0 V
5 0 V
5 0 V
5 0 V
5 0 V
5 0 V
4 0 V
5 0 V
5 0 V
5 0 V
5 0 V
4 0 V
5 0 V
5 0 V
5 0 V
5 0 V
4 0 V
5 0 V
5 0 V
5 0 V
5 0 V
5 0 V
4 0 V
5 0 V
5 0 V
5 0 V
stroke 1875 2780 M
5 0 V
4 0 V
5 0 V
5 244 V
5 0 V
5 0 V
4 0 V
5 0 V
5 0 V
5 0 V
5 0 V
5 0 V
4 0 V
5 0 V
5 0 V
5 0 V
5 0 V
4 0 V
5 0 V
5 0 V
5 0 V
5 0 V
4 0 V
5 0 V
5 0 V
5 0 V
5 0 V
5 0 V
4 0 V
5 0 V
5 0 V
5 0 V
5 0 V
4 0 V
5 0 V
5 0 V
5 0 V
5 0 V
4 0 V
5 0 V
5 0 V
5 0 V
5 0 V
5 0 V
4 0 V
5 0 V
5 0 V
5 0 V
5 0 V
4 0 V
5 0 V
5 0 V
5 0 V
5 0 V
4 0 V
5 0 V
5 0 V
5 0 V
5 0 V
5 0 V
4 0 V
5 0 V
5 0 V
5 0 V
5 0 V
4 0 V
5 0 V
5 0 V
5 0 V
5 0 V
4 0 V
5 0 V
5 0 V
5 0 V
5 0 V
5 0 V
4 0 V
5 0 V
5 0 V
5 0 V
5 0 V
4 0 V
5 0 V
5 0 V
5 0 V
5 0 V
4 0 V
5 0 V
5 0 V
5 0 V
5 0 V
5 0 V
4 0 V
5 0 V
5 0 V
5 0 V
5 0 V
4 0 V
5 0 V
5 0 V
5 0 V
5 0 V
4 0 V
5 0 V
5 0 V
5 0 V
5 0 V
5 0 V
4 0 V
5 0 V
5 0 V
5 0 V
5 0 V
4 0 V
5 0 V
5 0 V
5 0 V
5 0 V
4 0 V
5 0 V
5 0 V
5 0 V
5 0 V
5 0 V
4 0 V
5 0 V
5 0 V
5 0 V
5 0 V
4 0 V
5 0 V
5 0 V
5 0 V
5 0 V
4 0 V
5 0 V
5 0 V
5 0 V
5 0 V
5 0 V
4 0 V
5 0 V
5 0 V
5 0 V
5 0 V
4 0 V
5 0 V
5 0 V
5 0 V
5 0 V
5 0 V
4 0 V
5 0 V
5 -323 V
5 0 V
5 0 V
4 0 V
5 0 V
5 0 V
5 0 V
5 0 V
4 0 V
5 0 V
5 0 V
5 0 V
5 0 V
5 0 V
4 0 V
5 0 V
5 0 V
5 0 V
5 0 V
4 0 V
5 0 V
5 0 V
5 0 V
5 0 V
4 0 V
5 0 V
5 0 V
5 0 V
5 0 V
5 0 V
4 0 V
5 0 V
5 0 V
5 0 V
5 0 V
4 0 V
5 0 V
5 0 V
5 0 V
5 0 V
4 0 V
5 0 V
5 0 V
5 0 V
5 0 V
5 0 V
4 0 V
5 0 V
5 0 V
5 0 V
5 0 V
4 0 V
5 0 V
5 0 V
5 0 V
5 0 V
4 0 V
5 0 V
5 0 V
5 0 V
5 0 V
5 0 V
4 0 V
5 0 V
5 0 V
5 0 V
5 0 V
4 0 V
5 0 V
5 0 V
5 0 V
5 0 V
4 0 V
5 0 V
5 0 V
5 0 V
5 0 V
5 0 V
4 0 V
5 0 V
5 0 V
5 0 V
5 0 V
4 0 V
5 0 V
5 0 V
5 0 V
5 0 V
4 0 V
5 0 V
5 0 V
5 0 V
5 0 V
5 0 V
4 0 V
5 0 V
stroke 3073 2701 M
5 0 V
5 0 V
5 0 V
4 0 V
5 0 V
5 0 V
5 0 V
5 0 V
4 0 V
5 0 V
5 0 V
5 0 V
5 0 V
5 0 V
4 0 V
5 0 V
5 0 V
5 0 V
5 0 V
4 0 V
5 0 V
5 0 V
5 0 V
5 0 V
4 0 V
5 0 V
5 0 V
5 0 V
5 0 V
5 0 V
4 0 V
5 0 V
5 0 V
5 0 V
5 0 V
4 0 V
5 0 V
5 0 V
5 0 V
5 0 V
4 0 V
5 0 V
5 0 V
5 0 V
5 0 V
5 0 V
4 0 V
5 0 V
5 0 V
5 0 V
5 0 V
4 0 V
5 0 V
5 0 V
5 0 V
5 0 V
4 0 V
5 0 V
5 0 V
5 0 V
5 0 V
5 0 V
4 0 V
5 0 V
5 0 V
5 0 V
5 0 V
4 0 V
5 0 V
5 0 V
5 0 V
5 0 V
4 0 V
5 0 V
5 0 V
5 0 V
5 0 V
5 0 V
4 0 V
5 0 V
5 0 V
5 0 V
5 0 V
4 0 V
5 0 V
5 0 V
5 0 V
5 0 V
4 0 V
5 0 V
5 0 V
5 0 V
5 0 V
5 0 V
4 0 V
5 0 V
5 0 V
5 0 V
5 0 V
4 0 V
5 0 V
5 0 V
5 0 V
5 0 V
5 0 V
4 0 V
5 0 V
5 0 V
5 0 V
5 0 V
4 0 V
5 0 V
5 0 V
5 0 V
5 0 V
4 0 V
5 0 V
5 0 V
5 0 V
5 0 V
5 0 V
4 0 V
5 0 V
5 0 V
5 0 V
5 0 V
4 0 V
5 0 V
5 0 V
5 0 V
5 0 V
4 0 V
5 0 V
5 0 V
5 0 V
5 0 V
5 0 V
4 0 V
5 0 V
5 0 V
5 0 V
5 0 V
4 0 V
5 0 V
5 0 V
5 0 V
5 0 V
4 0 V
5 0 V
5 0 V
5 0 V
5 0 V
5 0 V
4 0 V
5 0 V
5 0 V
5 0 V
5 0 V
4 0 V
5 0 V
5 0 V
5 0 V
5 0 V
4 0 V
5 0 V
5 0 V
5 0 V
5 0 V
5 0 V
4 0 V
5 0 V
5 0 V
5 0 V
5 0 V
4 0 V
5 0 V
5 0 V
5 0 V
5 0 V
4 0 V
5 0 V
5 0 V
5 0 V
5 0 V
5 0 V
4 0 V
5 0 V
5 0 V
5 0 V
5 0 V
4 0 V
5 0 V
5 0 V
5 0 V
5 0 V
4 0 V
5 0 V
5 0 V
5 0 V
5 0 V
5 0 V
4 0 V
5 0 V
5 0 V
5 0 V
5 0 V
4 0 V
5 0 V
5 0 V
5 0 V
5 0 V
4 0 V
5 0 V
5 0 V
5 0 V
5 0 V
5 0 V
4 0 V
5 0 V
5 0 V
5 0 V
5 0 V
4 0 V
5 0 V
5 0 V
5 0 V
5 0 V
4 0 V
5 0 V
5 0 V
5 0 V
5 0 V
5 0 V
4 0 V
5 0 V
5 0 V
5 0 V
5 0 V
4 0 V
5 0 V
5 0 V
5 0 V
5 0 V
4 0 V
5 0 V
5 0 V
5 0 V
5 0 V
5 0 V
stroke 4272 2701 M
4 0 V
5 0 V
5 0 V
5 0 V
5 0 V
4 0 V
5 0 V
5 0 V
5 0 V
5 0 V
4 0 V
5 0 V
5 0 V
5 0 V
5 0 V
5 0 V
4 0 V
5 0 V
5 0 V
5 0 V
5 0 V
4 0 V
5 0 V
5 0 V
5 0 V
5 0 V
4 0 V
5 0 V
5 0 V
5 0 V
5 0 V
5 0 V
4 0 V
5 0 V
5 0 V
5 0 V
5 0 V
4 0 V
5 0 V
5 0 V
5 0 V
5 0 V
5 0 V
4 0 V
5 0 V
5 0 V
5 0 V
5 0 V
4 0 V
5 0 V
5 0 V
5 0 V
5 0 V
4 0 V
5 0 V
5 0 V
5 0 V
5 0 V
5 0 V
4 0 V
5 0 V
5 0 V
5 0 V
5 0 V
4 0 V
5 0 V
5 0 V
5 0 V
5 0 V
4 0 V
5 0 V
5 0 V
5 0 V
5 0 V
5 0 V
4 0 V
5 0 V
5 0 V
5 0 V
5 0 V
4 0 V
5 0 V
5 0 V
5 0 V
5 0 V
4 0 V
5 0 V
5 0 V
5 0 V
5 0 V
5 0 V
4 0 V
5 0 V
5 0 V
5 0 V
5 0 V
4 0 V
5 0 V
5 0 V
5 0 V
5 0 V
4 0 V
5 0 V
5 0 V
5 0 V
5 0 V
5 0 V
4 0 V
5 0 V
5 0 V
5 0 V
5 0 V
4 0 V
5 0 V
5 0 V
5 0 V
5 0 V
4 0 V
5 0 V
5 0 V
5 0 V
5 0 V
5 0 V
4 0 V
5 0 V
5 0 V
5 0 V
5 0 V
4 0 V
5 0 V
5 0 V
5 0 V
5 0 V
4 0 V
5 0 V
5 0 V
5 0 V
5 0 V
5 0 V
4 0 V
5 0 V
5 0 V
5 0 V
5 0 V
4 0 V
5 0 V
5 0 V
5 0 V
5 0 V
4 0 V
5 0 V
5 0 V
5 0 V
5 0 V
5 0 V
4 0 V
5 0 V
5 0 V
5 0 V
5 0 V
4 0 V
5 0 V
5 0 V
5 0 V
5 0 V
4 0 V
5 0 V
5 0 V
5 0 V
5 0 V
5 0 V
4 0 V
5 0 V
5 0 V
5 0 V
5 0 V
4 0 V
5 0 V
5 0 V
5 0 V
5 0 V
4 0 V
5 0 V
5 0 V
5 0 V
5 0 V
5 0 V
4 0 V
5 0 V
5 0 V
5 0 V
5 0 V
4 0 V
5 0 V
5 0 V
5 0 V
5 0 V
5 0 V
4 0 V
5 0 V
5 0 V
5 0 V
5 0 V
4 0 V
5 0 V
5 0 V
5 0 V
5 0 V
4 0 V
5 0 V
5 0 V
5 0 V
5 0 V
4 0 V
5 0 V
5 0 V
5 0 V
5 0 V
5 0 V
4 0 V
5 0 V
5 0 V
5 0 V
5 0 V
4 0 V
5 0 V
5 0 V
5 0 V
5 0 V
4 0 V
5 0 V
5 0 V
5 0 V
5 0 V
5 0 V
4 0 V
5 0 V
5 0 V
5 0 V
5 0 V
4 0 V
5 0 V
5 0 V
5 0 V
5 0 V
5 0 V
4 0 V
5 0 V
5 0 V
stroke 5470 2701 M
5 0 V
5 0 V
4 0 V
5 0 V
5 0 V
5 0 V
5 0 V
4 0 V
5 0 V
5 0 V
5 0 V
5 0 V
5 0 V
4 0 V
5 0 V
5 0 V
5 0 V
5 0 V
4 0 V
5 0 V
5 0 V
5 0 V
5 0 V
4 0 V
5 0 V
5 0 V
5 0 V
5 0 V
5 0 V
4 0 V
5 0 V
5 0 V
5 0 V
5 0 V
4 0 V
5 0 V
5 0 V
5 0 V
5 0 V
4 0 V
5 0 V
5 0 V
5 0 V
5 0 V
5 0 V
4 0 V
5 0 V
5 0 V
5 0 V
5 0 V
4 0 V
5 0 V
5 0 V
5 0 V
5 0 V
4 0 V
5 79 V
5 0 V
5 0 V
5 0 V
5 0 V
4 0 V
5 0 V
5 0 V
5 0 V
5 0 V
4 0 V
5 0 V
5 0 V
5 0 V
5 0 V
4 0 V
5 0 V
5 0 V
5 0 V
5 0 V
5 0 V
4 0 V
5 0 V
5 0 V
5 0 V
5 0 V
4 0 V
5 0 V
5 0 V
5 0 V
5 0 V
4 0 V
5 0 V
5 0 V
5 0 V
5 0 V
5 0 V
4 0 V
5 0 V
5 0 V
5 0 V
5 0 V
4 0 V
5 0 V
5 0 V
5 0 V
5 0 V
4 0 V
5 0 V
5 0 V
5 0 V
5 0 V
5 0 V
4 0 V
5 0 V
5 0 V
5 0 V
5 0 V
4 0 V
5 0 V
5 0 V
5 0 V
5 0 V
4 0 V
5 0 V
5 0 V
5 0 V
5 0 V
5 0 V
4 0 V
5 0 V
5 0 V
5 0 V
5 0 V
4 0 V
5 0 V
5 0 V
5 0 V
5 0 V
4 0 V
5 0 V
5 0 V
5 0 V
5 0 V
5 0 V
4 0 V
5 0 V
5 0 V
5 0 V
5 0 V
4 0 V
5 0 V
5 0 V
5 0 V
5 0 V
4 0 V
5 0 V
5 0 V
5 0 V
5 0 V
5 0 V
4 0 V
5 0 V
5 0 V
5 0 V
5 0 V
4 0 V
5 0 V
5 0 V
5 0 V
5 0 V
4 0 V
5 0 V
5 0 V
5 0 V
5 0 V
5 0 V
4 0 V
5 0 V
5 0 V
5 0 V
5 0 V
4 0 V
5 0 V
5 0 V
5 0 V
5 0 V
5 0 V
4 0 V
5 0 V
5 0 V
5 0 V
5 0 V
4 0 V
5 0 V
5 0 V
5 0 V
5 0 V
4 0 V
5 0 V
5 0 V
5 0 V
5 0 V
5 0 V
4 0 V
5 0 V
5 0 V
5 0 V
5 0 V
4 0 V
5 0 V
5 0 V
5 0 V
5 0 V
4 0 V
5 0 V
5 0 V
5 0 V
5 0 V
5 0 V
4 0 V
5 0 V
5 0 V
5 0 V
5 0 V
4 0 V
5 0 V
5 0 V
5 0 V
5 0 V
4 0 V
5 0 V
5 0 V
5 0 V
5 0 V
5 0 V
4 0 V
5 0 V
5 0 V
5 0 V
5 0 V
4 0 V
5 0 V
5 0 V
5 0 V
5 0 V
4 0 V
5 0 V
5 0 V
5 0 V
5 0 V
5 0 V
4 0 V
stroke 6668 2780 M
5 0 V
5 0 V
5 0 V
5 0 V
4 0 V
5 0 V
5 0 V
5 0 V
5 0 V
4 0 V
5 0 V
5 0 V
5 0 V
5 0 V
5 0 V
4 0 V
5 0 V
5 0 V
5 0 V
5 0 V
4 0 V
5 0 V
5 0 V
5 0 V
5 0 V
4 0 V
5 0 V
5 0 V
5 0 V
5 0 V
5 0 V
4 0 V
5 0 V
5 0 V
5 0 V
5 0 V
4 0 V
5 0 V
5 0 V
5 0 V
5 0 V
4 0 V
5 0 V
5 0 V
5 0 V
5 0 V
5 0 V
4 0 V
5 0 V
5 0 V
5 0 V
5 0 V
4 0 V
5 0 V
5 0 V
5 0 V
5 0 V
% End plot #2
% Begin plot #3
stroke
4.000 UL
LTb
1.00 0.00 0.00 C
LCb setrgbcolor
6296 4486 M
[ [(Helvetica) 140.0 0.0 true true 0 (1000x Sigma[S/m])]
] -46.7 MRshow
/Helvetica findfont 140 scalefont setfont
4.000 UL
LTb
1.00 0.00 0.00 C
6380 4486 M
399 0 V
686 2768 M
5 0 V
5 0 V
4 0 V
5 0 V
5 0 V
5 0 V
5 0 V
5 0 V
4 0 V
5 0 V
5 0 V
5 0 V
5 0 V
4 0 V
5 0 V
5 0 V
5 0 V
5 0 V
4 0 V
5 0 V
5 0 V
5 0 V
5 0 V
5 0 V
4 0 V
5 0 V
5 0 V
5 0 V
5 0 V
4 0 V
5 0 V
5 0 V
5 0 V
5 0 V
4 0 V
5 0 V
5 0 V
5 0 V
5 0 V
5 0 V
4 0 V
5 0 V
5 0 V
5 0 V
5 0 V
4 0 V
5 0 V
5 0 V
5 0 V
5 0 V
4 0 V
5 0 V
5 0 V
5 0 V
5 0 V
5 0 V
4 0 V
5 0 V
5 0 V
5 0 V
5 0 V
4 0 V
5 0 V
5 0 V
5 0 V
5 0 V
4 0 V
5 0 V
5 0 V
5 0 V
5 0 V
5 0 V
4 0 V
5 0 V
5 0 V
5 0 V
5 0 V
4 0 V
5 0 V
5 0 V
5 0 V
5 0 V
4 0 V
5 0 V
5 0 V
5 0 V
5 0 V
5 0 V
4 0 V
5 0 V
5 0 V
5 0 V
5 0 V
4 0 V
5 0 V
5 0 V
5 0 V
5 0 V
4 0 V
5 0 V
5 0 V
5 0 V
5 0 V
5 0 V
4 0 V
5 0 V
5 0 V
5 0 V
5 0 V
4 0 V
5 0 V
5 0 V
5 0 V
5 0 V
4 0 V
5 0 V
5 0 V
5 0 V
5 0 V
5 0 V
4 0 V
5 0 V
5 0 V
5 0 V
5 0 V
4 0 V
5 0 V
5 0 V
5 0 V
5 0 V
4 0 V
5 0 V
5 0 V
5 0 V
5 0 V
5 0 V
4 0 V
5 0 V
5 0 V
5 0 V
5 0 V
4 0 V
5 0 V
5 0 V
5 0 V
5 0 V
4 0 V
5 0 V
5 0 V
5 0 V
5 0 V
5 0 V
4 0 V
5 0 V
5 0 V
5 0 V
5 0 V
4 0 V
5 0 V
5 0 V
5 0 V
5 0 V
4 0 V
5 0 V
5 0 V
5 0 V
5 0 V
5 0 V
4 0 V
5 0 V
5 0 V
5 0 V
5 0 V
4 0 V
5 0 V
5 0 V
5 0 V
5 0 V
4 0 V
5 0 V
5 0 V
5 0 V
5 0 V
5 0 V
4 0 V
5 0 V
5 0 V
5 0 V
5 0 V
4 0 V
5 0 V
5 0 V
5 0 V
5 0 V
4 0 V
5 0 V
5 0 V
5 0 V
5 0 V
5 0 V
4 0 V
5 0 V
5 0 V
5 0 V
5 0 V
4 0 V
5 0 V
5 0 V
5 0 V
5 0 V
5 0 V
4 0 V
5 0 V
5 0 V
5 0 V
5 0 V
4 0 V
5 0 V
5 0 V
5 0 V
5 0 V
4 0 V
5 0 V
5 0 V
5 0 V
5 0 V
5 0 V
4 0 V
5 0 V
5 0 V
5 0 V
5 0 V
4 0 V
5 0 V
5 0 V
5 0 V
5 0 V
4 0 V
5 0 V
5 0 V
5 0 V
5 0 V
5 0 V
4 0 V
5 0 V
5 0 V
5 0 V
stroke 1875 2768 M
5 0 V
4 0 V
5 0 V
5 162 V
5 0 V
5 0 V
4 0 V
5 0 V
5 0 V
5 0 V
5 0 V
5 0 V
4 0 V
5 0 V
5 0 V
5 0 V
5 0 V
4 0 V
5 0 V
5 0 V
5 0 V
5 0 V
4 0 V
5 0 V
5 0 V
5 0 V
5 0 V
5 0 V
4 0 V
5 0 V
5 0 V
5 0 V
5 0 V
4 0 V
5 0 V
5 0 V
5 0 V
5 0 V
4 0 V
5 0 V
5 0 V
5 0 V
5 0 V
5 0 V
4 0 V
5 0 V
5 0 V
5 0 V
5 0 V
4 0 V
5 0 V
5 0 V
5 0 V
5 0 V
4 0 V
5 0 V
5 0 V
5 0 V
5 0 V
5 0 V
4 0 V
5 0 V
5 0 V
5 0 V
5 0 V
4 0 V
5 0 V
5 0 V
5 0 V
5 0 V
4 0 V
5 0 V
5 0 V
5 0 V
5 0 V
5 0 V
4 0 V
5 0 V
5 0 V
5 0 V
5 0 V
4 0 V
5 0 V
5 0 V
5 0 V
5 0 V
4 0 V
5 0 V
5 0 V
5 0 V
5 0 V
5 0 V
4 0 V
5 0 V
5 0 V
5 0 V
5 0 V
4 0 V
5 0 V
5 0 V
5 0 V
5 0 V
4 0 V
5 0 V
5 0 V
5 0 V
5 0 V
5 0 V
4 0 V
5 0 V
5 0 V
5 0 V
5 0 V
4 0 V
5 0 V
5 0 V
5 0 V
5 0 V
4 0 V
5 0 V
5 0 V
5 0 V
5 0 V
5 0 V
4 0 V
5 0 V
5 0 V
5 0 V
5 0 V
4 0 V
5 0 V
5 0 V
5 0 V
5 0 V
4 0 V
5 0 V
5 0 V
5 0 V
5 0 V
5 0 V
4 0 V
5 0 V
5 0 V
5 0 V
5 0 V
4 0 V
5 0 V
5 0 V
5 0 V
5 0 V
5 0 V
4 0 V
5 0 V
5 -250 V
5 0 V
5 0 V
4 0 V
5 0 V
5 0 V
5 0 V
5 0 V
4 0 V
5 0 V
5 0 V
5 0 V
5 0 V
5 0 V
4 0 V
5 0 V
5 0 V
5 0 V
5 0 V
4 0 V
5 0 V
5 0 V
5 0 V
5 0 V
4 0 V
5 0 V
5 0 V
5 0 V
5 0 V
5 0 V
4 0 V
5 0 V
5 0 V
5 0 V
5 0 V
4 0 V
5 0 V
5 0 V
5 0 V
5 0 V
4 0 V
5 0 V
5 0 V
5 0 V
5 0 V
5 0 V
4 0 V
5 0 V
5 0 V
5 0 V
5 0 V
4 0 V
5 0 V
5 0 V
5 0 V
5 0 V
4 0 V
5 0 V
5 0 V
5 0 V
5 0 V
5 0 V
4 0 V
5 0 V
5 0 V
5 0 V
5 0 V
4 0 V
5 0 V
5 0 V
5 0 V
5 0 V
4 0 V
5 0 V
5 0 V
5 0 V
5 0 V
5 0 V
4 0 V
5 0 V
5 0 V
5 0 V
5 0 V
4 0 V
5 0 V
5 0 V
5 0 V
5 0 V
4 0 V
5 0 V
5 0 V
5 0 V
5 0 V
5 0 V
4 0 V
5 0 V
stroke 3073 2680 M
5 0 V
5 0 V
5 0 V
4 0 V
5 0 V
5 0 V
5 0 V
5 0 V
4 0 V
5 0 V
5 0 V
5 0 V
5 0 V
5 0 V
4 0 V
5 0 V
5 0 V
5 0 V
5 0 V
4 0 V
5 0 V
5 0 V
5 0 V
5 0 V
4 0 V
5 0 V
5 0 V
5 0 V
5 0 V
5 0 V
4 0 V
5 0 V
5 0 V
5 0 V
5 0 V
4 0 V
5 0 V
5 0 V
5 0 V
5 0 V
4 0 V
5 0 V
5 0 V
5 0 V
5 0 V
5 0 V
4 0 V
5 0 V
5 0 V
5 0 V
5 0 V
4 0 V
5 0 V
5 0 V
5 0 V
5 0 V
4 0 V
5 0 V
5 0 V
5 0 V
5 0 V
5 0 V
4 0 V
5 0 V
5 0 V
5 0 V
5 0 V
4 0 V
5 0 V
5 0 V
5 0 V
5 0 V
4 0 V
5 0 V
5 0 V
5 0 V
5 0 V
5 0 V
4 0 V
5 0 V
5 0 V
5 0 V
5 0 V
4 0 V
5 0 V
5 0 V
5 0 V
5 0 V
4 0 V
5 0 V
5 0 V
5 0 V
5 0 V
5 0 V
4 0 V
5 0 V
5 0 V
5 0 V
5 0 V
4 0 V
5 0 V
5 0 V
5 0 V
5 0 V
5 0 V
4 0 V
5 0 V
5 0 V
5 0 V
5 0 V
4 0 V
5 0 V
5 0 V
5 0 V
5 0 V
4 0 V
5 0 V
5 0 V
5 0 V
5 0 V
5 0 V
4 0 V
5 0 V
5 0 V
5 0 V
5 0 V
4 0 V
5 0 V
5 0 V
5 0 V
5 0 V
4 0 V
5 0 V
5 0 V
5 0 V
5 0 V
5 0 V
4 0 V
5 0 V
5 0 V
5 0 V
5 0 V
4 0 V
5 0 V
5 0 V
5 0 V
5 0 V
4 0 V
5 0 V
5 0 V
5 0 V
5 0 V
5 0 V
4 0 V
5 0 V
5 0 V
5 0 V
5 0 V
4 0 V
5 0 V
5 0 V
5 0 V
5 0 V
4 0 V
5 0 V
5 0 V
5 0 V
5 0 V
5 0 V
4 0 V
5 0 V
5 0 V
5 0 V
5 0 V
4 0 V
5 0 V
5 0 V
5 0 V
5 0 V
4 0 V
5 0 V
5 0 V
5 0 V
5 0 V
5 0 V
4 0 V
5 0 V
5 0 V
5 0 V
5 0 V
4 0 V
5 0 V
5 0 V
5 0 V
5 0 V
4 0 V
5 0 V
5 0 V
5 0 V
5 0 V
5 0 V
4 0 V
5 0 V
5 0 V
5 0 V
5 0 V
4 0 V
5 0 V
5 0 V
5 0 V
5 0 V
4 0 V
5 0 V
5 0 V
5 0 V
5 0 V
5 0 V
4 0 V
5 0 V
5 0 V
5 0 V
5 0 V
4 0 V
5 0 V
5 0 V
5 0 V
5 0 V
4 0 V
5 0 V
5 0 V
5 0 V
5 0 V
5 0 V
4 0 V
5 0 V
5 0 V
5 0 V
5 0 V
4 0 V
5 0 V
5 0 V
5 0 V
5 0 V
4 0 V
5 0 V
5 0 V
5 0 V
5 0 V
5 0 V
stroke 4272 2680 M
4 0 V
5 0 V
5 0 V
5 0 V
5 0 V
4 0 V
5 0 V
5 0 V
5 0 V
5 0 V
4 0 V
5 0 V
5 0 V
5 0 V
5 0 V
5 0 V
4 0 V
5 0 V
5 0 V
5 0 V
5 0 V
4 0 V
5 0 V
5 0 V
5 0 V
5 0 V
4 0 V
5 0 V
5 0 V
5 0 V
5 0 V
5 0 V
4 0 V
5 0 V
5 0 V
5 0 V
5 0 V
4 0 V
5 0 V
5 0 V
5 0 V
5 0 V
5 0 V
4 0 V
5 0 V
5 0 V
5 0 V
5 0 V
4 0 V
5 0 V
5 0 V
5 0 V
5 0 V
4 0 V
5 0 V
5 0 V
5 0 V
5 0 V
5 0 V
4 0 V
5 0 V
5 0 V
5 0 V
5 0 V
4 0 V
5 0 V
5 0 V
5 0 V
5 0 V
4 0 V
5 0 V
5 0 V
5 0 V
5 0 V
5 0 V
4 0 V
5 0 V
5 0 V
5 0 V
5 0 V
4 0 V
5 0 V
5 0 V
5 0 V
5 0 V
4 0 V
5 0 V
5 0 V
5 0 V
5 0 V
5 0 V
4 0 V
5 0 V
5 0 V
5 0 V
5 0 V
4 0 V
5 0 V
5 0 V
5 0 V
5 0 V
4 0 V
5 0 V
5 0 V
5 0 V
5 0 V
5 0 V
4 0 V
5 0 V
5 0 V
5 0 V
5 0 V
4 0 V
5 0 V
5 0 V
5 0 V
5 0 V
4 0 V
5 0 V
5 0 V
5 0 V
5 0 V
5 0 V
4 0 V
5 0 V
5 0 V
5 0 V
5 0 V
4 0 V
5 0 V
5 0 V
5 0 V
5 0 V
4 0 V
5 0 V
5 0 V
5 0 V
5 0 V
5 0 V
4 0 V
5 0 V
5 0 V
5 0 V
5 0 V
4 0 V
5 0 V
5 0 V
5 0 V
5 0 V
4 0 V
5 0 V
5 0 V
5 0 V
5 0 V
5 0 V
4 0 V
5 0 V
5 0 V
5 0 V
5 0 V
4 0 V
5 0 V
5 0 V
5 0 V
5 0 V
4 0 V
5 0 V
5 0 V
5 0 V
5 0 V
5 0 V
4 0 V
5 0 V
5 0 V
5 0 V
5 0 V
4 0 V
5 0 V
5 0 V
5 0 V
5 0 V
4 0 V
5 0 V
5 0 V
5 0 V
5 0 V
5 0 V
4 0 V
5 0 V
5 0 V
5 0 V
5 0 V
4 0 V
5 0 V
5 0 V
5 0 V
5 0 V
5 0 V
4 0 V
5 0 V
5 0 V
5 0 V
5 0 V
4 0 V
5 0 V
5 0 V
5 0 V
5 0 V
4 0 V
5 0 V
5 0 V
5 0 V
5 0 V
4 0 V
5 0 V
5 0 V
5 0 V
5 0 V
5 0 V
4 0 V
5 0 V
5 0 V
5 0 V
5 0 V
4 0 V
5 0 V
5 0 V
5 0 V
5 0 V
4 0 V
5 0 V
5 0 V
5 0 V
5 0 V
5 0 V
4 0 V
5 0 V
5 0 V
5 0 V
5 0 V
4 0 V
5 0 V
5 0 V
5 0 V
5 0 V
5 0 V
4 0 V
5 0 V
5 0 V
stroke 5470 2680 M
5 0 V
5 0 V
4 0 V
5 0 V
5 0 V
5 0 V
5 0 V
4 0 V
5 0 V
5 0 V
5 0 V
5 0 V
5 0 V
4 0 V
5 0 V
5 0 V
5 0 V
5 0 V
4 0 V
5 0 V
5 0 V
5 0 V
5 0 V
4 0 V
5 0 V
5 0 V
5 0 V
5 0 V
5 0 V
4 0 V
5 0 V
5 0 V
5 0 V
5 0 V
4 0 V
5 0 V
5 0 V
5 0 V
5 0 V
4 0 V
5 0 V
5 0 V
5 0 V
5 0 V
5 0 V
4 0 V
5 0 V
5 0 V
5 0 V
5 0 V
4 0 V
5 0 V
5 0 V
5 0 V
5 0 V
4 0 V
5 88 V
5 0 V
5 0 V
5 0 V
5 0 V
4 0 V
5 0 V
5 0 V
5 0 V
5 0 V
4 0 V
5 0 V
5 0 V
5 0 V
5 0 V
4 0 V
5 0 V
5 0 V
5 0 V
5 0 V
5 0 V
4 0 V
5 0 V
5 0 V
5 0 V
5 0 V
4 0 V
5 0 V
5 0 V
5 0 V
5 0 V
4 0 V
5 0 V
5 0 V
5 0 V
5 0 V
5 0 V
4 0 V
5 0 V
5 0 V
5 0 V
5 0 V
4 0 V
5 0 V
5 0 V
5 0 V
5 0 V
4 0 V
5 0 V
5 0 V
5 0 V
5 0 V
5 0 V
4 0 V
5 0 V
5 0 V
5 0 V
5 0 V
4 0 V
5 0 V
5 0 V
5 0 V
5 0 V
4 0 V
5 0 V
5 0 V
5 0 V
5 0 V
5 0 V
4 0 V
5 0 V
5 0 V
5 0 V
5 0 V
4 0 V
5 0 V
5 0 V
5 0 V
5 0 V
4 0 V
5 0 V
5 0 V
5 0 V
5 0 V
5 0 V
4 0 V
5 0 V
5 0 V
5 0 V
5 0 V
4 0 V
5 0 V
5 0 V
5 0 V
5 0 V
4 0 V
5 0 V
5 0 V
5 0 V
5 0 V
5 0 V
4 0 V
5 0 V
5 0 V
5 0 V
5 0 V
4 0 V
5 0 V
5 0 V
5 0 V
5 0 V
4 0 V
5 0 V
5 0 V
5 0 V
5 0 V
5 0 V
4 0 V
5 0 V
5 0 V
5 0 V
5 0 V
4 0 V
5 0 V
5 0 V
5 0 V
5 0 V
5 0 V
4 0 V
5 0 V
5 0 V
5 0 V
5 0 V
4 0 V
5 0 V
5 0 V
5 0 V
5 0 V
4 0 V
5 0 V
5 0 V
5 0 V
5 0 V
5 0 V
4 0 V
5 0 V
5 0 V
5 0 V
5 0 V
4 0 V
5 0 V
5 0 V
5 0 V
5 0 V
4 0 V
5 0 V
5 0 V
5 0 V
5 0 V
5 0 V
4 0 V
5 0 V
5 0 V
5 0 V
5 0 V
4 0 V
5 0 V
5 0 V
5 0 V
5 0 V
4 0 V
5 0 V
5 0 V
5 0 V
5 0 V
5 0 V
4 0 V
5 0 V
5 0 V
5 0 V
5 0 V
4 0 V
5 0 V
5 0 V
5 0 V
5 0 V
4 0 V
5 0 V
5 0 V
5 0 V
5 0 V
5 0 V
4 0 V
stroke 6668 2768 M
5 0 V
5 0 V
5 0 V
5 0 V
4 0 V
5 0 V
5 0 V
5 0 V
5 0 V
4 0 V
5 0 V
5 0 V
5 0 V
5 0 V
5 0 V
4 0 V
5 0 V
5 0 V
5 0 V
5 0 V
4 0 V
5 0 V
5 0 V
5 0 V
5 0 V
4 0 V
5 0 V
5 0 V
5 0 V
5 0 V
5 0 V
4 0 V
5 0 V
5 0 V
5 0 V
5 0 V
4 0 V
5 0 V
5 0 V
5 0 V
5 0 V
4 0 V
5 0 V
5 0 V
5 0 V
5 0 V
5 0 V
4 0 V
5 0 V
5 0 V
5 0 V
5 0 V
4 0 V
5 0 V
5 0 V
5 0 V
5 0 V
% End plot #3
stroke
2.000 UL
LTb
LCb setrgbcolor
2.000 UL
LTB
LCb setrgbcolor
686 4899 N
686 448 L
6261 0 V
0 4451 V
-6261 0 V
Z stroke
1.000 UP
0.90 0.12 0.06 C
1288 695 M
[ [(Arial) 180.0 0.0 true true 0 (Shale/Clay)]
] -60.0 MCshow
/Helvetica findfont 140 scalefont setfont
0.90 0.12 0.06 C
6345 695 M
[ [(Arial) 180.0 0.0 true true 0 (Shale/Clay)]
] -60.0 MCshow
/Helvetica findfont 140 scalefont setfont
0.90 0.12 0.06 C
2251 695 M
[ [(Arial) 180.0 0.0 true true 0 (Brine)]
] -60.0 MCshow
/Helvetica findfont 140 scalefont setfont
0.90 0.12 0.06 C
4057 695 M
[ [(Arial) 180.0 0.0 true true 0 (Oil-Sand)]
] -60.0 MCshow
/Helvetica findfont 140 scalefont setfont
2.000 UL
LTb
LCb setrgbcolor
stroke
grestore
end
showpage
%%Trailer
%%DocumentFonts: Arial Helvetica
