%!PS-Adobe-2.0 EPSF-2.0
%%Creator: gnuplot 5.2 patchlevel 8
%%CreationDate: Wed Sep 28 01:54:41 2022
%%DocumentFonts: (atend)
%%BoundingBox: 50 50 410 302
%%EndComments
%%BeginProlog
/gnudict 256 dict def
gnudict begin
%
% The following true/false flags may be edited by hand if desired.
% The unit line width and grayscale image gamma correction may also be changed.
%
/Color true def
/Blacktext false def
/Solid false def
/Dashlength 1 def
/Landscape false def
/Level1 false def
/Level3 false def
/Rounded false def
/ClipToBoundingBox false def
/SuppressPDFMark false def
/TransparentPatterns false def
/gnulinewidth 5.000 def
/userlinewidth gnulinewidth def
/Gamma 1.0 def
/BackgroundColor {-1.000 -1.000 -1.000} def
%
/vshift -46 def
/dl1 {
  10.0 Dashlength userlinewidth gnulinewidth div mul mul mul
  Rounded { currentlinewidth 0.75 mul sub dup 0 le { pop 0.01 } if } if
} def
/dl2 {
  10.0 Dashlength userlinewidth gnulinewidth div mul mul mul
  Rounded { currentlinewidth 0.75 mul add } if
} def
/hpt_ 31.5 def
/vpt_ 31.5 def
/hpt hpt_ def
/vpt vpt_ def
/doclip {
  ClipToBoundingBox {
    newpath 50 50 moveto 410 50 lineto 410 302 lineto 50 302 lineto closepath
    clip
  } if
} def
%
% Gnuplot Prolog Version 5.2 (Dec 2017)
%
%/SuppressPDFMark true def
%
/M {moveto} bind def
/L {lineto} bind def
/R {rmoveto} bind def
/V {rlineto} bind def
/N {newpath moveto} bind def
/Z {closepath} bind def
/C {setrgbcolor} bind def
/f {rlineto fill} bind def
/g {setgray} bind def
/Gshow {show} def   % May be redefined later in the file to support UTF-8
/vpt2 vpt 2 mul def
/hpt2 hpt 2 mul def
/Lshow {currentpoint stroke M 0 vshift R 
	Blacktext {gsave 0 setgray textshow grestore} {textshow} ifelse} def
/Rshow {currentpoint stroke M dup stringwidth pop neg vshift R
	Blacktext {gsave 0 setgray textshow grestore} {textshow} ifelse} def
/Cshow {currentpoint stroke M dup stringwidth pop -2 div vshift R 
	Blacktext {gsave 0 setgray textshow grestore} {textshow} ifelse} def
/UP {dup vpt_ mul /vpt exch def hpt_ mul /hpt exch def
  /hpt2 hpt 2 mul def /vpt2 vpt 2 mul def} def
/DL {Color {setrgbcolor Solid {pop []} if 0 setdash}
 {pop pop pop 0 setgray Solid {pop []} if 0 setdash} ifelse} def
/BL {stroke userlinewidth 2 mul setlinewidth
	Rounded {1 setlinejoin 1 setlinecap} if} def
/AL {stroke userlinewidth 2 div setlinewidth
	Rounded {1 setlinejoin 1 setlinecap} if} def
/UL {dup gnulinewidth mul /userlinewidth exch def
	dup 1 lt {pop 1} if 10 mul /udl exch def} def
/PL {stroke userlinewidth setlinewidth
	Rounded {1 setlinejoin 1 setlinecap} if} def
3.8 setmiterlimit
% Classic Line colors (version 5.0)
/LCw {1 1 1} def
/LCb {0 0 0} def
/LCa {0 0 0} def
/LC0 {1 0 0} def
/LC1 {0 1 0} def
/LC2 {0 0 1} def
/LC3 {1 0 1} def
/LC4 {0 1 1} def
/LC5 {1 1 0} def
/LC6 {0 0 0} def
/LC7 {1 0.3 0} def
/LC8 {0.5 0.5 0.5} def
% Default dash patterns (version 5.0)
/LTB {BL [] LCb DL} def
/LTw {PL [] 1 setgray} def
/LTb {PL [] LCb DL} def
/LTa {AL [1 udl mul 2 udl mul] 0 setdash LCa setrgbcolor} def
/LT0 {PL [] LC0 DL} def
/LT1 {PL [2 dl1 3 dl2] LC1 DL} def
/LT2 {PL [1 dl1 1.5 dl2] LC2 DL} def
/LT3 {PL [6 dl1 2 dl2 1 dl1 2 dl2] LC3 DL} def
/LT4 {PL [1 dl1 2 dl2 6 dl1 2 dl2 1 dl1 2 dl2] LC4 DL} def
/LT5 {PL [4 dl1 2 dl2] LC5 DL} def
/LT6 {PL [1.5 dl1 1.5 dl2 1.5 dl1 1.5 dl2 1.5 dl1 6 dl2] LC6 DL} def
/LT7 {PL [3 dl1 3 dl2 1 dl1 3 dl2] LC7 DL} def
/LT8 {PL [2 dl1 2 dl2 2 dl1 6 dl2] LC8 DL} def
/SL {[] 0 setdash} def
/Pnt {stroke [] 0 setdash gsave 1 setlinecap M 0 0 V stroke grestore} def
/Dia {stroke [] 0 setdash 2 copy vpt add M
  hpt neg vpt neg V hpt vpt neg V
  hpt vpt V hpt neg vpt V closepath stroke
  Pnt} def
/Pls {stroke [] 0 setdash vpt sub M 0 vpt2 V
  currentpoint stroke M
  hpt neg vpt neg R hpt2 0 V stroke
 } def
/Box {stroke [] 0 setdash 2 copy exch hpt sub exch vpt add M
  0 vpt2 neg V hpt2 0 V 0 vpt2 V
  hpt2 neg 0 V closepath stroke
  Pnt} def
/Crs {stroke [] 0 setdash exch hpt sub exch vpt add M
  hpt2 vpt2 neg V currentpoint stroke M
  hpt2 neg 0 R hpt2 vpt2 V stroke} def
/TriU {stroke [] 0 setdash 2 copy vpt 1.12 mul add M
  hpt neg vpt -1.62 mul V
  hpt 2 mul 0 V
  hpt neg vpt 1.62 mul V closepath stroke
  Pnt} def
/Star {2 copy Pls Crs} def
/BoxF {stroke [] 0 setdash exch hpt sub exch vpt add M
  0 vpt2 neg V hpt2 0 V 0 vpt2 V
  hpt2 neg 0 V closepath fill} def
/TriUF {stroke [] 0 setdash vpt 1.12 mul add M
  hpt neg vpt -1.62 mul V
  hpt 2 mul 0 V
  hpt neg vpt 1.62 mul V closepath fill} def
/TriD {stroke [] 0 setdash 2 copy vpt 1.12 mul sub M
  hpt neg vpt 1.62 mul V
  hpt 2 mul 0 V
  hpt neg vpt -1.62 mul V closepath stroke
  Pnt} def
/TriDF {stroke [] 0 setdash vpt 1.12 mul sub M
  hpt neg vpt 1.62 mul V
  hpt 2 mul 0 V
  hpt neg vpt -1.62 mul V closepath fill} def
/DiaF {stroke [] 0 setdash vpt add M
  hpt neg vpt neg V hpt vpt neg V
  hpt vpt V hpt neg vpt V closepath fill} def
/Pent {stroke [] 0 setdash 2 copy gsave
  translate 0 hpt M 4 {72 rotate 0 hpt L} repeat
  closepath stroke grestore Pnt} def
/PentF {stroke [] 0 setdash gsave
  translate 0 hpt M 4 {72 rotate 0 hpt L} repeat
  closepath fill grestore} def
/Circle {stroke [] 0 setdash 2 copy
  hpt 0 360 arc stroke Pnt} def
/CircleF {stroke [] 0 setdash hpt 0 360 arc fill} def
/C0 {BL [] 0 setdash 2 copy moveto vpt 90 450 arc} bind def
/C1 {BL [] 0 setdash 2 copy moveto
	2 copy vpt 0 90 arc closepath fill
	vpt 0 360 arc closepath} bind def
/C2 {BL [] 0 setdash 2 copy moveto
	2 copy vpt 90 180 arc closepath fill
	vpt 0 360 arc closepath} bind def
/C3 {BL [] 0 setdash 2 copy moveto
	2 copy vpt 0 180 arc closepath fill
	vpt 0 360 arc closepath} bind def
/C4 {BL [] 0 setdash 2 copy moveto
	2 copy vpt 180 270 arc closepath fill
	vpt 0 360 arc closepath} bind def
/C5 {BL [] 0 setdash 2 copy moveto
	2 copy vpt 0 90 arc
	2 copy moveto
	2 copy vpt 180 270 arc closepath fill
	vpt 0 360 arc} bind def
/C6 {BL [] 0 setdash 2 copy moveto
	2 copy vpt 90 270 arc closepath fill
	vpt 0 360 arc closepath} bind def
/C7 {BL [] 0 setdash 2 copy moveto
	2 copy vpt 0 270 arc closepath fill
	vpt 0 360 arc closepath} bind def
/C8 {BL [] 0 setdash 2 copy moveto
	2 copy vpt 270 360 arc closepath fill
	vpt 0 360 arc closepath} bind def
/C9 {BL [] 0 setdash 2 copy moveto
	2 copy vpt 270 450 arc closepath fill
	vpt 0 360 arc closepath} bind def
/C10 {BL [] 0 setdash 2 copy 2 copy moveto vpt 270 360 arc closepath fill
	2 copy moveto
	2 copy vpt 90 180 arc closepath fill
	vpt 0 360 arc closepath} bind def
/C11 {BL [] 0 setdash 2 copy moveto
	2 copy vpt 0 180 arc closepath fill
	2 copy moveto
	2 copy vpt 270 360 arc closepath fill
	vpt 0 360 arc closepath} bind def
/C12 {BL [] 0 setdash 2 copy moveto
	2 copy vpt 180 360 arc closepath fill
	vpt 0 360 arc closepath} bind def
/C13 {BL [] 0 setdash 2 copy moveto
	2 copy vpt 0 90 arc closepath fill
	2 copy moveto
	2 copy vpt 180 360 arc closepath fill
	vpt 0 360 arc closepath} bind def
/C14 {BL [] 0 setdash 2 copy moveto
	2 copy vpt 90 360 arc closepath fill
	vpt 0 360 arc} bind def
/C15 {BL [] 0 setdash 2 copy vpt 0 360 arc closepath fill
	vpt 0 360 arc closepath} bind def
/Rec {newpath 4 2 roll moveto 1 index 0 rlineto 0 exch rlineto
	neg 0 rlineto closepath} bind def
/Square {dup Rec} bind def
/Bsquare {vpt sub exch vpt sub exch vpt2 Square} bind def
/S0 {BL [] 0 setdash 2 copy moveto 0 vpt rlineto BL Bsquare} bind def
/S1 {BL [] 0 setdash 2 copy vpt Square fill Bsquare} bind def
/S2 {BL [] 0 setdash 2 copy exch vpt sub exch vpt Square fill Bsquare} bind def
/S3 {BL [] 0 setdash 2 copy exch vpt sub exch vpt2 vpt Rec fill Bsquare} bind def
/S4 {BL [] 0 setdash 2 copy exch vpt sub exch vpt sub vpt Square fill Bsquare} bind def
/S5 {BL [] 0 setdash 2 copy 2 copy vpt Square fill
	exch vpt sub exch vpt sub vpt Square fill Bsquare} bind def
/S6 {BL [] 0 setdash 2 copy exch vpt sub exch vpt sub vpt vpt2 Rec fill Bsquare} bind def
/S7 {BL [] 0 setdash 2 copy exch vpt sub exch vpt sub vpt vpt2 Rec fill
	2 copy vpt Square fill Bsquare} bind def
/S8 {BL [] 0 setdash 2 copy vpt sub vpt Square fill Bsquare} bind def
/S9 {BL [] 0 setdash 2 copy vpt sub vpt vpt2 Rec fill Bsquare} bind def
/S10 {BL [] 0 setdash 2 copy vpt sub vpt Square fill 2 copy exch vpt sub exch vpt Square fill
	Bsquare} bind def
/S11 {BL [] 0 setdash 2 copy vpt sub vpt Square fill 2 copy exch vpt sub exch vpt2 vpt Rec fill
	Bsquare} bind def
/S12 {BL [] 0 setdash 2 copy exch vpt sub exch vpt sub vpt2 vpt Rec fill Bsquare} bind def
/S13 {BL [] 0 setdash 2 copy exch vpt sub exch vpt sub vpt2 vpt Rec fill
	2 copy vpt Square fill Bsquare} bind def
/S14 {BL [] 0 setdash 2 copy exch vpt sub exch vpt sub vpt2 vpt Rec fill
	2 copy exch vpt sub exch vpt Square fill Bsquare} bind def
/S15 {BL [] 0 setdash 2 copy Bsquare fill Bsquare} bind def
/D0 {gsave translate 45 rotate 0 0 S0 stroke grestore} bind def
/D1 {gsave translate 45 rotate 0 0 S1 stroke grestore} bind def
/D2 {gsave translate 45 rotate 0 0 S2 stroke grestore} bind def
/D3 {gsave translate 45 rotate 0 0 S3 stroke grestore} bind def
/D4 {gsave translate 45 rotate 0 0 S4 stroke grestore} bind def
/D5 {gsave translate 45 rotate 0 0 S5 stroke grestore} bind def
/D6 {gsave translate 45 rotate 0 0 S6 stroke grestore} bind def
/D7 {gsave translate 45 rotate 0 0 S7 stroke grestore} bind def
/D8 {gsave translate 45 rotate 0 0 S8 stroke grestore} bind def
/D9 {gsave translate 45 rotate 0 0 S9 stroke grestore} bind def
/D10 {gsave translate 45 rotate 0 0 S10 stroke grestore} bind def
/D11 {gsave translate 45 rotate 0 0 S11 stroke grestore} bind def
/D12 {gsave translate 45 rotate 0 0 S12 stroke grestore} bind def
/D13 {gsave translate 45 rotate 0 0 S13 stroke grestore} bind def
/D14 {gsave translate 45 rotate 0 0 S14 stroke grestore} bind def
/D15 {gsave translate 45 rotate 0 0 S15 stroke grestore} bind def
/DiaE {stroke [] 0 setdash vpt add M
  hpt neg vpt neg V hpt vpt neg V
  hpt vpt V hpt neg vpt V closepath stroke} def
/BoxE {stroke [] 0 setdash exch hpt sub exch vpt add M
  0 vpt2 neg V hpt2 0 V 0 vpt2 V
  hpt2 neg 0 V closepath stroke} def
/TriUE {stroke [] 0 setdash vpt 1.12 mul add M
  hpt neg vpt -1.62 mul V
  hpt 2 mul 0 V
  hpt neg vpt 1.62 mul V closepath stroke} def
/TriDE {stroke [] 0 setdash vpt 1.12 mul sub M
  hpt neg vpt 1.62 mul V
  hpt 2 mul 0 V
  hpt neg vpt -1.62 mul V closepath stroke} def
/PentE {stroke [] 0 setdash gsave
  translate 0 hpt M 4 {72 rotate 0 hpt L} repeat
  closepath stroke grestore} def
/CircE {stroke [] 0 setdash 
  hpt 0 360 arc stroke} def
/Opaque {gsave closepath 1 setgray fill grestore 0 setgray closepath} def
/DiaW {stroke [] 0 setdash vpt add M
  hpt neg vpt neg V hpt vpt neg V
  hpt vpt V hpt neg vpt V Opaque stroke} def
/BoxW {stroke [] 0 setdash exch hpt sub exch vpt add M
  0 vpt2 neg V hpt2 0 V 0 vpt2 V
  hpt2 neg 0 V Opaque stroke} def
/TriUW {stroke [] 0 setdash vpt 1.12 mul add M
  hpt neg vpt -1.62 mul V
  hpt 2 mul 0 V
  hpt neg vpt 1.62 mul V Opaque stroke} def
/TriDW {stroke [] 0 setdash vpt 1.12 mul sub M
  hpt neg vpt 1.62 mul V
  hpt 2 mul 0 V
  hpt neg vpt -1.62 mul V Opaque stroke} def
/PentW {stroke [] 0 setdash gsave
  translate 0 hpt M 4 {72 rotate 0 hpt L} repeat
  Opaque stroke grestore} def
/CircW {stroke [] 0 setdash 
  hpt 0 360 arc Opaque stroke} def
/BoxFill {gsave Rec 1 setgray fill grestore} def
/Density {
  /Fillden exch def
  currentrgbcolor
  /ColB exch def /ColG exch def /ColR exch def
  /ColR ColR Fillden mul Fillden sub 1 add def
  /ColG ColG Fillden mul Fillden sub 1 add def
  /ColB ColB Fillden mul Fillden sub 1 add def
  ColR ColG ColB setrgbcolor} def
/BoxColFill {gsave Rec PolyFill} def
/PolyFill {gsave Density fill grestore grestore} def
/h {rlineto rlineto rlineto closepath gsave fill grestore stroke} bind def
%
% PostScript Level 1 Pattern Fill routine for rectangles
% Usage: x y w h s a XX PatternFill
%	x,y = lower left corner of box to be filled
%	w,h = width and height of box
%	  a = angle in degrees between lines and x-axis
%	 XX = 0/1 for no/yes cross-hatch
%
/PatternFill {gsave /PFa [ 9 2 roll ] def
  PFa 0 get PFa 2 get 2 div add PFa 1 get PFa 3 get 2 div add translate
  PFa 2 get -2 div PFa 3 get -2 div PFa 2 get PFa 3 get Rec
  TransparentPatterns {} {gsave 1 setgray fill grestore} ifelse
  clip
  currentlinewidth 0.5 mul setlinewidth
  /PFs PFa 2 get dup mul PFa 3 get dup mul add sqrt def
  0 0 M PFa 5 get rotate PFs -2 div dup translate
  0 1 PFs PFa 4 get div 1 add floor cvi
	{PFa 4 get mul 0 M 0 PFs V} for
  0 PFa 6 get ne {
	0 1 PFs PFa 4 get div 1 add floor cvi
	{PFa 4 get mul 0 2 1 roll M PFs 0 V} for
 } if
  stroke grestore} def
%
/languagelevel where
 {pop languagelevel} {1} ifelse
dup 2 lt
	{/InterpretLevel1 true def
	 /InterpretLevel3 false def}
	{/InterpretLevel1 Level1 def
	 2 gt
	    {/InterpretLevel3 Level3 def}
	    {/InterpretLevel3 false def}
	 ifelse }
 ifelse
%
% PostScript level 2 pattern fill definitions
%
/Level2PatternFill {
/Tile8x8 {/PaintType 2 /PatternType 1 /TilingType 1 /BBox [0 0 8 8] /XStep 8 /YStep 8}
	bind def
/KeepColor {currentrgbcolor [/Pattern /DeviceRGB] setcolorspace} bind def
<< Tile8x8
 /PaintProc {0.5 setlinewidth pop 0 0 M 8 8 L 0 8 M 8 0 L stroke} 
>> matrix makepattern
/Pat1 exch def
<< Tile8x8
 /PaintProc {0.5 setlinewidth pop 0 0 M 8 8 L 0 8 M 8 0 L stroke
	0 4 M 4 8 L 8 4 L 4 0 L 0 4 L stroke}
>> matrix makepattern
/Pat2 exch def
<< Tile8x8
 /PaintProc {0.5 setlinewidth pop 0 0 M 0 8 L
	8 8 L 8 0 L 0 0 L fill}
>> matrix makepattern
/Pat3 exch def
<< Tile8x8
 /PaintProc {0.5 setlinewidth pop -4 8 M 8 -4 L
	0 12 M 12 0 L stroke}
>> matrix makepattern
/Pat4 exch def
<< Tile8x8
 /PaintProc {0.5 setlinewidth pop -4 0 M 8 12 L
	0 -4 M 12 8 L stroke}
>> matrix makepattern
/Pat5 exch def
<< Tile8x8
 /PaintProc {0.5 setlinewidth pop -2 8 M 4 -4 L
	0 12 M 8 -4 L 4 12 M 10 0 L stroke}
>> matrix makepattern
/Pat6 exch def
<< Tile8x8
 /PaintProc {0.5 setlinewidth pop -2 0 M 4 12 L
	0 -4 M 8 12 L 4 -4 M 10 8 L stroke}
>> matrix makepattern
/Pat7 exch def
<< Tile8x8
 /PaintProc {0.5 setlinewidth pop 8 -2 M -4 4 L
	12 0 M -4 8 L 12 4 M 0 10 L stroke}
>> matrix makepattern
/Pat8 exch def
<< Tile8x8
 /PaintProc {0.5 setlinewidth pop 0 -2 M 12 4 L
	-4 0 M 12 8 L -4 4 M 8 10 L stroke}
>> matrix makepattern
/Pat9 exch def
/Pattern1 {PatternBgnd KeepColor Pat1 setpattern} bind def
/Pattern2 {PatternBgnd KeepColor Pat2 setpattern} bind def
/Pattern3 {PatternBgnd KeepColor Pat3 setpattern} bind def
/Pattern4 {PatternBgnd KeepColor Landscape {Pat5} {Pat4} ifelse setpattern} bind def
/Pattern5 {PatternBgnd KeepColor Landscape {Pat4} {Pat5} ifelse setpattern} bind def
/Pattern6 {PatternBgnd KeepColor Landscape {Pat9} {Pat6} ifelse setpattern} bind def
/Pattern7 {PatternBgnd KeepColor Landscape {Pat8} {Pat7} ifelse setpattern} bind def
} def
%
%
%End of PostScript Level 2 code
%
/PatternBgnd {
  TransparentPatterns {} {gsave 1 setgray fill grestore} ifelse
} def
%
% Substitute for Level 2 pattern fill codes with
% grayscale if Level 2 support is not selected.
%
/Level1PatternFill {
/Pattern1 {0.250 Density} bind def
/Pattern2 {0.500 Density} bind def
/Pattern3 {0.750 Density} bind def
/Pattern4 {0.125 Density} bind def
/Pattern5 {0.375 Density} bind def
/Pattern6 {0.625 Density} bind def
/Pattern7 {0.875 Density} bind def
} def
%
% Now test for support of Level 2 code
%
Level1 {Level1PatternFill} {Level2PatternFill} ifelse
%
/Symbol-Oblique /Symbol findfont [1 0 .167 1 0 0] makefont
dup length dict begin {1 index /FID eq {pop pop} {def} ifelse} forall
currentdict end definefont pop
%
/Metrics {ExtendTextBox Gswidth} def
/Lwidth {currentpoint stroke M 0 vshift R Metrics} def
/Rwidth {currentpoint stroke M dup stringwidth pop neg vshift R Metrics} def
/Cwidth {currentpoint stroke M dup stringwidth pop -2 div vshift R Metrics} def
/GLwidth {currentpoint stroke M 0 vshift R {ExtendTextBox} forall} def
/GRwidth {currentpoint stroke M dup Gwidth vshift R {ExtendTextBox} forall} def
/GCwidth {currentpoint stroke M dup Gwidth 2 div vshift R {ExtendTextBox} forall} def
/GLwidth2 {0 Gwidth AddGlyphWidth} def
/GRwidth2 {Gwidth -1 mul 0 AddGlyphWidth} def
/GCwidth2 {Gwidth 2 div dup -1 mul AddGlyphWidth} def
/AddGlyphWidth { dup TBx2 gt {userdict /TBx2 3 -1 roll put} {pop} ifelse
                 dup TBx1 lt {userdict /TBx1 3 -1 roll put} {pop} ifelse } def
/MFshow {
   { dup 5 get 3 ge
     { 5 get 3 eq {gsave} {grestore} ifelse }
     {dup dup 0 get findfont exch 1 get scalefont setfont
     [ currentpoint ] exch dup 2 get 0 exch R dup 5 get 2 ne {dup dup 6
     get exch 4 get {textshow} {Metrics pop 0 R} ifelse }if dup 5 get 0 eq
     {dup 3 get {2 get neg 0 exch R pop} {pop aload pop M} ifelse} {dup 5
     get 1 eq {dup 2 get exch dup 3 get exch 6 get Gswidth pop -2 div
     dup 0 R} {dup 6 get Gswidth pop -2 div 0 R 6 get
     textshow 2 index {aload pop M neg 3 -1 roll neg R pop pop} {pop pop pop
     pop aload pop M} ifelse }ifelse }ifelse }
     ifelse }
   forall} def
/Gswidth {dup type /stringtype eq {stringwidth} {pop (n) stringwidth} ifelse} def
/MFwidth {0 exch { dup 5 get 3 ge { 5 get 3 eq { 0 } { pop } ifelse }
 {dup 3 get{dup dup 0 get findfont exch 1 get scalefont setfont
     6 get Gswidth pop add} {pop} ifelse} ifelse} forall} def
/MLshow { currentpoint stroke M
  0 exch R
  Blacktext {gsave 0 setgray MFshow grestore} {MFshow} ifelse } bind def
/MRshow { currentpoint stroke M
  exch dup MFwidth neg 3 -1 roll R
  Blacktext {gsave 0 setgray MFshow grestore} {MFshow} ifelse } bind def
/MCshow { currentpoint stroke M
  exch dup MFwidth -2 div 3 -1 roll R
  Blacktext {gsave 0 setgray MFshow grestore} {MFshow} ifelse } bind def
/XYsave    { [( ) 1 2 true false 3 ()] } bind def
/XYrestore { [( ) 1 2 true false 4 ()] } bind def
Level1 SuppressPDFMark or 
{} {
/SDict 10 dict def
systemdict /pdfmark known not {
  userdict /pdfmark systemdict /cleartomark get put
} if
SDict begin [
  /Title ()
  /Subject (gnuplot plot)
  /Creator (gnuplot 5.2 patchlevel 8)
%  /Producer (gnuplot)
%  /Keywords ()
  /CreationDate (Wed Sep 28 01:54:41 2022)
  /DOCINFO pdfmark
end
} ifelse
%
% Support for boxed text - Ethan A Merritt Sep 2016
%
/InitTextBox { userdict /TBy2 3 -1 roll put userdict /TBx2 3 -1 roll put
           userdict /TBy1 3 -1 roll put userdict /TBx1 3 -1 roll put
	   /Boxing true def } def
/ExtendTextBox { dup type /stringtype eq
    { Boxing { gsave dup false charpath pathbbox
      dup TBy2 gt {userdict /TBy2 3 -1 roll put} {pop} ifelse
      dup TBx2 gt {userdict /TBx2 3 -1 roll put} {pop} ifelse
      dup TBy1 lt {userdict /TBy1 3 -1 roll put} {pop} ifelse
      dup TBx1 lt {userdict /TBx1 3 -1 roll put} {pop} ifelse
      grestore } if }
    {} ifelse} def
/PopTextBox { newpath TBx1 TBxmargin sub TBy1 TBymargin sub M
               TBx1 TBxmargin sub TBy2 TBymargin add L
	       TBx2 TBxmargin add TBy2 TBymargin add L
	       TBx2 TBxmargin add TBy1 TBymargin sub L closepath } def
/DrawTextBox { PopTextBox stroke /Boxing false def} def
/FillTextBox { gsave PopTextBox fill grestore /Boxing false def} def
0 0 0 0 InitTextBox
/TBxmargin 20 def
/TBymargin 20 def
/Boxing false def
/textshow { ExtendTextBox Gshow } def
%
end
%%EndProlog
%%Page: 1 1
gnudict begin
gsave
doclip
50 50 translate
0.050 0.050 scale
0 setgray
newpath
(Helvetica) findfont 140 scalefont setfont
BackgroundColor 0 lt 3 1 roll 0 lt exch 0 lt or or not {BackgroundColor C 1.000 0 0 7200.00 5040.00 BoxColFill} if
2.000 UL
LTb
LCb setrgbcolor
686 893 M
63 0 V
stroke
602 893 M
[ [(Helvetica) 140.0 0.0 true true 0 (-400)]
] -46.7 MRshow
/Helvetica findfont 140 scalefont setfont
/vshift -46 def
2.000 UL
LTb
LCb setrgbcolor
686 1783 M
63 0 V
stroke
602 1783 M
[ [(Helvetica) 140.0 0.0 true true 0 (-200)]
] -46.7 MRshow
/Helvetica findfont 140 scalefont setfont
2.000 UL
LTb
LCb setrgbcolor
686 2674 M
63 0 V
stroke
602 2674 M
[ [(Helvetica) 140.0 0.0 true true 0 ( 0)]
] -46.7 MRshow
/Helvetica findfont 140 scalefont setfont
2.000 UL
LTb
LCb setrgbcolor
686 3564 M
63 0 V
stroke
602 3564 M
[ [(Helvetica) 140.0 0.0 true true 0 ( 200)]
] -46.7 MRshow
/Helvetica findfont 140 scalefont setfont
2.000 UL
LTb
LCb setrgbcolor
686 4454 M
63 0 V
stroke
602 4454 M
[ [(Helvetica) 140.0 0.0 true true 0 ( 400)]
] -46.7 MRshow
/Helvetica findfont 140 scalefont setfont
2.000 UL
LTb
LCb setrgbcolor
686 448 M
0 63 V
0 4388 R
0 -63 V
stroke
686 308 M
[ [(Helvetica) 140.0 0.0 true true 0 ( 0)]
] -46.7 MCshow
/Helvetica findfont 140 scalefont setfont
2.000 UL
LTb
LCb setrgbcolor
1766 448 M
0 63 V
0 4388 R
0 -63 V
stroke
1766 308 M
[ [(Helvetica) 140.0 0.0 true true 0 ( 5)]
] -46.7 MCshow
/Helvetica findfont 140 scalefont setfont
2.000 UL
LTb
LCb setrgbcolor
2846 448 M
0 63 V
0 4388 R
0 -63 V
stroke
2846 308 M
[ [(Helvetica) 140.0 0.0 true true 0 ( 10)]
] -46.7 MCshow
/Helvetica findfont 140 scalefont setfont
2.000 UL
LTb
LCb setrgbcolor
3927 448 M
0 63 V
0 4388 R
0 -63 V
stroke
3927 308 M
[ [(Helvetica) 140.0 0.0 true true 0 ( 15)]
] -46.7 MCshow
/Helvetica findfont 140 scalefont setfont
2.000 UL
LTb
LCb setrgbcolor
5007 448 M
0 63 V
0 4388 R
0 -63 V
stroke
5007 308 M
[ [(Helvetica) 140.0 0.0 true true 0 ( 20)]
] -46.7 MCshow
/Helvetica findfont 140 scalefont setfont
2.000 UL
LTb
LCb setrgbcolor
6087 448 M
0 63 V
0 4388 R
0 -63 V
stroke
6087 308 M
[ [(Helvetica) 140.0 0.0 true true 0 ( 25)]
] -46.7 MCshow
/Helvetica findfont 140 scalefont setfont
2.000 UL
LTb
LCb setrgbcolor
6303 790 M
-63 0 V
stroke
0.90 0.62 0.00 C
6387 790 M
[ [(Helvetica) 140.0 0.0 true true 0 ( 0)]
] -46.7 MLshow
/Helvetica findfont 140 scalefont setfont
2.000 UL
LTb
LCb setrgbcolor
6303 1133 M
-63 0 V
stroke
0.90 0.62 0.00 C
6387 1133 M
[ [(Helvetica) 140.0 0.0 true true 0 ( 10)]
] -46.7 MLshow
/Helvetica findfont 140 scalefont setfont
2.000 UL
LTb
LCb setrgbcolor
6303 1475 M
-63 0 V
stroke
0.90 0.62 0.00 C
6387 1475 M
[ [(Helvetica) 140.0 0.0 true true 0 ( 20)]
] -46.7 MLshow
/Helvetica findfont 140 scalefont setfont
2.000 UL
LTb
LCb setrgbcolor
6303 1818 M
-63 0 V
stroke
0.90 0.62 0.00 C
6387 1818 M
[ [(Helvetica) 140.0 0.0 true true 0 ( 30)]
] -46.7 MLshow
/Helvetica findfont 140 scalefont setfont
2.000 UL
LTb
LCb setrgbcolor
6303 2160 M
-63 0 V
stroke
0.90 0.62 0.00 C
6387 2160 M
[ [(Helvetica) 140.0 0.0 true true 0 ( 40)]
] -46.7 MLshow
/Helvetica findfont 140 scalefont setfont
2.000 UL
LTb
LCb setrgbcolor
6303 2502 M
-63 0 V
stroke
0.90 0.62 0.00 C
6387 2502 M
[ [(Helvetica) 140.0 0.0 true true 0 ( 50)]
] -46.7 MLshow
/Helvetica findfont 140 scalefont setfont
2.000 UL
LTb
LCb setrgbcolor
6303 2845 M
-63 0 V
stroke
0.90 0.62 0.00 C
6387 2845 M
[ [(Helvetica) 140.0 0.0 true true 0 ( 60)]
] -46.7 MLshow
/Helvetica findfont 140 scalefont setfont
2.000 UL
LTb
LCb setrgbcolor
6303 3187 M
-63 0 V
stroke
0.90 0.62 0.00 C
6387 3187 M
[ [(Helvetica) 140.0 0.0 true true 0 ( 70)]
] -46.7 MLshow
/Helvetica findfont 140 scalefont setfont
2.000 UL
LTb
LCb setrgbcolor
6303 3529 M
-63 0 V
stroke
0.90 0.62 0.00 C
6387 3529 M
[ [(Helvetica) 140.0 0.0 true true 0 ( 80)]
] -46.7 MLshow
/Helvetica findfont 140 scalefont setfont
2.000 UL
LTb
LCb setrgbcolor
6303 3872 M
-63 0 V
stroke
0.90 0.62 0.00 C
6387 3872 M
[ [(Helvetica) 140.0 0.0 true true 0 ( 90)]
] -46.7 MLshow
/Helvetica findfont 140 scalefont setfont
2.000 UL
LTb
LCb setrgbcolor
6303 4214 M
-63 0 V
stroke
0.90 0.62 0.00 C
6387 4214 M
[ [(Helvetica) 140.0 0.0 true true 0 ( 100)]
] -46.7 MLshow
/Helvetica findfont 140 scalefont setfont
2.000 UL
LTb
LCb setrgbcolor
6303 4557 M
-63 0 V
stroke
0.90 0.62 0.00 C
6387 4557 M
[ [(Helvetica) 140.0 0.0 true true 0 ( 110)]
] -46.7 MLshow
/Helvetica findfont 140 scalefont setfont
2.000 UL
LTb
LCb setrgbcolor
6303 4899 M
-63 0 V
stroke
0.90 0.62 0.00 C
6387 4899 M
[ [(Helvetica) 140.0 0.0 true true 0 ( 120)]
] -46.7 MLshow
/Helvetica findfont 140 scalefont setfont
2.000 UL
LTb
LCb setrgbcolor
2.000 UL
LTB
LCb setrgbcolor
686 4899 N
686 448 L
5617 0 V
0 4451 V
-5617 0 V
Z stroke
1.000 UP
2.000 UL
LTb
LCb setrgbcolor
LCb setrgbcolor
133 2673 M
currentpoint gsave translate -270 rotate 0 0 moveto
[ [(Arial bold) 180.0 0.0 true true 0 (values)]
] -60.0 MCshow
grestore
/Helvetica findfont 140 scalefont setfont
LTb
0.90 0.62 0.00 C
6877 2673 M
currentpoint gsave translate -270 rotate 0 0 moveto
[ [(Helvetica) 140.0 0.0 true true 0 (Power [W/m)]
[(Helvetica) 112.0 70.0 true true 0 (3)]
[(Helvetica) 140.0 0.0 true true 0 (])]
] -60.7 MCshow
grestore
/Helvetica findfont 140 scalefont setfont
LTb
LCb setrgbcolor
3494 98 M
[ [(Arial bold) 180.0 0.0 true true 0 (Z [m])]
] -60.0 MCshow
/Helvetica findfont 140 scalefont setfont
LTb
% Begin plot #1
3.000 UL
LTb
0.58 0.00 0.83 C
LCb setrgbcolor
5652 4766 M
[ [(Helvetica) 140.0 0.0 true true 0 (Ex[V/m])]
] -46.7 MRshow
/Helvetica findfont 140 scalefont setfont
3.000 UL
LTb
0.58 0.00 0.83 C
5736 4766 M
399 0 V
686 2674 M
3 0 V
3 0 V
4 0 V
3 -1 V
3 0 V
3 0 V
4 0 V
3 1 V
3 0 V
3 0 V
4 0 V
3 0 V
3 0 V
3 0 V
4 -1 V
3 0 V
3 0 V
3 0 V
4 1 V
3 0 V
3 0 V
3 0 V
3 0 V
4 0 V
3 -1 V
3 0 V
3 0 V
4 0 V
3 0 V
3 1 V
3 0 V
4 0 V
3 0 V
3 0 V
3 0 V
4 -1 V
3 0 V
3 0 V
3 0 V
4 1 V
3 0 V
3 0 V
3 0 V
3 0 V
4 0 V
3 -1 V
3 0 V
3 0 V
4 0 V
3 0 V
3 1 V
3 0 V
4 0 V
3 0 V
3 0 V
3 0 V
4 -1 V
3 0 V
3 0 V
3 0 V
4 0 V
3 1 V
3 0 V
3 0 V
3 0 V
4 0 V
3 -1 V
3 0 V
3 0 V
4 0 V
3 0 V
3 1 V
3 0 V
4 0 V
3 0 V
3 0 V
3 0 V
4 -1 V
3 0 V
3 0 V
3 0 V
4 0 V
3 1 V
3 0 V
3 0 V
3 0 V
4 0 V
3 -1 V
3 0 V
3 0 V
4 0 V
3 0 V
3 1 V
3 0 V
4 0 V
3 0 V
3 0 V
3 0 V
4 -1 V
3 0 V
3 0 V
3 0 V
4 0 V
3 1 V
3 0 V
3 0 V
4 0 V
3 0 V
3 0 V
3 -1 V
3 0 V
4 0 V
3 0 V
3 0 V
3 1 V
4 0 V
3 0 V
3 0 V
3 0 V
4 -1 V
3 0 V
3 0 V
3 0 V
4 0 V
3 1 V
3 0 V
3 0 V
4 0 V
3 0 V
3 0 V
3 -1 V
3 0 V
4 0 V
3 0 V
3 0 V
3 1 V
4 0 V
3 0 V
3 0 V
3 0 V
4 -1 V
3 0 V
3 0 V
3 0 V
4 0 V
3 1 V
3 0 V
3 0 V
4 0 V
3 0 V
3 0 V
3 -1 V
3 0 V
4 0 V
3 0 V
3 0 V
3 1 V
4 0 V
3 0 V
3 0 V
3 0 V
4 0 V
3 -1 V
3 0 V
3 0 V
4 0 V
3 0 V
3 1 V
3 0 V
4 1 V
3 -1 V
3 0 V
3 -1 V
3 0 V
4 -1 V
3 0 V
3 1 V
3 1 V
4 0 V
3 1 V
3 0 V
3 -1 V
4 0 V
3 -1 V
3 -1 V
3 0 V
4 0 V
3 1 V
3 1 V
3 1 V
4 0 V
3 0 V
3 -1 V
3 -1 V
3 0 V
4 -1 V
3 0 V
3 1 V
3 0 V
4 1 V
3 1 V
3 0 V
3 0 V
4 -1 V
3 -1 V
3 -1 V
3 0 V
4 0 V
3 1 V
3 1 V
3 1 V
4 0 V
3 0 V
3 0 V
3 -1 V
3 -2 V
4 0 V
3 0 V
3 0 V
3 1 V
4 1 V
3 1 V
3 1 V
3 -1 V
4 -1 V
3 -1 V
3 -1 V
3 -1 V
4 1 V
3 0 V
3 2 V
3 1 V
4 1 V
3 0 V
3 -1 V
3 -1 V
3 -2 V
4 -1 V
3 0 V
3 1 V
3 1 V
4 1 V
3 2 V
3 0 V
3 0 V
4 -1 V
3 -2 V
stroke 1486 2673 M
3 -1 V
3 -1 V
4 0 V
3 1 V
3 1 V
3 2 V
4 1 V
3 1 V
3 -1 V
3 -2 V
3 -2 V
4 -1 V
3 -1 V
3 1 V
3 1 V
4 2 V
3 2 V
3 1 V
3 0 V
4 -2 V
3 -1 V
3 -2 V
3 -2 V
4 0 V
3 1 V
3 2 V
3 2 V
4 2 V
3 0 V
3 0 V
3 -2 V
3 -2 V
4 -3 V
3 -1 V
3 1 V
3 1 V
4 3 V
3 2 V
3 2 V
3 0 V
4 -2 V
3 -2 V
3 -3 V
3 -2 V
4 0 V
3 1 V
3 2 V
3 3 V
4 2 V
3 2 V
3 -1 V
3 -2 V
4 -3 V
3 -3 V
3 -2 V
3 0 V
3 2 V
4 3 V
3 3 V
3 3 V
3 0 V
4 -1 V
3 -3 V
3 -4 V
3 -2 V
4 -2 V
3 1 V
3 3 V
3 4 V
4 3 V
3 2 V
3 0 V
3 -3 V
4 -3 V
3 -4 V
3 -3 V
3 0 V
3 2 V
4 3 V
3 4 V
3 4 V
3 1 V
4 -1 V
3 -4 V
3 -4 V
3 -4 V
4 -2 V
3 6 V
3 8 V
3 1 V
4 -8 V
3 -7 V
3 1 V
3 8 V
4 7 V
3 -3 V
3 -9 V
3 -6 V
3 5 V
4 10 V
3 4 V
3 -6 V
3 -11 V
4 -2 V
3 8 V
3 10 V
3 1 V
4 -10 V
3 -10 V
3 2 V
3 11 V
4 9 V
3 -4 V
3 -13 V
3 -7 V
4 6 V
3 14 V
3 6 V
3 -10 V
3 -14 V
4 -3 V
3 12 V
3 14 V
3 0 V
4 -14 V
3 -13 V
3 3 V
3 16 V
4 12 V
3 -7 V
3 -17 V
3 -10 V
4 10 V
3 19 V
3 6 V
3 -13 V
4 -19 V
3 -3 V
3 17 V
3 18 V
3 -1 V
4 -20 V
3 -17 V
3 5 V
3 23 V
4 15 V
3 -10 V
3 -25 V
3 -12 V
4 16 V
3 26 V
3 7 V
3 -20 V
4 -26 V
3 -2 V
3 24 V
3 25 V
4 -3 V
3 -29 V
3 -23 V
3 10 V
3 33 V
4 18 V
3 -17 V
3 -34 V
3 -14 V
4 24 V
3 35 V
3 8 V
3 -30 V
4 -35 V
3 0 V
3 36 V
3 33 V
4 -9 V
3 -41 V
3 -29 V
3 17 V
4 46 V
3 23 V
3 -27 V
3 -48 V
3 -15 V
4 36 V
3 49 V
3 6 V
3 -46 V
4 -47 V
3 5 V
3 54 V
3 43 V
4 -18 V
3 -60 V
3 -36 V
3 30 V
4 65 V
3 27 V
3 -43 V
3 -67 V
4 -16 V
3 57 V
3 66 V
3 1 V
3 -68 V
4 -62 V
3 14 V
3 78 V
3 56 V
4 -32 V
3 -86 V
3 -45 V
3 50 V
4 91 V
3 30 V
3 -68 V
3 -92 V
4 -12 V
3 85 V
3 89 V
3 -8 V
4 -100 V
3 -82 V
3 31 V
3 113 V
3 69 V
4 -55 V
3 -122 V
3 -53 V
3 81 V
4 126 V
3 31 V
3 -105 V
3 -126 V
4 -4 V
3 127 V
3 119 V
3 -25 V
4 -147 V
3 -106 V
3 58 V
3 162 V
4 86 V
3 -92 V
3 -172 V
3 -59 V
3 126 V
4 175 V
3 26 V
3 -159 V
stroke 2292 2677 M
3 -170 V
4 13 V
3 188 V
3 157 V
3 -56 V
4 -213 V
3 -134 V
3 102 V
3 231 V
4 102 V
3 -149 V
3 -240 V
3 -61 V
4 195 V
3 239 V
3 12 V
3 -238 V
4 -227 V
3 44 V
3 276 V
3 203 V
3 -106 V
4 -306 V
3 -165 V
3 170 V
3 325 V
4 116 V
3 -235 V
3 -332 V
3 -54 V
4 297 V
3 324 V
3 -19 V
3 -354 V
4 -298 V
3 99 V
3 401 V
3 257 V
4 222 V
3 167 V
3 97 V
3 17 V
3 -62 V
4 -139 V
3 -201 V
3 -246 V
3 -269 V
4 -269 V
3 -243 V
3 -197 V
3 -132 V
4 -55 V
3 26 V
3 105 V
3 176 V
4 231 V
3 264 V
3 275 V
3 261 V
4 223 V
3 166 V
3 93 V
3 12 V
3 -70 V
4 -147 V
3 -209 V
3 -255 V
3 -276 V
4 -274 V
3 -246 V
3 -197 V
3 -130 V
4 -51 V
3 33 V
3 113 V
3 185 V
4 238 V
3 273 V
3 281 V
3 266 V
4 225 V
3 165 V
3 90 V
3 7 V
3 -78 V
4 -155 V
3 -219 V
3 -262 V
3 -284 V
4 -279 V
3 -250 V
3 -198 V
3 -128 V
4 -47 V
3 39 V
3 121 V
3 193 V
4 248 V
3 281 V
3 288 V
3 270 V
4 228 V
3 165 V
3 88 V
3 1 V
3 -84 V
4 -164 V
3 -228 V
3 -272 V
3 -291 V
4 -286 V
3 -254 V
3 -200 V
3 -127 V
4 -43 V
3 45 V
3 129 V
3 203 V
4 258 V
3 289 V
3 296 V
3 276 V
4 231 V
3 166 V
3 84 V
3 -3 V
3 -92 V
4 -172 V
3 -237 V
3 -281 V
3 -301 V
4 -293 V
3 -259 V
3 -201 V
3 -127 V
4 -39 V
3 50 V
3 138 V
3 212 V
4 267 V
3 299 V
3 304 V
3 282 V
4 235 V
3 167 V
3 83 V
3 -8 V
3 -99 V
4 -180 V
3 -248 V
3 -291 V
3 -310 V
4 -300 V
3 -265 V
3 -204 V
3 -127 V
4 -36 V
3 57 V
3 145 V
3 221 V
4 278 V
3 309 V
3 313 V
3 289 V
4 240 V
3 168 V
3 81 V
3 -12 V
3 -106 V
4 -189 V
3 -257 V
3 -302 V
3 -320 V
4 -309 V
3 -270 V
3 -208 V
3 -127 V
4 -34 V
3 62 V
3 154 V
3 231 V
4 288 V
3 319 V
3 323 V
3 297 V
4 245 V
3 170 V
3 81 V
3 -17 V
4 -112 V
3 -199 V
3 -267 V
3 -313 V
3 -330 V
4 -318 V
3 -278 V
3 -212 V
3 -127 V
4 -32 V
3 68 V
3 162 V
3 241 V
4 299 V
3 330 V
3 333 V
3 305 V
4 251 V
3 173 V
3 80 V
3 -20 V
4 -119 V
3 -208 V
3 -279 V
3 -323 V
3 -341 V
4 -328 V
3 -285 V
3 -217 V
3 -129 V
4 -29 V
3 73 V
3 169 V
3 251 V
4 310 V
3 342 V
3 344 V
3 314 V
4 257 V
3 177 V
3 80 V
3 -23 V
3 -126 V
4 -218 V
3 -289 V
3 -335 V
3 -353 V
4 -338 V
3 -293 V
3 -223 V
3 -131 V
4 -27 V
3 78 V
3 177 V
3 261 V
4 322 V
3 354 V
3 355 V
3 325 V
4 264 V
stroke 3099 3621 M
3 181 V
3 80 V
3 -26 V
4 -133 V
3 -226 V
3 -300 V
3 -349 V
3 -365 V
4 -349 V
3 -302 V
3 -228 V
3 -134 V
4 -27 V
3 83 V
3 185 V
3 272 V
4 334 V
3 367 V
3 367 V
3 335 V
4 272 V
3 186 V
3 82 V
3 -30 V
4 -139 V
3 -235 V
3 -312 V
3 -361 V
3 -378 V
4 -361 V
3 -312 V
3 -235 V
3 -137 V
4 -26 V
3 87 V
3 194 V
3 282 V
4 346 V
3 380 V
3 381 V
3 346 V
4 281 V
3 191 V
3 83 V
3 -32 V
4 -145 V
3 -245 V
3 -324 V
3 -374 V
3 -391 V
4 -374 V
3 -322 V
3 -243 V
3 -140 V
4 -26 V
3 91 V
3 201 V
3 293 V
4 360 V
3 394 V
3 393 V
3 358 V
4 290 V
3 197 V
3 86 V
3 -34 V
4 -151 V
3 -254 V
3 -336 V
3 -388 V
3 -406 V
4 -386 V
3 -334 V
3 -251 V
3 -145 V
4 -26 V
3 95 V
3 209 V
3 304 V
4 373 V
3 408 V
3 408 V
3 370 V
4 301 V
3 204 V
3 88 V
3 -35 V
4 -157 V
3 -264 V
3 -349 V
3 -402 V
3 -420 V
4 -400 V
3 -346 V
3 -260 V
3 -150 V
4 -27 V
3 99 V
3 216 V
3 316 V
4 386 V
3 423 V
3 422 V
3 385 V
4 311 V
3 212 V
3 91 V
3 -36 V
4 -163 V
3 -274 V
3 -360 V
3 -417 V
3 -436 V
4 -415 V
3 -358 V
3 -270 V
3 -156 V
4 -28 V
3 102 V
3 224 V
3 327 V
4 400 V
3 -447 V
3 -370 V
3 -259 V
4 -126 V
3 17 V
3 158 V
3 285 V
4 387 V
3 453 V
3 480 V
3 464 V
4 407 V
3 314 V
3 195 V
3 57 V
3 -85 V
4 -218 V
3 -332 V
3 -416 V
3 -463 V
4 -469 V
3 -433 V
3 -360 V
3 -256 V
4 -127 V
3 11 V
3 148 V
3 271 V
4 370 V
3 435 V
3 463 V
3 449 V
4 396 V
3 307 V
3 193 V
3 61 V
3 -76 V
4 -206 V
3 -317 V
3 -399 V
3 -446 V
4 -453 V
3 -421 V
3 -351 V
3 -250 V
4 -128 V
3 5 V
3 137 V
3 258 V
4 354 V
3 419 V
3 446 V
3 436 V
3 384 V
4 300 V
3 191 V
3 63 V
3 -69 V
4 -194 V
3 -301 V
3 -383 V
3 -430 V
4 -438 V
3 -408 V
3 -342 V
3 -246 V
4 -128 V
3 0 V
3 129 V
3 244 V
4 339 V
3 402 V
3 431 V
3 421 V
4 374 V
3 293 V
3 189 V
3 66 V
3 -62 V
4 -183 V
3 -288 V
3 -368 V
3 -413 V
4 -424 V
3 -395 V
3 -333 V
3 -241 V
4 -128 V
3 -5 V
3 120 V
3 232 V
4 324 V
3 387 V
3 416 V
3 407 V
4 363 V
3 287 V
3 186 V
3 67 V
3 -55 V
4 -173 V
3 -275 V
3 -352 V
3 -398 V
4 -409 V
3 -383 V
3 -324 V
3 -237 V
4 -128 V
3 -8 V
3 111 V
3 221 V
4 310 V
3 372 V
3 401 V
3 395 V
4 352 V
3 280 V
3 182 V
3 70 V
3 -49 V
4 -164 V
3 -262 V
3 -338 V
3 -383 V
4 -395 V
3 -372 V
stroke 3905 2051 M
3 -315 V
3 -231 V
4 -128 V
3 -12 V
3 104 V
3 209 V
4 297 V
3 358 V
3 387 V
3 382 V
4 342 V
3 273 V
3 180 V
3 70 V
3 -44 V
4 -154 V
3 -250 V
3 -325 V
3 -369 V
4 -382 V
3 -360 V
3 -306 V
3 -226 V
4 -127 V
3 -15 V
3 96 V
3 200 V
4 284 V
3 344 V
3 374 V
3 368 V
4 333 V
3 266 V
3 176 V
3 72 V
3 -38 V
4 -146 V
3 -240 V
3 -311 V
3 -357 V
4 -368 V
3 -349 V
3 -298 V
3 -221 V
4 -125 V
3 -18 V
3 90 V
3 190 V
4 273 V
3 331 V
3 360 V
3 356 V
4 323 V
3 259 V
3 173 V
3 73 V
3 -34 V
4 -138 V
3 -228 V
3 -299 V
3 -343 V
4 -356 V
3 -338 V
3 -290 V
3 -217 V
4 -124 V
3 -21 V
3 84 V
3 181 V
4 261 V
3 318 V
3 348 V
3 345 V
4 313 V
3 253 V
3 171 V
3 73 V
4 -29 V
3 -130 V
3 -219 V
3 -288 V
3 -331 V
4 -344 V
3 -328 V
3 -282 V
3 -212 V
4 -123 V
3 -23 V
3 79 V
3 172 V
4 251 V
3 307 V
3 336 V
3 335 V
4 304 V
3 246 V
3 167 V
3 74 V
4 -27 V
3 -124 V
3 -209 V
3 -277 V
3 -320 V
4 -333 V
3 -318 V
3 -274 V
3 -207 V
4 -120 V
3 -25 V
3 74 V
3 165 V
4 241 V
3 295 V
3 324 V
3 324 V
4 295 V
3 240 V
3 163 V
3 74 V
3 -23 V
4 -117 V
3 -201 V
3 -266 V
3 -308 V
4 -322 V
3 -308 V
3 -266 V
3 -202 V
4 -118 V
3 -26 V
3 68 V
3 157 V
4 232 V
3 285 V
3 313 V
3 313 V
4 286 V
3 233 V
3 160 V
3 72 V
4 -20 V
3 -111 V
3 -192 V
3 -256 V
3 -297 V
4 -311 V
3 -298 V
3 -259 V
3 -196 V
4 -117 V
3 -27 V
3 65 V
3 150 V
4 222 V
3 275 V
3 302 V
3 303 V
4 277 V
3 226 V
3 156 V
3 73 V
4 -18 V
3 -106 V
3 -184 V
3 -247 V
3 -286 V
4 -301 V
3 -288 V
3 -251 V
3 -191 V
4 -115 V
3 -27 V
3 61 V
3 143 V
4 214 V
3 264 V
3 292 V
3 293 V
4 268 V
3 220 V
3 153 V
3 71 V
4 -15 V
3 -101 V
3 -177 V
3 -238 V
3 -276 V
4 -291 V
3 -279 V
3 -243 V
3 -186 V
4 -112 V
3 -28 V
3 57 V
3 138 V
4 206 V
3 254 V
3 282 V
3 284 V
4 260 V
3 214 V
3 148 V
3 70 V
4 -13 V
3 -97 V
3 -170 V
3 -229 V
3 -267 V
4 -281 V
3 -270 V
3 -236 V
3 -180 V
4 -110 V
3 -28 V
3 54 V
3 132 V
4 198 V
3 246 V
3 273 V
3 274 V
4 252 V
3 207 V
3 145 V
3 69 V
4 -13 V
3 -92 V
3 -164 V
3 -220 V
3 -258 V
4 -272 V
3 -262 V
3 -229 V
3 -175 V
4 -106 V
3 -29 V
3 52 V
3 127 V
4 191 V
3 238 V
3 263 V
3 265 V
4 245 V
3 201 V
3 140 V
3 68 V
4 -11 V
3 -89 V
3 -158 V
3 -213 V
stroke 4711 3088 M
3 -249 V
4 -263 V
3 -254 V
3 -221 V
3 -171 V
4 -103 V
3 -29 V
3 50 V
3 122 V
4 184 V
3 230 V
3 255 V
3 257 V
4 237 V
3 194 V
3 137 V
3 66 V
4 -10 V
3 -86 V
3 -152 V
3 -206 V
3 -241 V
4 -254 V
3 -246 V
3 -215 V
3 -165 V
4 -101 V
3 -27 V
3 47 V
3 118 V
4 178 V
3 223 V
3 246 V
3 249 V
4 229 V
3 189 V
3 132 V
3 65 V
4 -10 V
3 -83 V
3 -147 V
3 -199 V
4 -233 V
3 -247 V
3 -238 V
3 -208 V
3 -160 V
4 -98 V
3 -27 V
3 46 V
3 114 V
4 173 V
3 215 V
3 239 V
3 241 V
4 222 V
3 183 V
3 128 V
3 62 V
4 -9 V
3 -80 V
3 -142 V
3 -193 V
3 -227 V
4 -238 V
3 -231 V
3 -201 V
3 -155 V
4 -95 V
3 -26 V
3 44 V
3 111 V
4 168 V
3 208 V
3 231 V
3 234 V
4 215 V
3 178 V
3 124 V
3 59 V
4 -9 V
3 -77 V
3 -139 V
3 -187 V
4 -219 V
3 -232 V
3 -223 V
3 -195 V
3 -150 V
4 -92 V
3 -25 V
3 44 V
3 108 V
4 162 V
3 202 V
3 225 V
3 226 V
4 209 V
3 171 V
3 120 V
3 58 V
4 -10 V
3 -75 V
3 -135 V
3 -182 V
4 -212 V
3 -225 V
3 -216 V
3 -189 V
3 -145 V
4 -89 V
3 -23 V
3 42 V
3 105 V
4 159 V
3 196 V
3 218 V
3 219 V
4 202 V
3 167 V
3 116 V
3 55 V
4 -10 V
3 -74 V
3 -132 V
3 -176 V
4 -207 V
3 -218 V
3 -210 V
3 -183 V
3 -140 V
4 -85 V
3 -22 V
3 42 V
3 103 V
4 153 V
3 192 V
3 212 V
3 213 V
4 196 V
3 160 V
3 112 V
3 53 V
4 -11 V
3 -72 V
3 -129 V
3 -172 V
4 -201 V
3 -212 V
3 -203 V
3 -178 V
3 -135 V
4 -82 V
3 -20 V
3 42 V
3 100 V
4 151 V
3 186 V
3 258 V
3 240 V
4 142 V
3 -1 V
3 -141 V
3 -230 V
4 -239 V
3 -167 V
3 -41 V
3 96 V
4 197 V
3 230 V
3 184 V
3 77 V
3 -53 V
4 -162 V
3 -214 V
3 -193 V
3 -106 V
4 13 V
3 126 V
3 193 V
3 194 V
4 129 V
3 22 V
3 -89 V
3 -168 V
4 -189 V
3 -144 V
3 -54 V
3 54 V
4 141 V
3 177 V
3 154 V
3 79 V
3 -21 V
4 -111 V
3 -162 V
3 -157 V
3 -99 V
4 -9 V
3 82 V
3 142 V
3 154 V
4 114 V
3 35 V
3 -53 V
3 -120 V
4 -147 V
3 -122 V
3 -58 V
3 26 V
4 97 V
3 135 V
3 126 V
3 75 V
3 0 V
4 -73 V
3 -121 V
3 -125 V
3 -88 V
4 -22 V
3 50 V
3 103 V
3 120 V
4 97 V
3 41 V
3 -27 V
3 -85 V
4 -112 V
3 -101 V
3 -57 V
3 7 V
4 65 V
3 101 V
3 102 V
3 68 V
4 13 V
3 -47 V
3 -88 V
3 -99 V
3 -76 V
4 -28 V
3 27 V
3 74 V
3 93 V
4 81 V
3 42 V
3 -11 V
3 -58 V
4 -85 V
stroke 5518 2672 M
3 -82 V
3 -52 V
3 -5 V
4 42 V
3 75 V
3 80 V
3 60 V
3 19 V
4 -27 V
3 -63 V
3 -77 V
3 -64 V
4 -31 V
3 13 V
3 51 V
3 71 V
4 66 V
3 40 V
3 0 V
3 -38 V
4 -63 V
3 -66 V
3 -47 V
3 -12 V
4 26 V
3 54 V
3 64 V
3 51 V
4 21 V
3 -14 V
3 -44 V
3 -59 V
3 -53 V
4 -30 V
3 3 V
3 34 V
3 53 V
4 54 V
3 36 V
3 7 V
3 -25 V
4 -46 V
3 -52 V
3 -40 V
3 -15 V
4 14 V
3 39 V
3 48 V
3 43 V
4 23 V
3 -6 V
3 -30 V
3 -45 V
3 -43 V
4 -28 V
3 -3 V
3 22 V
3 40 V
4 42 V
3 32 V
3 10 V
3 -14 V
4 -33 V
3 -41 V
3 -34 V
3 -16 V
4 6 V
3 27 V
3 37 V
3 35 V
4 22 V
3 0 V
3 -20 V
3 -33 V
3 -35 V
4 -25 V
3 -6 V
3 13 V
3 28 V
4 34 V
3 27 V
3 12 V
3 -7 V
4 -23 V
3 -31 V
3 -29 V
3 -16 V
4 1 V
3 18 V
3 28 V
3 29 V
4 19 V
3 4 V
3 -12 V
3 -24 V
3 -28 V
4 -22 V
3 -9 V
3 7 V
3 21 V
4 26 V
3 23 V
3 12 V
3 -2 V
4 -16 V
3 -24 V
3 -23 V
3 -15 V
4 -3 V
3 12 V
3 21 V
3 23 V
4 17 V
3 6 V
3 -7 V
3 -18 V
3 -21 V
4 -19 V
3 -9 V
3 3 V
3 14 V
4 20 V
3 19 V
3 12 V
3 0 V
4 -10 V
3 -18 V
3 -19 V
3 -13 V
4 -4 V
3 6 V
3 16 V
3 18 V
4 15 V
3 7 V
3 -4 V
3 -12 V
3 -17 V
4 -16 V
3 -9 V
3 0 V
3 10 V
4 15 V
3 16 V
3 11 V
3 2 V
4 -6 V
3 -13 V
3 -16 V
3 -12 V
4 -5 V
3 4 V
3 11 V
3 14 V
4 13 V
3 7 V
3 -1 V
3 -8 V
3 -13 V
4 -14 V
3 -8 V
3 -2 V
3 6 V
4 12 V
3 12 V
3 10 V
3 4 V
4 -4 V
3 -9 V
3 -12 V
3 -11 V
4 -6 V
3 2 V
3 7 V
3 12 V
4 11 V
3 7 V
3 0 V
3 -5 V
3 -10 V
4 -11 V
3 -8 V
3 -3 V
3 3 V
4 9 V
3 11 V
3 9 V
3 4 V
4 -2 V
3 -6 V
3 -10 V
3 -10 V
4 -5 V
3 -1 V
3 5 V
3 9 V
4 10 V
3 7 V
3 2 V
3 -4 V
3 -7 V
4 -10 V
3 -7 V
3 -4 V
3 2 V
4 6 V
3 9 V
3 8 V
3 5 V
4 0 V
3 -5 V
3 -8 V
3 -8 V
4 -6 V
3 -2 V
3 3 V
3 7 V
4 9 V
3 6 V
3 4 V
3 -2 V
4 -6 V
3 -8 V
3 -7 V
3 -5 V
3 0 V
4 5 V
3 7 V
3 8 V
3 5 V
4 2 V
3 -3 V
3 -7 V
3 -8 V
4 -6 V
3 -3 V
3 2 V
3 6 V
4 7 V
3 7 V
3 4 V
3 0 V
% End plot #1
% Begin plot #2
stroke
4.000 UL
LTb
1.00 0.00 0.00 C
LCb setrgbcolor
5652 4626 M
[ [(Helvetica) 140.0 0.0 true true 0 (1000x Sigma[S/m])]
] -46.7 MRshow
/Helvetica findfont 140 scalefont setfont
4.000 UL
LTb
1.00 0.00 0.00 C
5736 4626 M
399 0 V
686 2759 M
3 0 V
3 0 V
4 0 V
3 0 V
3 0 V
3 0 V
4 0 V
3 0 V
3 0 V
3 0 V
4 0 V
3 0 V
3 0 V
3 0 V
4 0 V
3 0 V
3 0 V
3 0 V
4 0 V
3 0 V
3 0 V
3 0 V
3 0 V
4 0 V
3 0 V
3 0 V
3 0 V
4 0 V
3 0 V
3 0 V
3 0 V
4 0 V
3 0 V
3 0 V
3 0 V
4 0 V
3 0 V
3 0 V
3 0 V
4 0 V
3 0 V
3 0 V
3 0 V
3 0 V
4 0 V
3 0 V
3 0 V
3 0 V
4 0 V
3 0 V
3 0 V
3 0 V
4 0 V
3 0 V
3 0 V
3 0 V
4 0 V
3 0 V
3 0 V
3 0 V
4 0 V
3 0 V
3 0 V
3 0 V
3 0 V
4 0 V
3 0 V
3 0 V
3 0 V
4 0 V
3 0 V
3 0 V
3 0 V
4 0 V
3 0 V
3 0 V
3 0 V
4 0 V
3 0 V
3 0 V
3 0 V
4 0 V
3 0 V
3 0 V
3 0 V
3 0 V
4 0 V
3 0 V
3 0 V
3 0 V
4 0 V
3 0 V
3 0 V
3 0 V
4 0 V
3 0 V
3 0 V
3 0 V
4 0 V
3 0 V
3 0 V
3 0 V
4 0 V
3 0 V
3 0 V
3 0 V
4 0 V
3 0 V
3 0 V
3 0 V
3 0 V
4 0 V
3 0 V
3 0 V
3 0 V
4 0 V
3 0 V
3 0 V
3 0 V
4 0 V
3 0 V
3 0 V
3 0 V
4 0 V
3 0 V
3 0 V
3 0 V
4 0 V
3 0 V
3 0 V
3 0 V
3 0 V
4 0 V
3 0 V
3 0 V
3 0 V
4 0 V
3 0 V
3 0 V
3 0 V
4 0 V
3 0 V
3 0 V
3 0 V
4 0 V
3 0 V
3 0 V
3 0 V
4 0 V
3 0 V
3 0 V
3 0 V
3 0 V
4 0 V
3 0 V
3 0 V
3 0 V
4 0 V
3 0 V
3 0 V
3 0 V
4 0 V
3 0 V
3 0 V
3 0 V
4 0 V
3 0 V
3 0 V
3 0 V
4 0 V
3 0 V
3 0 V
3 0 V
3 0 V
4 0 V
3 0 V
3 0 V
3 0 V
4 0 V
3 0 V
3 0 V
3 0 V
4 0 V
3 0 V
3 0 V
3 0 V
4 0 V
3 0 V
3 0 V
3 0 V
4 0 V
3 0 V
3 0 V
3 0 V
3 0 V
4 0 V
3 0 V
3 0 V
3 0 V
4 0 V
3 0 V
3 0 V
3 0 V
4 0 V
3 0 V
3 0 V
3 0 V
4 0 V
3 0 V
3 0 V
3 0 V
4 0 V
3 0 V
3 0 V
3 0 V
3 0 V
4 0 V
3 0 V
3 0 V
3 0 V
4 0 V
3 0 V
3 0 V
3 0 V
4 0 V
3 0 V
3 0 V
3 0 V
4 0 V
3 0 V
3 0 V
3 0 V
4 0 V
3 0 V
3 0 V
3 0 V
3 0 V
4 0 V
3 0 V
3 0 V
3 0 V
4 0 V
3 0 V
3 0 V
3 0 V
4 0 V
3 0 V
stroke 1486 2759 M
3 0 V
3 0 V
4 0 V
3 0 V
3 0 V
3 0 V
4 0 V
3 0 V
3 0 V
3 0 V
3 0 V
4 0 V
3 0 V
3 0 V
3 0 V
4 0 V
3 0 V
3 0 V
3 0 V
4 0 V
3 0 V
3 0 V
3 0 V
4 0 V
3 0 V
3 0 V
3 0 V
4 0 V
3 0 V
3 0 V
3 0 V
3 0 V
4 0 V
3 0 V
3 0 V
3 0 V
4 0 V
3 0 V
3 0 V
3 0 V
4 0 V
3 0 V
3 0 V
3 0 V
4 0 V
3 0 V
3 0 V
3 0 V
4 0 V
3 0 V
3 0 V
3 0 V
4 0 V
3 0 V
3 0 V
3 0 V
3 0 V
4 0 V
3 0 V
3 0 V
3 0 V
4 0 V
3 0 V
3 0 V
3 0 V
4 0 V
3 0 V
3 0 V
3 0 V
4 0 V
3 0 V
3 0 V
3 0 V
4 0 V
3 0 V
3 0 V
3 0 V
3 0 V
4 0 V
3 0 V
3 0 V
3 0 V
4 0 V
3 0 V
3 0 V
3 0 V
4 146 V
3 0 V
3 0 V
3 0 V
4 0 V
3 0 V
3 0 V
3 0 V
4 0 V
3 0 V
3 0 V
3 0 V
3 0 V
4 0 V
3 0 V
3 0 V
3 0 V
4 0 V
3 0 V
3 0 V
3 0 V
4 0 V
3 0 V
3 0 V
3 0 V
4 0 V
3 0 V
3 0 V
3 0 V
4 0 V
3 0 V
3 0 V
3 0 V
3 0 V
4 0 V
3 0 V
3 0 V
3 0 V
4 0 V
3 0 V
3 0 V
3 0 V
4 0 V
3 0 V
3 0 V
3 0 V
4 0 V
3 0 V
3 0 V
3 0 V
4 0 V
3 0 V
3 0 V
3 0 V
3 0 V
4 0 V
3 0 V
3 0 V
3 0 V
4 0 V
3 0 V
3 0 V
3 0 V
4 0 V
3 0 V
3 0 V
3 0 V
4 0 V
3 0 V
3 0 V
3 0 V
4 0 V
3 0 V
3 0 V
3 0 V
3 0 V
4 0 V
3 0 V
3 0 V
3 0 V
4 0 V
3 0 V
3 0 V
3 0 V
4 0 V
3 0 V
3 0 V
3 0 V
4 0 V
3 0 V
3 0 V
3 0 V
4 0 V
3 0 V
3 0 V
3 0 V
3 0 V
4 0 V
3 0 V
3 0 V
3 0 V
4 0 V
3 0 V
3 0 V
3 0 V
4 0 V
3 0 V
3 0 V
3 0 V
4 0 V
3 0 V
3 0 V
3 0 V
4 0 V
3 0 V
3 0 V
3 0 V
3 0 V
4 0 V
3 0 V
3 0 V
3 0 V
4 0 V
3 0 V
3 0 V
3 0 V
4 0 V
3 0 V
3 0 V
3 0 V
4 0 V
3 0 V
3 0 V
3 0 V
4 0 V
3 0 V
3 0 V
3 0 V
3 0 V
4 0 V
3 0 V
3 0 V
3 0 V
4 0 V
3 0 V
3 0 V
3 0 V
4 0 V
3 0 V
3 0 V
3 0 V
4 0 V
3 0 V
3 0 V
3 0 V
4 0 V
3 0 V
3 0 V
3 0 V
3 0 V
4 0 V
3 0 V
3 0 V
stroke 2292 2905 M
3 0 V
4 0 V
3 0 V
3 0 V
3 0 V
4 0 V
3 0 V
3 0 V
3 0 V
4 0 V
3 0 V
3 0 V
3 0 V
4 0 V
3 0 V
3 0 V
3 0 V
4 0 V
3 0 V
3 0 V
3 0 V
3 0 V
4 0 V
3 0 V
3 0 V
3 0 V
4 0 V
3 0 V
3 0 V
3 0 V
4 0 V
3 0 V
3 0 V
3 0 V
4 0 V
3 0 V
3 0 V
3 -225 V
4 0 V
3 0 V
3 0 V
3 0 V
3 0 V
4 0 V
3 0 V
3 0 V
3 0 V
4 0 V
3 0 V
3 0 V
3 0 V
4 0 V
3 0 V
3 0 V
3 0 V
4 0 V
3 0 V
3 0 V
3 0 V
4 0 V
3 0 V
3 0 V
3 0 V
3 0 V
4 0 V
3 0 V
3 0 V
3 0 V
4 0 V
3 0 V
3 0 V
3 0 V
4 0 V
3 0 V
3 0 V
3 0 V
4 0 V
3 0 V
3 0 V
3 0 V
4 0 V
3 0 V
3 0 V
3 0 V
3 0 V
4 0 V
3 0 V
3 0 V
3 0 V
4 0 V
3 0 V
3 0 V
3 0 V
4 0 V
3 0 V
3 0 V
3 0 V
4 0 V
3 0 V
3 0 V
3 0 V
4 0 V
3 0 V
3 0 V
3 0 V
3 0 V
4 0 V
3 0 V
3 0 V
3 0 V
4 0 V
3 0 V
3 0 V
3 0 V
4 0 V
3 0 V
3 0 V
3 0 V
4 0 V
3 0 V
3 0 V
3 0 V
4 0 V
3 0 V
3 0 V
3 0 V
3 0 V
4 0 V
3 0 V
3 0 V
3 0 V
4 0 V
3 0 V
3 0 V
3 0 V
4 0 V
3 0 V
3 0 V
3 0 V
4 0 V
3 0 V
3 0 V
3 0 V
4 0 V
3 0 V
3 0 V
3 0 V
3 0 V
4 0 V
3 0 V
3 0 V
3 0 V
4 0 V
3 0 V
3 0 V
3 0 V
4 0 V
3 0 V
3 0 V
3 0 V
4 0 V
3 0 V
3 0 V
3 0 V
4 0 V
3 0 V
3 0 V
3 0 V
3 0 V
4 0 V
3 0 V
3 0 V
3 0 V
4 0 V
3 0 V
3 0 V
3 0 V
4 0 V
3 0 V
3 0 V
3 0 V
4 0 V
3 0 V
3 0 V
3 0 V
4 0 V
3 0 V
3 0 V
3 0 V
4 0 V
3 0 V
3 0 V
3 0 V
3 0 V
4 0 V
3 0 V
3 0 V
3 0 V
4 0 V
3 0 V
3 0 V
3 0 V
4 0 V
3 0 V
3 0 V
3 0 V
4 0 V
3 0 V
3 0 V
3 0 V
4 0 V
3 0 V
3 0 V
3 0 V
3 0 V
4 0 V
3 0 V
3 0 V
3 0 V
4 0 V
3 0 V
3 0 V
3 0 V
4 0 V
3 0 V
3 0 V
3 0 V
4 0 V
3 0 V
3 0 V
3 0 V
3 0 V
4 0 V
3 0 V
3 0 V
3 0 V
4 0 V
3 0 V
3 0 V
3 0 V
4 0 V
3 0 V
3 0 V
3 0 V
4 0 V
3 0 V
3 0 V
3 0 V
4 0 V
stroke 3099 2680 M
3 0 V
3 0 V
3 0 V
4 0 V
3 0 V
3 0 V
3 0 V
3 0 V
4 0 V
3 0 V
3 0 V
3 0 V
4 0 V
3 0 V
3 0 V
3 0 V
4 0 V
3 0 V
3 0 V
3 0 V
4 0 V
3 0 V
3 0 V
3 0 V
4 0 V
3 0 V
3 0 V
3 0 V
3 0 V
4 0 V
3 0 V
3 0 V
3 0 V
4 0 V
3 0 V
3 0 V
3 0 V
4 0 V
3 0 V
3 0 V
3 0 V
4 0 V
3 0 V
3 0 V
3 0 V
4 0 V
3 0 V
3 0 V
3 0 V
3 0 V
4 0 V
3 0 V
3 0 V
3 0 V
4 0 V
3 0 V
3 0 V
3 0 V
4 0 V
3 0 V
3 0 V
3 0 V
4 0 V
3 0 V
3 0 V
3 0 V
4 0 V
3 0 V
3 0 V
3 0 V
3 0 V
4 0 V
3 0 V
3 0 V
3 0 V
4 0 V
3 0 V
3 0 V
3 0 V
4 0 V
3 0 V
3 0 V
3 0 V
4 0 V
3 0 V
3 0 V
3 0 V
4 0 V
3 0 V
3 0 V
3 0 V
3 0 V
4 0 V
3 0 V
3 0 V
3 0 V
4 0 V
3 0 V
3 0 V
3 0 V
4 0 V
3 0 V
3 0 V
3 0 V
4 0 V
3 0 V
3 0 V
3 0 V
4 0 V
3 0 V
3 0 V
3 0 V
3 0 V
4 0 V
3 0 V
3 0 V
3 0 V
4 0 V
3 0 V
3 0 V
3 0 V
4 0 V
3 0 V
3 0 V
3 0 V
4 0 V
3 0 V
3 0 V
3 0 V
4 0 V
3 0 V
3 0 V
3 0 V
4 0 V
3 0 V
3 0 V
3 0 V
3 0 V
4 0 V
3 0 V
3 0 V
3 0 V
4 0 V
3 0 V
3 0 V
3 0 V
4 0 V
3 0 V
3 0 V
3 0 V
4 0 V
3 0 V
3 0 V
3 0 V
4 0 V
3 0 V
3 0 V
3 0 V
3 0 V
4 0 V
3 0 V
3 0 V
3 0 V
4 0 V
3 0 V
3 0 V
3 0 V
4 0 V
3 0 V
3 0 V
3 0 V
4 0 V
3 0 V
3 0 V
3 0 V
3 0 V
4 0 V
3 0 V
3 0 V
3 0 V
4 0 V
3 0 V
3 0 V
3 0 V
4 0 V
3 0 V
3 0 V
3 0 V
4 0 V
3 0 V
3 0 V
3 0 V
4 0 V
3 0 V
3 0 V
3 0 V
4 0 V
3 0 V
3 0 V
3 0 V
3 0 V
4 0 V
3 0 V
3 0 V
3 0 V
4 0 V
3 0 V
3 0 V
3 0 V
4 0 V
3 0 V
3 0 V
3 0 V
4 0 V
3 0 V
3 0 V
3 0 V
4 0 V
3 0 V
3 0 V
3 0 V
3 0 V
4 0 V
3 0 V
3 0 V
3 0 V
4 0 V
3 0 V
3 0 V
3 0 V
4 0 V
3 0 V
3 0 V
3 0 V
4 0 V
3 0 V
3 0 V
3 0 V
4 0 V
3 0 V
3 0 V
3 0 V
3 0 V
4 0 V
3 0 V
3 0 V
3 0 V
4 0 V
3 0 V
stroke 3905 2680 M
3 0 V
3 0 V
4 0 V
3 0 V
3 0 V
3 0 V
4 0 V
3 0 V
3 0 V
3 0 V
4 0 V
3 0 V
3 0 V
3 0 V
3 0 V
4 0 V
3 0 V
3 0 V
3 0 V
4 0 V
3 0 V
3 0 V
3 0 V
4 0 V
3 0 V
3 0 V
3 0 V
4 0 V
3 0 V
3 0 V
3 0 V
4 0 V
3 0 V
3 0 V
3 0 V
3 0 V
4 0 V
3 0 V
3 0 V
3 0 V
4 0 V
3 0 V
3 0 V
3 0 V
4 0 V
3 0 V
3 0 V
3 0 V
4 0 V
3 0 V
3 0 V
3 0 V
4 0 V
3 0 V
3 0 V
3 0 V
3 0 V
4 0 V
3 0 V
3 0 V
3 0 V
4 0 V
3 0 V
3 0 V
3 0 V
4 0 V
3 0 V
3 0 V
3 0 V
4 0 V
3 0 V
3 0 V
3 0 V
4 0 V
3 0 V
3 0 V
3 0 V
4 0 V
3 0 V
3 0 V
3 0 V
3 0 V
4 0 V
3 0 V
3 0 V
3 0 V
4 0 V
3 0 V
3 0 V
3 0 V
4 0 V
3 0 V
3 0 V
3 0 V
4 0 V
3 0 V
3 0 V
3 0 V
4 0 V
3 0 V
3 0 V
3 0 V
3 0 V
4 0 V
3 0 V
3 0 V
3 0 V
4 0 V
3 0 V
3 0 V
3 0 V
4 0 V
3 0 V
3 0 V
3 0 V
4 0 V
3 0 V
3 0 V
3 0 V
3 0 V
4 0 V
3 0 V
3 0 V
3 0 V
4 0 V
3 0 V
3 0 V
3 0 V
4 0 V
3 0 V
3 0 V
3 0 V
4 0 V
3 0 V
3 0 V
3 0 V
4 0 V
3 0 V
3 0 V
3 0 V
4 0 V
3 0 V
3 0 V
3 0 V
3 0 V
4 0 V
3 0 V
3 0 V
3 0 V
4 0 V
3 0 V
3 0 V
3 0 V
4 0 V
3 0 V
3 0 V
3 0 V
4 0 V
3 0 V
3 0 V
3 0 V
4 0 V
3 0 V
3 0 V
3 0 V
3 0 V
4 0 V
3 0 V
3 0 V
3 0 V
4 0 V
3 0 V
3 0 V
3 0 V
4 0 V
3 0 V
3 0 V
3 0 V
4 0 V
3 0 V
3 0 V
3 0 V
4 0 V
3 0 V
3 0 V
3 0 V
3 0 V
4 0 V
3 0 V
3 0 V
3 0 V
4 0 V
3 0 V
3 0 V
3 0 V
4 0 V
3 0 V
3 0 V
3 0 V
4 0 V
3 0 V
3 0 V
3 0 V
4 0 V
3 0 V
3 0 V
3 0 V
3 0 V
4 0 V
3 0 V
3 0 V
3 0 V
4 0 V
3 0 V
3 0 V
3 0 V
4 0 V
3 0 V
3 0 V
3 0 V
4 0 V
3 0 V
3 0 V
3 0 V
4 0 V
3 0 V
3 0 V
3 0 V
3 0 V
4 0 V
3 0 V
3 0 V
3 0 V
4 0 V
3 0 V
3 0 V
3 0 V
4 0 V
3 0 V
3 0 V
3 0 V
4 0 V
3 0 V
3 0 V
3 0 V
4 0 V
3 0 V
3 0 V
3 0 V
stroke 4711 2680 M
3 0 V
4 0 V
3 0 V
3 0 V
3 0 V
4 0 V
3 0 V
3 0 V
3 0 V
4 0 V
3 0 V
3 0 V
3 0 V
4 0 V
3 0 V
3 0 V
3 0 V
4 0 V
3 0 V
3 0 V
3 0 V
3 0 V
4 0 V
3 0 V
3 0 V
3 0 V
4 0 V
3 0 V
3 0 V
3 0 V
4 0 V
3 0 V
3 0 V
3 0 V
4 0 V
3 0 V
3 0 V
3 0 V
4 0 V
3 0 V
3 0 V
3 0 V
4 0 V
3 0 V
3 0 V
3 0 V
3 0 V
4 0 V
3 0 V
3 0 V
3 0 V
4 0 V
3 0 V
3 0 V
3 0 V
4 0 V
3 0 V
3 0 V
3 0 V
4 0 V
3 0 V
3 0 V
3 0 V
3 0 V
4 0 V
3 0 V
3 0 V
3 0 V
4 0 V
3 0 V
3 0 V
3 0 V
4 0 V
3 0 V
3 0 V
3 0 V
4 0 V
3 0 V
3 0 V
3 0 V
4 0 V
3 0 V
3 0 V
3 0 V
4 0 V
3 0 V
3 0 V
3 0 V
3 0 V
4 0 V
3 0 V
3 0 V
3 0 V
4 0 V
3 0 V
3 0 V
3 0 V
4 0 V
3 0 V
3 0 V
3 0 V
4 0 V
3 0 V
3 0 V
3 0 V
4 0 V
3 0 V
3 0 V
3 0 V
3 0 V
4 0 V
3 0 V
3 0 V
3 0 V
4 0 V
3 0 V
3 0 V
3 0 V
4 0 V
3 0 V
3 0 V
3 0 V
4 0 V
3 0 V
3 0 V
3 0 V
4 0 V
3 0 V
3 0 V
3 0 V
3 0 V
4 0 V
3 0 V
3 0 V
3 0 V
4 0 V
3 0 V
3 0 V
3 0 V
4 0 V
3 0 V
3 0 V
3 0 V
4 0 V
3 0 V
3 0 V
3 0 V
4 0 V
3 0 V
3 0 V
3 0 V
3 0 V
4 0 V
3 0 V
3 0 V
3 0 V
4 0 V
3 79 V
3 0 V
3 0 V
4 0 V
3 0 V
3 0 V
3 0 V
4 0 V
3 0 V
3 0 V
3 0 V
4 0 V
3 0 V
3 0 V
3 0 V
3 0 V
4 0 V
3 0 V
3 0 V
3 0 V
4 0 V
3 0 V
3 0 V
3 0 V
4 0 V
3 0 V
3 0 V
3 0 V
4 0 V
3 0 V
3 0 V
3 0 V
4 0 V
3 0 V
3 0 V
3 0 V
3 0 V
4 0 V
3 0 V
3 0 V
3 0 V
4 0 V
3 0 V
3 0 V
3 0 V
4 0 V
3 0 V
3 0 V
3 0 V
4 0 V
3 0 V
3 0 V
3 0 V
4 0 V
3 0 V
3 0 V
3 0 V
3 0 V
4 0 V
3 0 V
3 0 V
3 0 V
4 0 V
3 0 V
3 0 V
3 0 V
4 0 V
3 0 V
3 0 V
3 0 V
4 0 V
3 0 V
3 0 V
3 0 V
4 0 V
3 0 V
3 0 V
3 0 V
4 0 V
3 0 V
3 0 V
3 0 V
3 0 V
4 0 V
3 0 V
3 0 V
3 0 V
4 0 V
3 0 V
3 0 V
3 0 V
4 0 V
stroke 5518 2759 M
3 0 V
3 0 V
3 0 V
4 0 V
3 0 V
3 0 V
3 0 V
3 0 V
4 0 V
3 0 V
3 0 V
3 0 V
4 0 V
3 0 V
3 0 V
3 0 V
4 0 V
3 0 V
3 0 V
3 0 V
4 0 V
3 0 V
3 0 V
3 0 V
4 0 V
3 0 V
3 0 V
3 0 V
4 0 V
3 0 V
3 0 V
3 0 V
3 0 V
4 0 V
3 0 V
3 0 V
3 0 V
4 0 V
3 0 V
3 0 V
3 0 V
4 0 V
3 0 V
3 0 V
3 0 V
4 0 V
3 0 V
3 0 V
3 0 V
4 0 V
3 0 V
3 0 V
3 0 V
3 0 V
4 0 V
3 0 V
3 0 V
3 0 V
4 0 V
3 0 V
3 0 V
3 0 V
4 0 V
3 0 V
3 0 V
3 0 V
4 0 V
3 0 V
3 0 V
3 0 V
4 0 V
3 0 V
3 0 V
3 0 V
3 0 V
4 0 V
3 0 V
3 0 V
3 0 V
4 0 V
3 0 V
3 0 V
3 0 V
4 0 V
3 0 V
3 0 V
3 0 V
4 0 V
3 0 V
3 0 V
3 0 V
4 0 V
3 0 V
3 0 V
3 0 V
3 0 V
4 0 V
3 0 V
3 0 V
3 0 V
4 0 V
3 0 V
3 0 V
3 0 V
4 0 V
3 0 V
3 0 V
3 0 V
4 0 V
3 0 V
3 0 V
3 0 V
4 0 V
3 0 V
3 0 V
3 0 V
3 0 V
4 0 V
3 0 V
3 0 V
3 0 V
4 0 V
3 0 V
3 0 V
3 0 V
4 0 V
3 0 V
3 0 V
3 0 V
4 0 V
3 0 V
3 0 V
3 0 V
4 0 V
3 0 V
3 0 V
3 0 V
3 0 V
4 0 V
3 0 V
3 0 V
3 0 V
4 0 V
3 0 V
3 0 V
3 0 V
4 0 V
3 0 V
3 0 V
3 0 V
4 0 V
3 0 V
3 0 V
3 0 V
4 0 V
3 0 V
3 0 V
3 0 V
3 0 V
4 0 V
3 0 V
3 0 V
3 0 V
4 0 V
3 0 V
3 0 V
3 0 V
4 0 V
3 0 V
3 0 V
3 0 V
4 0 V
3 0 V
3 0 V
3 0 V
4 0 V
3 0 V
3 0 V
3 0 V
3 0 V
4 0 V
3 0 V
3 0 V
3 0 V
4 0 V
3 0 V
3 0 V
3 0 V
4 0 V
3 0 V
3 0 V
3 0 V
4 0 V
3 0 V
3 0 V
3 0 V
4 0 V
3 0 V
3 0 V
3 0 V
3 0 V
4 0 V
3 0 V
3 0 V
3 0 V
4 0 V
3 0 V
3 0 V
3 0 V
4 0 V
3 0 V
3 0 V
3 0 V
4 0 V
3 0 V
3 0 V
3 0 V
4 0 V
3 0 V
3 0 V
3 0 V
4 0 V
3 0 V
3 0 V
3 0 V
3 0 V
4 0 V
3 0 V
3 0 V
3 0 V
4 0 V
3 0 V
3 0 V
3 0 V
4 0 V
3 0 V
3 0 V
3 0 V
4 0 V
3 0 V
3 0 V
3 0 V
% End plot #2
% Begin plot #3
stroke
5.000 UL
LTb
0.34 0.71 0.91 C
LCb setrgbcolor
5652 4486 M
[ [(Helvetica) 140.0 0.0 true true 0 (epsilon)]
[(Helvetica) 112.0 -42.0 true true 0 (r)]
] -32.7 MRshow
/Helvetica findfont 140 scalefont setfont
5.000 UL
LTb
0.34 0.71 0.91 C
5736 4486 M
399 0 V
686 2770 M
3 0 V
3 0 V
4 0 V
3 0 V
3 0 V
3 0 V
4 0 V
3 0 V
3 0 V
3 0 V
4 0 V
3 0 V
3 0 V
3 0 V
4 0 V
3 0 V
3 0 V
3 0 V
4 0 V
3 0 V
3 0 V
3 0 V
3 0 V
4 0 V
3 0 V
3 0 V
3 0 V
4 0 V
3 0 V
3 0 V
3 0 V
4 0 V
3 0 V
3 0 V
3 0 V
4 0 V
3 0 V
3 0 V
3 0 V
4 0 V
3 0 V
3 0 V
3 0 V
3 0 V
4 0 V
3 0 V
3 0 V
3 0 V
4 0 V
3 0 V
3 0 V
3 0 V
4 0 V
3 0 V
3 0 V
3 0 V
4 0 V
3 0 V
3 0 V
3 0 V
4 0 V
3 0 V
3 0 V
3 0 V
3 0 V
4 0 V
3 0 V
3 0 V
3 0 V
4 0 V
3 0 V
3 0 V
3 0 V
4 0 V
3 0 V
3 0 V
3 0 V
4 0 V
3 0 V
3 0 V
3 0 V
4 0 V
3 0 V
3 0 V
3 0 V
3 0 V
4 0 V
3 0 V
3 0 V
3 0 V
4 0 V
3 0 V
3 0 V
3 0 V
4 0 V
3 0 V
3 0 V
3 0 V
4 0 V
3 0 V
3 0 V
3 0 V
4 0 V
3 0 V
3 0 V
3 0 V
4 0 V
3 0 V
3 0 V
3 0 V
3 0 V
4 0 V
3 0 V
3 0 V
3 0 V
4 0 V
3 0 V
3 0 V
3 0 V
4 0 V
3 0 V
3 0 V
3 0 V
4 0 V
3 0 V
3 0 V
3 0 V
4 0 V
3 0 V
3 0 V
3 0 V
3 0 V
4 0 V
3 0 V
3 0 V
3 0 V
4 0 V
3 0 V
3 0 V
3 0 V
4 0 V
3 0 V
3 0 V
3 0 V
4 0 V
3 0 V
3 0 V
3 0 V
4 0 V
3 0 V
3 0 V
3 0 V
3 0 V
4 0 V
3 0 V
3 0 V
3 0 V
4 0 V
3 0 V
3 0 V
3 0 V
4 0 V
3 0 V
3 0 V
3 0 V
4 0 V
3 0 V
3 0 V
3 0 V
4 0 V
3 0 V
3 0 V
3 0 V
3 0 V
4 0 V
3 0 V
3 0 V
3 0 V
4 0 V
3 0 V
3 0 V
3 0 V
4 0 V
3 0 V
3 0 V
3 0 V
4 0 V
3 0 V
3 0 V
3 0 V
4 0 V
3 0 V
3 0 V
3 0 V
3 0 V
4 0 V
3 0 V
3 0 V
3 0 V
4 0 V
3 0 V
3 0 V
3 0 V
4 0 V
3 0 V
3 0 V
3 0 V
4 0 V
3 0 V
3 0 V
3 0 V
4 0 V
3 0 V
3 0 V
3 0 V
3 0 V
4 0 V
3 0 V
3 0 V
3 0 V
4 0 V
3 0 V
3 0 V
3 0 V
4 0 V
3 0 V
3 0 V
3 0 V
4 0 V
3 0 V
3 0 V
3 0 V
4 0 V
3 0 V
3 0 V
3 0 V
3 0 V
4 0 V
3 0 V
3 0 V
3 0 V
4 0 V
3 0 V
3 0 V
3 0 V
4 0 V
3 0 V
stroke 1486 2770 M
3 0 V
3 0 V
4 0 V
3 0 V
3 0 V
3 0 V
4 0 V
3 0 V
3 0 V
3 0 V
3 0 V
4 0 V
3 0 V
3 0 V
3 0 V
4 0 V
3 0 V
3 0 V
3 0 V
4 0 V
3 0 V
3 0 V
3 0 V
4 0 V
3 0 V
3 0 V
3 0 V
4 0 V
3 0 V
3 0 V
3 0 V
3 0 V
4 0 V
3 0 V
3 0 V
3 0 V
4 0 V
3 0 V
3 0 V
3 0 V
4 0 V
3 0 V
3 0 V
3 0 V
4 0 V
3 0 V
3 0 V
3 0 V
4 0 V
3 0 V
3 0 V
3 0 V
4 0 V
3 0 V
3 0 V
3 0 V
3 0 V
4 0 V
3 0 V
3 0 V
3 0 V
4 0 V
3 0 V
3 0 V
3 0 V
4 0 V
3 0 V
3 0 V
3 0 V
4 0 V
3 0 V
3 0 V
3 0 V
4 0 V
3 0 V
3 0 V
3 0 V
3 0 V
4 0 V
3 0 V
3 0 V
3 0 V
4 0 V
3 0 V
3 0 V
3 0 V
4 219 V
3 0 V
3 0 V
3 0 V
4 0 V
3 0 V
3 0 V
3 0 V
4 0 V
3 0 V
3 0 V
3 0 V
3 0 V
4 0 V
3 0 V
3 0 V
3 0 V
4 0 V
3 0 V
3 0 V
3 0 V
4 0 V
3 0 V
3 0 V
3 0 V
4 0 V
3 0 V
3 0 V
3 0 V
4 0 V
3 0 V
3 0 V
3 0 V
3 0 V
4 0 V
3 0 V
3 0 V
3 0 V
4 0 V
3 0 V
3 0 V
3 0 V
4 0 V
3 0 V
3 0 V
3 0 V
4 0 V
3 0 V
3 0 V
3 0 V
4 0 V
3 0 V
3 0 V
3 0 V
3 0 V
4 0 V
3 0 V
3 0 V
3 0 V
4 0 V
3 0 V
3 0 V
3 0 V
4 0 V
3 0 V
3 0 V
3 0 V
4 0 V
3 0 V
3 0 V
3 0 V
4 0 V
3 0 V
3 0 V
3 0 V
3 0 V
4 0 V
3 0 V
3 0 V
3 0 V
4 0 V
3 0 V
3 0 V
3 0 V
4 0 V
3 0 V
3 0 V
3 0 V
4 0 V
3 0 V
3 0 V
3 0 V
4 0 V
3 0 V
3 0 V
3 0 V
3 0 V
4 0 V
3 0 V
3 0 V
3 0 V
4 0 V
3 0 V
3 0 V
3 0 V
4 0 V
3 0 V
3 0 V
3 0 V
4 0 V
3 0 V
3 0 V
3 0 V
4 0 V
3 0 V
3 0 V
3 0 V
3 0 V
4 0 V
3 0 V
3 0 V
3 0 V
4 0 V
3 0 V
3 0 V
3 0 V
4 0 V
3 0 V
3 0 V
3 0 V
4 0 V
3 0 V
3 0 V
3 0 V
4 0 V
3 0 V
3 0 V
3 0 V
3 0 V
4 0 V
3 0 V
3 0 V
3 0 V
4 0 V
3 0 V
3 0 V
3 0 V
4 0 V
3 0 V
3 0 V
3 0 V
4 0 V
3 0 V
3 0 V
3 0 V
4 0 V
3 0 V
3 0 V
3 0 V
3 0 V
4 0 V
3 0 V
3 0 V
stroke 2292 2989 M
3 0 V
4 0 V
3 0 V
3 0 V
3 0 V
4 0 V
3 0 V
3 0 V
3 0 V
4 0 V
3 0 V
3 0 V
3 0 V
4 0 V
3 0 V
3 0 V
3 0 V
4 0 V
3 0 V
3 0 V
3 0 V
3 0 V
4 0 V
3 0 V
3 0 V
3 0 V
4 0 V
3 0 V
3 0 V
3 0 V
4 0 V
3 0 V
3 0 V
3 0 V
4 0 V
3 0 V
3 0 V
3 -291 V
4 0 V
3 0 V
3 0 V
3 0 V
3 0 V
4 0 V
3 0 V
3 0 V
3 0 V
4 0 V
3 0 V
3 0 V
3 0 V
4 0 V
3 0 V
3 0 V
3 0 V
4 0 V
3 0 V
3 0 V
3 0 V
4 0 V
3 0 V
3 0 V
3 0 V
3 0 V
4 0 V
3 0 V
3 0 V
3 0 V
4 0 V
3 0 V
3 0 V
3 0 V
4 0 V
3 0 V
3 0 V
3 0 V
4 0 V
3 0 V
3 0 V
3 0 V
4 0 V
3 0 V
3 0 V
3 0 V
3 0 V
4 0 V
3 0 V
3 0 V
3 0 V
4 0 V
3 0 V
3 0 V
3 0 V
4 0 V
3 0 V
3 0 V
3 0 V
4 0 V
3 0 V
3 0 V
3 0 V
4 0 V
3 0 V
3 0 V
3 0 V
3 0 V
4 0 V
3 0 V
3 0 V
3 0 V
4 0 V
3 0 V
3 0 V
3 0 V
4 0 V
3 0 V
3 0 V
3 0 V
4 0 V
3 0 V
3 0 V
3 0 V
4 0 V
3 0 V
3 0 V
3 0 V
3 0 V
4 0 V
3 0 V
3 0 V
3 0 V
4 0 V
3 0 V
3 0 V
3 0 V
4 0 V
3 0 V
3 0 V
3 0 V
4 0 V
3 0 V
3 0 V
3 0 V
4 0 V
3 0 V
3 0 V
3 0 V
3 0 V
4 0 V
3 0 V
3 0 V
3 0 V
4 0 V
3 0 V
3 0 V
3 0 V
4 0 V
3 0 V
3 0 V
3 0 V
4 0 V
3 0 V
3 0 V
3 0 V
4 0 V
3 0 V
3 0 V
3 0 V
3 0 V
4 0 V
3 0 V
3 0 V
3 0 V
4 0 V
3 0 V
3 0 V
3 0 V
4 0 V
3 0 V
3 0 V
3 0 V
4 0 V
3 0 V
3 0 V
3 0 V
4 0 V
3 0 V
3 0 V
3 0 V
4 0 V
3 0 V
3 0 V
3 0 V
3 0 V
4 0 V
3 0 V
3 0 V
3 0 V
4 0 V
3 0 V
3 0 V
3 0 V
4 0 V
3 0 V
3 0 V
3 0 V
4 0 V
3 0 V
3 0 V
3 0 V
4 0 V
3 0 V
3 0 V
3 0 V
3 0 V
4 0 V
3 0 V
3 0 V
3 0 V
4 0 V
3 0 V
3 0 V
3 0 V
4 0 V
3 0 V
3 0 V
3 0 V
4 0 V
3 0 V
3 0 V
3 0 V
3 0 V
4 0 V
3 0 V
3 0 V
3 0 V
4 0 V
3 0 V
3 0 V
3 0 V
4 0 V
3 0 V
3 0 V
3 0 V
4 0 V
3 0 V
3 0 V
3 0 V
4 0 V
stroke 3099 2698 M
3 0 V
3 0 V
3 0 V
4 0 V
3 0 V
3 0 V
3 0 V
3 0 V
4 0 V
3 0 V
3 0 V
3 0 V
4 0 V
3 0 V
3 0 V
3 0 V
4 0 V
3 0 V
3 0 V
3 0 V
4 0 V
3 0 V
3 0 V
3 0 V
4 0 V
3 0 V
3 0 V
3 0 V
3 0 V
4 0 V
3 0 V
3 0 V
3 0 V
4 0 V
3 0 V
3 0 V
3 0 V
4 0 V
3 0 V
3 0 V
3 0 V
4 0 V
3 0 V
3 0 V
3 0 V
4 0 V
3 0 V
3 0 V
3 0 V
3 0 V
4 0 V
3 0 V
3 0 V
3 0 V
4 0 V
3 0 V
3 0 V
3 0 V
4 0 V
3 0 V
3 0 V
3 0 V
4 0 V
3 0 V
3 0 V
3 0 V
4 0 V
3 0 V
3 0 V
3 0 V
3 0 V
4 0 V
3 0 V
3 0 V
3 0 V
4 0 V
3 0 V
3 0 V
3 0 V
4 0 V
3 0 V
3 0 V
3 0 V
4 0 V
3 0 V
3 0 V
3 0 V
4 0 V
3 0 V
3 0 V
3 0 V
3 0 V
4 0 V
3 0 V
3 0 V
3 0 V
4 0 V
3 0 V
3 0 V
3 0 V
4 0 V
3 0 V
3 0 V
3 0 V
4 0 V
3 0 V
3 0 V
3 0 V
4 0 V
3 0 V
3 0 V
3 0 V
3 0 V
4 0 V
3 0 V
3 0 V
3 0 V
4 0 V
3 0 V
3 0 V
3 0 V
4 0 V
3 0 V
3 0 V
3 0 V
4 0 V
3 0 V
3 0 V
3 0 V
4 0 V
3 0 V
3 0 V
3 0 V
4 0 V
3 0 V
3 0 V
3 0 V
3 0 V
4 0 V
3 0 V
3 0 V
3 0 V
4 0 V
3 0 V
3 0 V
3 0 V
4 0 V
3 0 V
3 0 V
3 0 V
4 0 V
3 0 V
3 0 V
3 0 V
4 0 V
3 0 V
3 0 V
3 0 V
3 0 V
4 0 V
3 0 V
3 0 V
3 0 V
4 0 V
3 0 V
3 0 V
3 0 V
4 0 V
3 0 V
3 0 V
3 0 V
4 0 V
3 0 V
3 0 V
3 0 V
3 0 V
4 0 V
3 0 V
3 0 V
3 0 V
4 0 V
3 0 V
3 0 V
3 0 V
4 0 V
3 0 V
3 0 V
3 0 V
4 0 V
3 0 V
3 0 V
3 0 V
4 0 V
3 0 V
3 0 V
3 0 V
4 0 V
3 0 V
3 0 V
3 0 V
3 0 V
4 0 V
3 0 V
3 0 V
3 0 V
4 0 V
3 0 V
3 0 V
3 0 V
4 0 V
3 0 V
3 0 V
3 0 V
4 0 V
3 0 V
3 0 V
3 0 V
4 0 V
3 0 V
3 0 V
3 0 V
3 0 V
4 0 V
3 0 V
3 0 V
3 0 V
4 0 V
3 0 V
3 0 V
3 0 V
4 0 V
3 0 V
3 0 V
3 0 V
4 0 V
3 0 V
3 0 V
3 0 V
4 0 V
3 0 V
3 0 V
3 0 V
3 0 V
4 0 V
3 0 V
3 0 V
3 0 V
4 0 V
3 0 V
stroke 3905 2698 M
3 0 V
3 0 V
4 0 V
3 0 V
3 0 V
3 0 V
4 0 V
3 0 V
3 0 V
3 0 V
4 0 V
3 0 V
3 0 V
3 0 V
3 0 V
4 0 V
3 0 V
3 0 V
3 0 V
4 0 V
3 0 V
3 0 V
3 0 V
4 0 V
3 0 V
3 0 V
3 0 V
4 0 V
3 0 V
3 0 V
3 0 V
4 0 V
3 0 V
3 0 V
3 0 V
3 0 V
4 0 V
3 0 V
3 0 V
3 0 V
4 0 V
3 0 V
3 0 V
3 0 V
4 0 V
3 0 V
3 0 V
3 0 V
4 0 V
3 0 V
3 0 V
3 0 V
4 0 V
3 0 V
3 0 V
3 0 V
3 0 V
4 0 V
3 0 V
3 0 V
3 0 V
4 0 V
3 0 V
3 0 V
3 0 V
4 0 V
3 0 V
3 0 V
3 0 V
4 0 V
3 0 V
3 0 V
3 0 V
4 0 V
3 0 V
3 0 V
3 0 V
4 0 V
3 0 V
3 0 V
3 0 V
3 0 V
4 0 V
3 0 V
3 0 V
3 0 V
4 0 V
3 0 V
3 0 V
3 0 V
4 0 V
3 0 V
3 0 V
3 0 V
4 0 V
3 0 V
3 0 V
3 0 V
4 0 V
3 0 V
3 0 V
3 0 V
3 0 V
4 0 V
3 0 V
3 0 V
3 0 V
4 0 V
3 0 V
3 0 V
3 0 V
4 0 V
3 0 V
3 0 V
3 0 V
4 0 V
3 0 V
3 0 V
3 0 V
3 0 V
4 0 V
3 0 V
3 0 V
3 0 V
4 0 V
3 0 V
3 0 V
3 0 V
4 0 V
3 0 V
3 0 V
3 0 V
4 0 V
3 0 V
3 0 V
3 0 V
4 0 V
3 0 V
3 0 V
3 0 V
4 0 V
3 0 V
3 0 V
3 0 V
3 0 V
4 0 V
3 0 V
3 0 V
3 0 V
4 0 V
3 0 V
3 0 V
3 0 V
4 0 V
3 0 V
3 0 V
3 0 V
4 0 V
3 0 V
3 0 V
3 0 V
4 0 V
3 0 V
3 0 V
3 0 V
3 0 V
4 0 V
3 0 V
3 0 V
3 0 V
4 0 V
3 0 V
3 0 V
3 0 V
4 0 V
3 0 V
3 0 V
3 0 V
4 0 V
3 0 V
3 0 V
3 0 V
4 0 V
3 0 V
3 0 V
3 0 V
3 0 V
4 0 V
3 0 V
3 0 V
3 0 V
4 0 V
3 0 V
3 0 V
3 0 V
4 0 V
3 0 V
3 0 V
3 0 V
4 0 V
3 0 V
3 0 V
3 0 V
4 0 V
3 0 V
3 0 V
3 0 V
3 0 V
4 0 V
3 0 V
3 0 V
3 0 V
4 0 V
3 0 V
3 0 V
3 0 V
4 0 V
3 0 V
3 0 V
3 0 V
4 0 V
3 0 V
3 0 V
3 0 V
4 0 V
3 0 V
3 0 V
3 0 V
3 0 V
4 0 V
3 0 V
3 0 V
3 0 V
4 0 V
3 0 V
3 0 V
3 0 V
4 0 V
3 0 V
3 0 V
3 0 V
4 0 V
3 0 V
3 0 V
3 0 V
4 0 V
3 0 V
3 0 V
3 0 V
stroke 4711 2698 M
3 0 V
4 0 V
3 0 V
3 0 V
3 0 V
4 0 V
3 0 V
3 0 V
3 0 V
4 0 V
3 0 V
3 0 V
3 0 V
4 0 V
3 0 V
3 0 V
3 0 V
4 0 V
3 0 V
3 0 V
3 0 V
3 0 V
4 0 V
3 0 V
3 0 V
3 0 V
4 0 V
3 0 V
3 0 V
3 0 V
4 0 V
3 0 V
3 0 V
3 0 V
4 0 V
3 0 V
3 0 V
3 0 V
4 0 V
3 0 V
3 0 V
3 0 V
4 0 V
3 0 V
3 0 V
3 0 V
3 0 V
4 0 V
3 0 V
3 0 V
3 0 V
4 0 V
3 0 V
3 0 V
3 0 V
4 0 V
3 0 V
3 0 V
3 0 V
4 0 V
3 0 V
3 0 V
3 0 V
3 0 V
4 0 V
3 0 V
3 0 V
3 0 V
4 0 V
3 0 V
3 0 V
3 0 V
4 0 V
3 0 V
3 0 V
3 0 V
4 0 V
3 0 V
3 0 V
3 0 V
4 0 V
3 0 V
3 0 V
3 0 V
4 0 V
3 0 V
3 0 V
3 0 V
3 0 V
4 0 V
3 0 V
3 0 V
3 0 V
4 0 V
3 0 V
3 0 V
3 0 V
4 0 V
3 0 V
3 0 V
3 0 V
4 0 V
3 0 V
3 0 V
3 0 V
4 0 V
3 0 V
3 0 V
3 0 V
3 0 V
4 0 V
3 0 V
3 0 V
3 0 V
4 0 V
3 0 V
3 0 V
3 0 V
4 0 V
3 0 V
3 0 V
3 0 V
4 0 V
3 0 V
3 0 V
3 0 V
4 0 V
3 0 V
3 0 V
3 0 V
3 0 V
4 0 V
3 0 V
3 0 V
3 0 V
4 0 V
3 0 V
3 0 V
3 0 V
4 0 V
3 0 V
3 0 V
3 0 V
4 0 V
3 0 V
3 0 V
3 0 V
4 0 V
3 0 V
3 0 V
3 0 V
3 0 V
4 0 V
3 0 V
3 0 V
3 0 V
4 0 V
3 72 V
3 0 V
3 0 V
4 0 V
3 0 V
3 0 V
3 0 V
4 0 V
3 0 V
3 0 V
3 0 V
4 0 V
3 0 V
3 0 V
3 0 V
3 0 V
4 0 V
3 0 V
3 0 V
3 0 V
4 0 V
3 0 V
3 0 V
3 0 V
4 0 V
3 0 V
3 0 V
3 0 V
4 0 V
3 0 V
3 0 V
3 0 V
4 0 V
3 0 V
3 0 V
3 0 V
3 0 V
4 0 V
3 0 V
3 0 V
3 0 V
4 0 V
3 0 V
3 0 V
3 0 V
4 0 V
3 0 V
3 0 V
3 0 V
4 0 V
3 0 V
3 0 V
3 0 V
4 0 V
3 0 V
3 0 V
3 0 V
3 0 V
4 0 V
3 0 V
3 0 V
3 0 V
4 0 V
3 0 V
3 0 V
3 0 V
4 0 V
3 0 V
3 0 V
3 0 V
4 0 V
3 0 V
3 0 V
3 0 V
4 0 V
3 0 V
3 0 V
3 0 V
4 0 V
3 0 V
3 0 V
3 0 V
3 0 V
4 0 V
3 0 V
3 0 V
3 0 V
4 0 V
3 0 V
3 0 V
3 0 V
4 0 V
stroke 5518 2770 M
3 0 V
3 0 V
3 0 V
4 0 V
3 0 V
3 0 V
3 0 V
3 0 V
4 0 V
3 0 V
3 0 V
3 0 V
4 0 V
3 0 V
3 0 V
3 0 V
4 0 V
3 0 V
3 0 V
3 0 V
4 0 V
3 0 V
3 0 V
3 0 V
4 0 V
3 0 V
3 0 V
3 0 V
4 0 V
3 0 V
3 0 V
3 0 V
3 0 V
4 0 V
3 0 V
3 0 V
3 0 V
4 0 V
3 0 V
3 0 V
3 0 V
4 0 V
3 0 V
3 0 V
3 0 V
4 0 V
3 0 V
3 0 V
3 0 V
4 0 V
3 0 V
3 0 V
3 0 V
3 0 V
4 0 V
3 0 V
3 0 V
3 0 V
4 0 V
3 0 V
3 0 V
3 0 V
4 0 V
3 0 V
3 0 V
3 0 V
4 0 V
3 0 V
3 0 V
3 0 V
4 0 V
3 0 V
3 0 V
3 0 V
3 0 V
4 0 V
3 0 V
3 0 V
3 0 V
4 0 V
3 0 V
3 0 V
3 0 V
4 0 V
3 0 V
3 0 V
3 0 V
4 0 V
3 0 V
3 0 V
3 0 V
4 0 V
3 0 V
3 0 V
3 0 V
3 0 V
4 0 V
3 0 V
3 0 V
3 0 V
4 0 V
3 0 V
3 0 V
3 0 V
4 0 V
3 0 V
3 0 V
3 0 V
4 0 V
3 0 V
3 0 V
3 0 V
4 0 V
3 0 V
3 0 V
3 0 V
3 0 V
4 0 V
3 0 V
3 0 V
3 0 V
4 0 V
3 0 V
3 0 V
3 0 V
4 0 V
3 0 V
3 0 V
3 0 V
4 0 V
3 0 V
3 0 V
3 0 V
4 0 V
3 0 V
3 0 V
3 0 V
3 0 V
4 0 V
3 0 V
3 0 V
3 0 V
4 0 V
3 0 V
3 0 V
3 0 V
4 0 V
3 0 V
3 0 V
3 0 V
4 0 V
3 0 V
3 0 V
3 0 V
4 0 V
3 0 V
3 0 V
3 0 V
3 0 V
4 0 V
3 0 V
3 0 V
3 0 V
4 0 V
3 0 V
3 0 V
3 0 V
4 0 V
3 0 V
3 0 V
3 0 V
4 0 V
3 0 V
3 0 V
3 0 V
4 0 V
3 0 V
3 0 V
3 0 V
3 0 V
4 0 V
3 0 V
3 0 V
3 0 V
4 0 V
3 0 V
3 0 V
3 0 V
4 0 V
3 0 V
3 0 V
3 0 V
4 0 V
3 0 V
3 0 V
3 0 V
4 0 V
3 0 V
3 0 V
3 0 V
3 0 V
4 0 V
3 0 V
3 0 V
3 0 V
4 0 V
3 0 V
3 0 V
3 0 V
4 0 V
3 0 V
3 0 V
3 0 V
4 0 V
3 0 V
3 0 V
3 0 V
4 0 V
3 0 V
3 0 V
3 0 V
4 0 V
3 0 V
3 0 V
3 0 V
3 0 V
4 0 V
3 0 V
3 0 V
3 0 V
4 0 V
3 0 V
3 0 V
3 0 V
4 0 V
3 0 V
3 0 V
3 0 V
4 0 V
3 0 V
3 0 V
3 0 V
% End plot #3
% Begin plot #4
stroke
2.000 UL
LTb
0.90 0.62 0.00 C
LCb setrgbcolor
5652 4346 M
[ [(Helvetica) 140.0 0.0 true true 0 (Power energy transfer)]
] -46.7 MRshow
/Helvetica findfont 140 scalefont setfont
2.000 UL
LTb
0.90 0.62 0.00 C
5736 4346 M
399 0 V
686 790 M
3 0 V
3 0 V
4 0 V
3 0 V
3 0 V
3 0 V
4 0 V
3 0 V
3 0 V
3 0 V
4 0 V
3 0 V
3 0 V
3 0 V
4 0 V
3 0 V
3 0 V
3 0 V
4 0 V
3 0 V
3 0 V
3 0 V
3 0 V
4 0 V
3 0 V
3 0 V
3 0 V
4 0 V
3 0 V
3 0 V
3 0 V
4 0 V
3 0 V
3 0 V
3 0 V
4 0 V
3 0 V
3 0 V
3 0 V
4 0 V
3 0 V
3 0 V
3 0 V
3 0 V
4 0 V
3 0 V
3 0 V
3 0 V
4 0 V
3 0 V
3 0 V
3 0 V
4 0 V
3 0 V
3 0 V
3 0 V
4 0 V
3 0 V
3 0 V
3 0 V
4 0 V
3 0 V
3 0 V
3 0 V
3 0 V
4 0 V
3 0 V
3 0 V
3 0 V
4 0 V
3 0 V
3 0 V
3 0 V
4 0 V
3 0 V
3 0 V
3 0 V
4 0 V
3 0 V
3 0 V
3 0 V
4 0 V
3 0 V
3 0 V
3 0 V
3 0 V
4 0 V
3 0 V
3 0 V
3 0 V
4 0 V
3 0 V
3 0 V
3 0 V
4 0 V
3 0 V
3 0 V
3 0 V
4 0 V
3 0 V
3 0 V
3 0 V
4 0 V
3 0 V
3 0 V
3 0 V
4 0 V
3 0 V
3 0 V
3 0 V
3 0 V
4 0 V
3 0 V
3 0 V
3 0 V
4 0 V
3 0 V
3 0 V
3 0 V
4 0 V
3 0 V
3 0 V
3 0 V
4 0 V
3 0 V
3 0 V
3 0 V
4 0 V
3 0 V
3 0 V
3 0 V
3 0 V
4 0 V
3 0 V
3 0 V
3 0 V
4 0 V
3 0 V
3 0 V
3 0 V
4 0 V
3 0 V
3 0 V
3 0 V
4 0 V
3 0 V
3 0 V
3 0 V
4 0 V
3 0 V
3 0 V
3 0 V
3 0 V
4 0 V
3 0 V
3 0 V
3 0 V
4 0 V
3 0 V
3 0 V
3 0 V
4 0 V
3 0 V
3 0 V
3 0 V
4 0 V
3 0 V
3 0 V
3 0 V
4 0 V
3 0 V
3 0 V
3 0 V
3 0 V
4 0 V
3 0 V
3 0 V
3 0 V
4 0 V
3 0 V
3 0 V
3 0 V
4 0 V
3 0 V
3 0 V
3 0 V
4 0 V
3 0 V
3 0 V
3 0 V
4 0 V
3 0 V
3 0 V
3 0 V
3 0 V
4 0 V
3 0 V
3 0 V
3 0 V
4 0 V
3 0 V
3 0 V
3 0 V
4 0 V
3 0 V
3 0 V
3 0 V
4 0 V
3 0 V
3 0 V
3 0 V
4 0 V
3 0 V
3 0 V
3 0 V
3 0 V
4 0 V
3 0 V
3 0 V
3 0 V
4 0 V
3 0 V
3 0 V
3 0 V
4 0 V
3 0 V
3 0 V
3 0 V
4 0 V
3 0 V
3 0 V
3 0 V
4 0 V
3 0 V
3 0 V
3 0 V
3 0 V
4 0 V
3 0 V
3 0 V
3 0 V
4 0 V
3 0 V
3 0 V
3 0 V
4 0 V
3 0 V
stroke 1486 790 M
3 0 V
3 0 V
4 0 V
3 0 V
3 0 V
3 0 V
4 0 V
3 0 V
3 0 V
3 0 V
3 0 V
4 0 V
3 1 V
3 -1 V
3 0 V
4 0 V
3 0 V
3 1 V
3 0 V
4 -1 V
3 0 V
3 0 V
3 1 V
4 0 V
3 -1 V
3 0 V
3 0 V
4 1 V
3 0 V
3 0 V
3 -1 V
3 0 V
4 1 V
3 0 V
3 0 V
3 -1 V
4 0 V
3 0 V
3 1 V
3 0 V
4 -1 V
3 0 V
3 0 V
3 1 V
4 0 V
3 0 V
3 -1 V
3 0 V
4 1 V
3 0 V
3 0 V
3 -1 V
4 0 V
3 1 V
3 0 V
3 0 V
3 0 V
4 -1 V
3 0 V
3 1 V
3 0 V
4 0 V
3 -1 V
3 0 V
3 1 V
4 0 V
3 0 V
3 -1 V
3 0 V
4 1 V
3 0 V
3 0 V
3 0 V
4 -1 V
3 1 V
3 0 V
3 0 V
3 0 V
4 -1 V
3 0 V
3 1 V
3 0 V
4 0 V
3 -1 V
3 0 V
3 1 V
4 1 V
3 -2 V
3 2 V
3 0 V
4 -2 V
3 3 V
3 -1 V
3 -1 V
4 2 V
3 -1 V
3 -1 V
3 3 V
3 -3 V
4 0 V
3 3 V
3 -3 V
3 1 V
4 2 V
3 -4 V
3 3 V
3 1 V
4 -4 V
3 4 V
3 -1 V
3 -2 V
4 4 V
3 -3 V
3 -1 V
3 5 V
4 -4 V
3 0 V
3 4 V
3 -5 V
3 3 V
4 2 V
3 -6 V
3 6 V
3 0 V
4 -6 V
3 8 V
3 -3 V
3 -4 V
4 8 V
3 -5 V
3 -1 V
3 8 V
4 -9 V
3 3 V
3 6 V
3 -10 V
4 7 V
3 3 V
3 -11 V
3 11 V
3 -1 V
4 -9 V
3 14 V
3 -7 V
3 -6 V
4 16 V
3 -12 V
3 0 V
3 14 V
4 -17 V
3 7 V
3 11 V
3 -20 V
4 16 V
3 3 V
3 -20 V
3 23 V
4 -6 V
3 -15 V
3 28 V
3 -17 V
3 -7 V
4 29 V
3 -27 V
3 6 V
3 24 V
4 -34 V
3 19 V
3 16 V
3 -38 V
4 35 V
3 0 V
3 -35 V
3 48 V
4 -20 V
3 -23 V
3 55 V
3 -41 V
4 -3 V
3 52 V
3 -58 V
3 22 V
3 40 V
4 -70 V
3 51 V
3 17 V
3 -71 V
4 78 V
3 -16 V
3 -57 V
3 97 V
4 -54 V
3 -29 V
3 103 V
3 -92 V
4 14 V
3 91 V
3 -122 V
3 66 V
4 59 V
3 -136 V
3 120 V
3 5 V
3 -125 V
4 167 V
3 -63 V
3 -87 V
3 193 V
4 -137 V
3 -20 V
3 190 V
3 -204 V
4 70 V
3 149 V
3 -247 V
3 173 V
4 68 V
3 -254 V
3 271 V
3 -46 V
4 -211 V
3 344 V
3 -184 V
3 -112 V
3 370 V
4 -321 V
3 38 V
3 333 V
3 -432 V
4 223 V
3 220 V
3 -485 V
3 418 V
4 35 V
3 -456 V
3 587 V
3 -208 V
4 -324 V
3 688 V
3 -472 V
3 -92 V
4 686 V
3 -716 V
3 229 V
3 549 V
3 -881 V
4 595 V
3 270 V
3 -915 V
stroke 2292 791 M
3 952 V
4 -138 V
3 -773 V
3 1222 V
3 -626 V
4 -432 V
3 1331 V
3 -1123 V
3 94 V
4 1211 V
3 -1527 V
3 754 V
3 826 V
4 -1738 V
3 1455 V
3 176 V
3 -1652 V
4 2072 V
3 -682 V
3 -1210 V
3 2458 V
3 -1635 V
4 -392 V
3 2476 V
3 -2519 V
3 739 V
4 2019 V
3 -3139 V
3 2055 V
3 1047 V
4 -3297 V
3 3341 V
3 -390 V
3 -2827 V
3 3980 V
1 0 R
3 -1772 V
3 -1652 V
3 -537 V
4 210 V
3 218 V
3 150 V
3 30 V
3 -102 V
4 -198 V
3 -224 V
3 -172 V
3 -59 V
4 75 V
3 185 V
3 229 V
3 194 V
4 91 V
3 -43 V
3 -164 V
3 -227 V
4 -210 V
3 -119 V
3 14 V
3 143 V
4 223 V
3 225 V
3 150 V
3 20 V
3 -116 V
4 -211 V
3 -233 V
3 -174 V
3 -51 V
4 88 V
3 199 V
3 241 V
3 198 V
4 87 V
3 -56 V
3 -179 V
3 -239 V
4 -216 V
3 -116 V
3 24 V
3 158 V
4 237 V
3 234 V
3 149 V
3 12 V
3 -130 V
4 -227 V
3 -243 V
3 -175 V
3 -45 V
4 103 V
3 215 V
3 253 V
3 202 V
4 82 V
3 -69 V
3 -193 V
3 -254 V
4 -222 V
3 -114 V
3 36 V
3 174 V
4 252 V
3 243 V
3 149 V
3 3 V
3 -145 V
4 -242 V
3 -255 V
3 -178 V
3 -37 V
4 117 V
3 231 V
3 266 V
3 208 V
4 78 V
3 -81 V
3 -211 V
3 -268 V
4 -230 V
3 -112 V
3 47 V
3 191 V
4 269 V
3 253 V
3 150 V
3 -7 V
3 -160 V
4 -259 V
3 -267 V
3 -181 V
3 -31 V
4 132 V
3 249 V
3 281 V
3 215 V
4 73 V
3 -94 V
3 -229 V
3 -284 V
4 -239 V
3 -110 V
3 58 V
3 208 V
4 287 V
3 266 V
3 151 V
3 -16 V
3 -176 V
4 -278 V
3 -281 V
3 -186 V
3 -24 V
4 148 V
3 268 V
3 298 V
3 222 V
4 70 V
3 -108 V
3 -248 V
3 -301 V
4 -250 V
3 -109 V
3 70 V
3 227 V
4 306 V
3 279 V
3 154 V
3 -25 V
3 -194 V
4 -298 V
3 -296 V
3 -191 V
3 -18 V
4 164 V
3 289 V
3 315 V
3 232 V
4 66 V
3 -121 V
3 -268 V
3 -322 V
4 -261 V
3 -109 V
3 82 V
3 247 V
4 328 V
3 293 V
3 158 V
3 -34 V
4 -213 V
3 -319 V
3 -314 V
3 -197 V
3 -12 V
4 181 V
3 312 V
3 334 V
3 242 V
4 64 V
3 -136 V
3 -290 V
3 -342 V
4 -275 V
3 -109 V
3 94 V
3 268 V
4 350 V
3 310 V
3 163 V
3 -43 V
4 -232 V
3 -343 V
3 -332 V
3 -206 V
3 -5 V
4 199 V
3 335 V
3 356 V
3 254 V
4 62 V
3 -152 V
3 -312 V
3 -365 V
4 -290 V
3 -112 V
3 108 V
3 290 V
4 374 V
3 329 V
3 169 V
3 -51 V
3 -253 V
4 -369 V
3 -353 V
3 -215 V
3 0 V
4 218 V
3 360 V
3 381 V
3 267 V
4 61 V
3 -168 V
3 -337 V
3 -390 V
4 -306 V
3 -115 V
3 120 V
3 315 V
stroke 3095 1225 M
4 401 V
3 349 V
3 175 V
3 -59 V
4 -275 V
3 -394 V
3 -377 V
3 -226 V
3 5 V
4 237 V
3 388 V
3 406 V
3 283 V
4 60 V
3 -182 V
3 -364 V
3 -418 V
4 -326 V
3 -118 V
3 133 V
3 340 V
4 430 V
3 372 V
3 185 V
3 -68 V
4 -298 V
3 -424 V
3 -402 V
3 -239 V
3 9 V
4 258 V
3 418 V
3 434 V
3 300 V
4 61 V
3 -199 V
3 -392 V
3 -448 V
4 -346 V
3 -123 V
3 145 V
3 367 V
4 462 V
3 397 V
3 194 V
3 -76 V
4 -322 V
3 -454 V
3 -430 V
3 -254 V
3 13 V
4 278 V
3 450 V
3 465 V
3 320 V
4 63 V
3 -216 V
3 -422 V
3 -480 V
4 -371 V
3 -129 V
3 159 V
3 394 V
4 496 V
3 425 V
3 207 V
3 -83 V
4 -347 V
3 -489 V
3 -461 V
3 -271 V
3 16 V
4 301 V
3 482 V
3 500 V
3 342 V
4 67 V
3 -234 V
3 -454 V
3 -515 V
4 -397 V
3 -138 V
3 172 V
3 424 V
4 532 V
3 457 V
3 222 V
3 -91 V
4 -374 V
3 -525 V
3 -495 V
3 -290 V
3 18 V
4 323 V
3 519 V
3 537 V
3 367 V
4 71 V
3 -251 V
3 -488 V
3 -554 V
4 -426 V
3 -148 V
3 184 V
3 457 V
4 572 V
3 490 V
3 239 V
3 -97 V
4 -402 V
3 -565 V
3 -531 V
3 -313 V
3 19 V
4 347 V
3 558 V
3 577 V
3 396 V
4 76 V
3 -269 V
3 -523 V
3 -596 V
4 -459 V
3 532 V
3 721 V
3 656 V
4 366 V
3 -51 V
3 -448 V
3 -691 V
4 -693 V
3 -459 V
3 -69 V
3 341 V
4 628 V
3 697 V
3 522 V
3 168 V
3 -246 V
4 -570 V
3 -698 V
3 -586 V
3 -274 V
4 130 V
3 484 V
3 668 V
3 620 V
4 354 V
3 -31 V
3 -405 V
3 -638 V
4 -652 V
3 -439 V
3 -80 V
3 304 V
4 579 V
3 650 V
3 497 V
3 171 V
3 -213 V
4 -523 V
3 -650 V
3 -555 V
3 -268 V
4 106 V
3 441 V
3 620 V
3 582 V
4 343 V
3 -15 V
3 -365 V
3 -590 V
4 -610 V
3 -420 V
3 -89 V
3 271 V
3 532 V
4 608 V
3 472 V
3 171 V
3 -186 V
4 -477 V
3 -605 V
3 -524 V
3 -263 V
4 86 V
3 402 V
3 575 V
3 548 V
4 330 V
3 -1 V
3 -330 V
3 -546 V
4 -571 V
3 -401 V
3 -95 V
3 241 V
4 490 V
3 567 V
3 448 V
3 173 V
3 -162 V
4 -438 V
3 -564 V
3 -493 V
3 -256 V
4 68 V
3 365 V
3 533 V
3 514 V
4 318 V
3 11 V
3 -297 V
3 -503 V
4 -535 V
3 -383 V
3 -100 V
3 214 V
4 451 V
3 530 V
3 424 V
3 170 V
3 -139 V
4 -402 V
3 -523 V
3 -466 V
3 -248 V
4 53 V
3 332 V
3 494 V
3 483 V
4 305 V
3 22 V
3 -268 V
3 -466 V
4 -501 V
3 -364 V
3 -103 V
3 190 V
4 415 V
3 494 V
3 401 V
3 168 V
3 -120 V
4 -368 V
3 -486 V
3 -438 V
3 -240 V
4 39 V
stroke 3902 849 M
3 302 V
3 458 V
3 453 V
4 292 V
3 30 V
3 -242 V
3 -430 V
4 -468 V
3 -346 V
3 -106 V
3 169 V
4 382 V
3 461 V
3 378 V
3 166 V
3 -104 V
4 -336 V
3 -453 V
3 -412 V
3 -231 V
4 28 V
3 274 V
3 424 V
3 426 V
4 279 V
3 35 V
3 -218 V
3 -396 V
4 -438 V
3 -328 V
3 -107 V
3 150 V
4 351 V
3 430 V
3 357 V
3 163 V
3 -89 V
4 -308 V
3 -422 V
3 -388 V
3 -222 V
4 19 V
3 251 V
3 393 V
3 399 V
4 265 V
3 41 V
3 -197 V
3 -367 V
4 -409 V
3 -311 V
3 -106 V
3 132 V
4 323 V
3 401 V
3 337 V
3 159 V
3 -76 V
4 -282 V
3 -391 V
3 -365 V
3 -214 V
4 10 V
3 228 V
3 364 V
3 375 V
4 253 V
3 46 V
3 -177 V
3 -339 V
4 -383 V
3 -295 V
3 -107 V
3 117 V
4 298 V
3 374 V
3 320 V
3 154 V
4 -64 V
3 -259 V
3 -365 V
3 -343 V
3 -205 V
4 2 V
3 209 V
3 339 V
3 351 V
4 242 V
3 49 V
3 -161 V
3 -315 V
4 -359 V
3 -279 V
3 -105 V
3 105 V
4 276 V
3 349 V
3 301 V
3 150 V
4 -55 V
3 -239 V
3 -341 V
3 -323 V
3 -196 V
4 -2 V
3 191 V
3 316 V
3 330 V
4 229 V
3 50 V
3 -146 V
3 -292 V
4 -336 V
3 -264 V
3 -103 V
3 93 V
4 254 V
3 326 V
3 284 V
3 144 V
3 -47 V
4 -218 V
3 -317 V
3 -304 V
3 -187 V
4 -7 V
3 174 V
3 293 V
3 309 V
4 217 V
3 52 V
3 -133 V
3 -270 V
4 -314 V
3 -249 V
3 -99 V
3 82 V
4 235 V
3 304 V
3 267 V
3 137 V
4 -39 V
3 -201 V
3 -295 V
3 -285 V
3 -178 V
4 -10 V
3 159 V
3 272 V
3 289 V
4 206 V
3 52 V
3 -121 V
3 -250 V
4 -293 V
3 -235 V
3 -96 V
3 74 V
4 216 V
3 284 V
3 251 V
3 132 V
4 -34 V
3 -186 V
3 -273 V
3 -268 V
3 -169 V
4 -13 V
3 146 V
3 253 V
3 271 V
4 195 V
3 51 V
3 -110 V
3 -232 V
4 -274 V
3 -221 V
3 -93 V
3 66 V
4 201 V
3 264 V
3 236 V
3 126 V
4 -28 V
3 -172 V
3 -255 V
3 -251 V
3 -160 V
4 -15 V
3 135 V
3 234 V
3 254 V
4 184 V
3 50 V
3 -100 V
3 -216 V
4 -256 V
3 -208 V
3 -89 V
3 60 V
4 186 V
3 247 V
3 222 V
3 119 V
4 -24 V
3 -159 V
3 -238 V
3 -235 V
3 -152 V
4 -15 V
3 123 V
3 219 V
3 237 V
4 174 V
3 49 V
3 -92 V
3 -200 V
4 -240 V
3 -196 V
3 -85 V
3 54 V
4 173 V
3 231 V
3 208 V
3 113 V
4 -21 V
3 -147 V
3 -222 V
3 -220 V
3 -143 V
4 -17 V
3 115 V
3 204 V
3 222 V
4 163 V
3 48 V
3 -85 V
3 -187 V
4 -224 V
3 -184 V
3 -81 V
3 49 V
4 161 V
3 216 V
3 196 V
3 106 V
4 -18 V
3 -137 V
3 -207 V
stroke 4708 1157 M
3 -207 V
3 -134 V
4 -17 V
3 106 V
3 191 V
3 208 V
4 154 V
3 45 V
3 -78 V
3 -174 V
4 -210 V
3 -173 V
3 -77 V
3 45 V
4 150 V
3 202 V
3 184 V
3 101 V
4 -16 V
3 -128 V
3 -194 V
3 -194 V
3 -126 V
4 -17 V
3 99 V
3 178 V
3 196 V
4 144 V
3 43 V
3 -72 V
3 -163 V
4 -197 V
3 -162 V
3 -73 V
3 42 V
4 140 V
3 190 V
3 172 V
3 95 V
4 -15 V
3 -119 V
3 -182 V
3 -182 V
4 -119 V
3 -15 V
3 92 V
3 167 V
3 183 V
4 136 V
3 40 V
3 -67 V
3 -153 V
4 -185 V
3 -152 V
3 -68 V
3 39 V
4 132 V
3 178 V
3 161 V
3 89 V
4 -14 V
3 -112 V
3 -170 V
3 -171 V
3 -111 V
4 -15 V
3 87 V
3 157 V
3 172 V
4 127 V
3 38 V
3 -64 V
3 -143 V
4 -174 V
3 -142 V
3 -64 V
3 37 V
4 124 V
3 167 V
3 151 V
3 84 V
4 -14 V
3 -105 V
3 -160 V
3 -160 V
4 -105 V
3 -13 V
3 82 V
3 147 V
3 162 V
4 119 V
3 35 V
3 -60 V
3 -135 V
4 -163 V
3 -134 V
3 -59 V
3 35 V
4 117 V
3 157 V
3 142 V
3 78 V
4 -13 V
3 -99 V
3 -151 V
3 -151 V
4 -97 V
3 -12 V
3 78 V
3 139 V
3 151 V
4 112 V
3 33 V
3 -58 V
3 -127 V
4 -154 V
3 -125 V
3 -55 V
3 34 V
4 110 V
3 148 V
3 134 V
3 73 V
4 -14 V
3 -94 V
3 -143 V
3 -141 V
4 -91 V
3 -10 V
3 74 V
3 132 V
3 142 V
4 105 V
3 29 V
3 -55 V
3 -121 V
4 -144 V
3 -117 V
3 -51 V
3 33 V
4 105 V
3 139 V
3 126 V
3 68 V
4 -14 V
3 -90 V
3 -135 V
3 -133 V
4 -85 V
3 -8 V
3 71 V
3 125 V
3 134 V
4 98 V
3 26 V
3 -53 V
3 -115 V
4 -136 V
3 486 V
3 -628 V
3 939 V
4 1252 V
3 -16 V
3 -1236 V
3 -929 V
4 462 V
3 1191 V
3 403 V
3 -873 V
4 -1052 V
3 27 V
3 994 V
3 673 V
3 -478 V
4 -1022 V
3 -319 V
3 712 V
3 802 V
4 -115 V
3 -873 V
3 -553 V
3 401 V
4 799 V
3 183 V
3 -648 V
3 -672 V
4 105 V
3 696 V
3 392 V
3 -394 V
4 -682 V
3 -142 V
3 527 V
3 506 V
3 -149 V
4 -606 V
3 -319 V
3 327 V
3 529 V
4 62 V
3 -474 V
3 -420 V
3 129 V
4 481 V
3 217 V
3 -311 V
3 -448 V
4 -45 V
3 383 V
3 311 V
3 -147 V
4 -415 V
3 -176 V
3 256 V
3 345 V
3 -1 V
4 -339 V
3 -257 V
3 124 V
3 328 V
4 113 V
3 -238 V
3 -291 V
3 5 V
4 273 V
3 187 V
3 -130 V
3 -281 V
4 -90 V
3 195 V
3 221 V
3 -29 V
4 -240 V
3 -154 V
3 109 V
3 221 V
4 52 V
3 -178 V
3 -186 V
3 28 V
3 191 V
4 109 V
3 -107 V
3 -188 V
3 -41 V
4 145 V
3 139 V
3 -39 V
3 -166 V
stroke 5514 880 M
4 -90 V
3 89 V
3 146 V
3 19 V
4 -130 V
3 -116 V
3 34 V
3 132 V
3 61 V
4 -85 V
3 -124 V
3 -13 V
3 105 V
4 86 V
3 -39 V
3 -114 V
3 -50 V
4 70 V
3 96 V
3 0 V
3 -93 V
4 -71 V
3 33 V
3 90 V
3 33 V
4 -65 V
3 -81 V
3 1 V
3 75 V
4 52 V
3 -35 V
3 -78 V
3 -26 V
3 54 V
4 61 V
3 -7 V
3 -66 V
3 -43 V
4 29 V
3 61 V
3 15 V
3 -48 V
4 -52 V
3 7 V
3 53 V
3 30 V
4 -29 V
3 -52 V
3 -12 V
3 40 V
4 39 V
3 -10 V
3 -46 V
3 -26 V
3 25 V
4 40 V
3 6 V
3 -36 V
3 -32 V
4 9 V
3 36 V
3 18 V
3 -24 V
4 -34 V
3 -4 V
3 29 V
3 24 V
4 -11 V
3 -31 V
3 -14 V
3 19 V
4 26 V
3 1 V
3 -26 V
3 -20 V
3 9 V
4 25 V
3 10 V
3 -18 V
3 -23 V
4 0 V
3 21 V
3 15 V
3 -9 V
4 -22 V
3 -8 V
3 15 V
3 17 V
4 -1 V
3 -19 V
3 -12 V
3 7 V
4 18 V
3 5 V
3 -14 V
3 -15 V
3 2 V
4 14 V
3 10 V
3 -8 V
3 -15 V
4 -4 V
3 11 V
3 12 V
3 -3 V
4 -13 V
3 -8 V
3 7 V
3 12 V
4 2 V
3 -10 V
3 -10 V
3 2 V
4 11 V
3 5 V
3 -6 V
3 -10 V
3 -2 V
4 8 V
3 8 V
3 -3 V
3 -9 V
4 -5 V
3 6 V
3 8 V
3 0 V
4 -7 V
3 -6 V
3 2 V
3 7 V
4 3 V
3 -5 V
3 -6 V
3 -1 V
4 6 V
3 5 V
3 -3 V
3 -6 V
3 -3 V
4 5 V
3 5 V
3 0 V
3 -6 V
4 -4 V
3 3 V
3 5 V
3 1 V
4 -3 V
3 -5 V
3 0 V
3 5 V
4 3 V
3 -3 V
3 -4 V
3 -1 V
4 3 V
3 3 V
3 0 V
3 -4 V
3 -3 V
4 2 V
3 4 V
3 1 V
3 -3 V
4 -3 V
3 0 V
3 3 V
3 2 V
4 -1 V
3 -4 V
3 0 V
3 2 V
4 3 V
3 -1 V
3 -3 V
3 -2 V
4 2 V
3 3 V
3 0 V
3 -2 V
3 -2 V
4 0 V
3 3 V
3 1 V
3 -2 V
4 -2 V
3 0 V
3 2 V
3 1 V
4 0 V
3 -3 V
3 -1 V
3 2 V
4 2 V
3 0 V
3 -2 V
3 -2 V
4 1 V
3 2 V
3 1 V
3 -2 V
3 -1 V
4 0 V
3 1 V
3 1 V
3 0 V
4 -2 V
3 -1 V
3 2 V
3 1 V
4 0 V
3 -1 V
3 -2 V
3 1 V
4 1 V
3 1 V
3 -1 V
3 -1 V
4 0 V
3 1 V
3 1 V
3 -1 V
4 -1 V
3 -1 V
3 1 V
3 2 V
3 0 V
4 -2 V
3 -1 V
3 1 V
3 1 V
4 1 V
3 -1 V
3 -1 V
3 0 V
4 1 V
3 1 V
3 -1 V
3 -1 V
4 -1 V
3 1 V
3 1 V
3 0 V
% End plot #4
stroke
LTb
LCb setrgbcolor
2.000 UL
LTB
LCb setrgbcolor
686 4899 N
686 448 L
5617 0 V
0 4451 V
-5617 0 V
Z stroke
1.000 UP
0.90 0.12 0.06 C
1226 626 M
[ [(Arial) 180.0 0.0 true true 0 (Shale/Clay)]
] -60.0 MCshow
/Helvetica findfont 140 scalefont setfont
0.90 0.12 0.06 C
5763 626 M
[ [(Arial) 180.0 0.0 true true 0 (Shale/Clay)]
] -60.0 MCshow
/Helvetica findfont 140 scalefont setfont
0.90 0.12 0.06 C
2090 626 M
[ [(Arial) 180.0 0.0 true true 0 (Brine)]
] -60.0 MCshow
/Helvetica findfont 140 scalefont setfont
0.90 0.12 0.06 C
3711 626 M
[ [(Arial) 180.0 0.0 true true 0 (Oil-Sand)]
] -60.0 MCshow
/Helvetica findfont 140 scalefont setfont
2.000 UL
LTb
LCb setrgbcolor
stroke
grestore
end
showpage
%%Trailer
%%DocumentFonts: Arial Helvetica
